NVEC	XP_001629910.2	8.44e-36	30	347	138	33.110	299	159	10	671	955	13	284
NVEC	XP_032223466.1	7.32e-16	7	202	82.4	56.250	64	28	0	893	956	457	520
NVEC	XP_032223464.1	2.24e-15	7	199	81.3	56.250	64	28	0	893	956	645	708
NVEC	XP_032223465.1	2.45e-15	7	198	80.9	56.250	64	28	0	893	956	575	638
NVEC	XP_001617912.2	8.29e-13	7	162	67.0	41.429	70	40	1	887	956	69	137
