ATEN	XP_031564435.1	1.30e-32	28	322	128	32.639	288	143	12	685	955	29	282
ATEN	XP_031572475.1	1.00e-16	8	209	85.1	54.795	73	33	0	884	956	639	711
ATEN	XP_031567271.1	7.23e-13	12	178	73.2	41.739	115	63	3	841	955	1558	1668
ATEN	XP_031567278.1	7.23e-13	12	178	73.2	41.739	115	63	3	841	955	1557	1667
