DMEL	NP_001096865.1	1.08e-20	18	245	99.0	65.152	66	23	0	891	956	1286	1351
DMEL	NP_524794.2	1.10e-20	18	245	99.0	65.152	66	23	0	891	956	1464	1529
DMEL	NP_476871.2	1.65e-20	20	244	98.6	54.118	85	35	1	872	956	1496	1576
DMEL	NP_001162644.1	1.71e-20	20	244	98.6	54.118	85	35	1	872	956	1253	1333
DMEL	NP_001284802.1	1.71e-20	20	244	98.6	54.118	85	35	1	872	956	1253	1333
DMEL	NP_001284803.1	1.71e-20	20	244	98.6	54.118	85	35	1	872	956	1253	1333
DMEL	NP_001247006.1	2.88e-12	7	173	71.2	48.529	68	34	1	886	952	799	866
DMEL	NP_731385.1	2.88e-12	7	173	71.2	48.529	68	34	1	886	952	799	866
DMEL	NP_001260372.1	6.69e-11	6	162	67.0	47.273	55	29	0	893	947	798	852
DMEL	NP_525101.2	6.69e-11	6	162	67.0	47.273	55	29	0	893	947	798	852
