OVAF	XP_020625665.1	1.45e-41	28	389	154	36.301	292	126	12	684	955	22	273
OVAF	XP_020625666.1	8.02e-21	28	230	93.2	29.861	288	113	10	684	955	22	236
OVAF	XP_020626314.1	4.62e-15	7	196	80.1	47.692	65	34	0	893	957	685	749
OVAF	XP_020611323.1	3.12e-12	7	173	71.2	48.571	70	35	1	886	955	1490	1558
OVAF	XP_020627343.1	7.57e-11	7	161	66.6	49.275	69	34	1	887	955	778	845
