EPAL	XP_020903333.1	1.92e-31	36	313	125	27.848	316	162	7	533	828	19	288
EPAL	XP_020916618.1	1.37e-15	7	199	81.3	56.452	62	27	0	766	827	579	640
EPAL	XP_020902826.1	5.43e-12	16	170	70.1	34.641	153	76	5	693	828	1541	1686
EPAL	XP_028515490.1	5.48e-12	16	170	70.1	34.641	153	76	5	693	828	1542	1687
EPAL	XP_028515492.1	5.48e-12	16	170	70.1	34.641	153	76	5	693	828	1542	1687
EPAL	XP_020897473.1	7.37e-12	8	163	67.4	45.714	70	37	1	759	828	238	306
EPAL	XP_020897472.1	3.23e-11	8	161	66.6	45.714	70	37	1	759	828	391	459
EPAL	XP_020896074.1	3.75e-11	11	162	67.0	45.902	61	32	1	764	824	963	1022
EPAL	XP_020906324.1	4.31e-11	11	162	67.0	45.902	61	32	1	764	824	1059	1118
