OVAF	XP_020625665.1	5.30e-36	35	346	137	31.864	295	154	9	538	828	22	273
OVAF	XP_020625666.1	4.04e-18	21	208	84.7	56.716	67	29	0	762	828	170	236
OVAF	XP_020626314.1	1.01e-14	8	192	78.6	46.970	66	35	0	765	830	684	749
OVAF	XP_020611323.1	3.54e-12	8	172	70.9	48.571	70	35	1	759	828	1490	1558
OVAF	XP_020603474.1	1.11e-11	10	167	68.9	38.947	95	42	2	749	828	633	726
OVAF	XP_020603475.1	1.18e-11	10	166	68.6	38.947	95	42	2	749	828	632	725
OVAF	XP_020631808.1	1.62e-11	15	165	68.2	51.667	60	28	1	765	824	619	677
OVAF	XP_020619581.1	2.50e-11	8	162	67.0	47.143	70	36	1	759	828	415	483
