SPIS	XP_022788400.1	9.14e-35	35	337	134	32.203	295	151	11	538	828	23	272
SPIS	XP_022788401.1	4.86e-19	21	216	87.8	58.209	67	28	0	762	828	171	237
SPIS	XP_022800979.1	3.71e-17	8	213	86.7	53.030	66	31	0	765	830	675	740
SPIS	XP_022800980.1	3.74e-17	8	213	86.7	53.030	66	31	0	765	830	674	739
SPIS	XP_022780254.1	3.11e-12	8	173	71.2	48.571	70	35	1	759	828	1492	1560
SPIS	XP_022780251.1	3.30e-12	8	172	70.9	48.571	70	35	1	759	828	1493	1561
SPIS	XP_022780252.1	3.30e-12	8	172	70.9	48.571	70	35	1	759	828	1493	1561
SPIS	XP_022780253.1	3.30e-12	8	172	70.9	48.571	70	35	1	759	828	1493	1561
SPIS	XP_022777959.1	2.71e-11	10	164	67.8	38.947	95	42	2	749	828	625	718
SPIS	XP_022777946.1	2.85e-11	10	164	67.8	38.947	95	42	2	749	828	646	739
SPIS	XP_022777953.1	2.85e-11	10	164	67.8	38.947	95	42	2	749	828	646	739
SPIS	XP_022797047.1	3.78e-11	8	161	66.6	47.143	70	36	1	759	828	415	483
