EMUE	m.5426	2.23e-19	28	220	89.4	29.085	306	135	15	704	980	31	283
EMUE	m.98980	2.73e-11	7	154	63.9	43.750	64	36	0	919	982	147	210
EMUE	m.98975	3.68e-11	7	150	62.4	43.750	64	36	0	919	982	107	170
EMUE	m.98977	3.83e-11	7	158	65.5	43.750	64	36	0	919	982	315	378
EMUE	m.98976	4.17e-11	7	158	65.5	43.750	64	36	0	919	982	337	400
