DMEL	NP_001162644.1	7.97e-23	19	263	105	68.182	66	21	0	917	982	1268	1333
DMEL	NP_001284802.1	7.97e-23	19	263	105	68.182	66	21	0	917	982	1268	1333
DMEL	NP_001284803.1	7.97e-23	19	263	105	68.182	66	21	0	917	982	1268	1333
DMEL	NP_476871.2	8.03e-23	19	264	106	68.182	66	21	0	917	982	1511	1576
DMEL	NP_524794.2	9.50e-22	19	255	102	65.152	66	23	0	917	982	1464	1529
DMEL	NP_001096865.1	1.13e-21	19	254	102	65.152	66	23	0	917	982	1286	1351
DMEL	NP_476871.2	9.47e-12	19	170	70.1	30.894	123	52	3	693	811	1297	1390
DMEL	NP_001162644.1	1.02e-11	19	169	69.7	30.894	123	52	3	693	811	1054	1147
DMEL	NP_001284802.1	1.02e-11	19	169	69.7	30.894	123	52	3	693	811	1054	1147
DMEL	NP_001284803.1	1.02e-11	19	169	69.7	30.894	123	52	3	693	811	1054	1147
DMEL	NP_524794.2	1.28e-11	19	169	69.7	30.894	123	52	3	693	811	1245	1338
DMEL	NP_001096865.1	1.42e-11	19	168	69.3	30.894	123	52	3	693	811	1067	1160
DMEL	NP_001260372.1	1.80e-11	6	167	68.9	47.458	59	31	0	915	973	794	852
DMEL	NP_525101.2	1.80e-11	6	167	68.9	47.458	59	31	0	915	973	794	852
