CHOL	m.214334	2.82e-23	29	254	102	32.973	185	111	4	2	174	10	193
CHOL	m.214354	3.00e-23	29	254	102	32.973	185	111	4	2	174	10	193
CHOL	m.165795	3.88e-17	27	205	83.6	50.000	72	33	2	106	174	235	306
CHOL	m.899885	2.06e-14	28	188	77.0	40.566	106	51	3	84	182	707	807
CHOL	m.165795	9.20e-14	27	178	73.2	43.056	72	38	1	106	174	17	88
CHOL	m.214354	5.29e-13	29	173	71.2	41.892	74	41	1	103	174	2	75
CHOL	m.913926	5.71e-13	29	176	72.4	48.101	79	35	2	106	183	2577	2650
CHOL	m.214334	6.26e-13	29	172	70.9	41.892	74	41	1	103	174	2	75
CHOL	m.169355	8.84e-11	25	155	64.3	41.333	75	38	2	106	174	207	281
