OVAF	XP_020627343.1	7.24e-102	99	840	328	35.505	614	279	15	1	598	336	848
OVAF	XP_020627344.1	2.41e-79	68	680	266	38.810	420	199	9	1	408	336	709
OVAF	XP_020608098.1	1.23e-39	43	392	155	45.402	174	91	2	1	174	400	569
OVAF	XP_020608097.1	1.27e-39	43	392	155	45.402	174	91	2	1	174	406	575
OVAF	XP_020608092.1	1.33e-39	43	392	155	45.402	174	91	2	1	174	406	575
OVAF	XP_020608093.1	1.33e-39	43	392	155	45.402	174	91	2	1	174	406	575
OVAF	XP_020608094.1	1.33e-39	43	392	155	45.402	174	91	2	1	174	406	575
OVAF	XP_020608095.1	1.33e-39	43	392	155	45.402	174	91	2	1	174	406	575
OVAF	XP_020628056.1	1.40e-36	99	369	146	26.230	671	381	22	1	597	489	1119
OVAF	XP_020611323.1	3.37e-30	57	318	127	41.860	172	93	3	1	165	79	250
OVAF	XP_020628056.1	1.39e-29	99	313	125	38.122	181	105	5	16	190	394	573
OVAF	XP_020608098.1	3.85e-29	43	309	123	36.058	208	120	4	1	201	505	706
OVAF	XP_020608097.1	4.23e-29	43	308	123	36.058	208	120	4	1	201	511	712
OVAF	XP_020608092.1	4.35e-29	43	308	123	36.058	208	120	4	1	201	511	712
OVAF	XP_020608093.1	4.35e-29	43	308	123	36.058	208	120	4	1	201	511	712
OVAF	XP_020608094.1	4.35e-29	43	308	123	36.058	208	120	4	1	201	511	712
OVAF	XP_020608095.1	4.35e-29	43	308	123	36.058	208	120	4	1	201	511	712
OVAF	XP_020606785.1	9.72e-20	62	232	94.0	32.292	192	112	6	1	183	178	360
OVAF	XP_020606785.1	7.00e-17	62	208	84.7	31.390	223	122	8	1	196	61	279
OVAF	XP_020608097.1	9.27e-16	43	199	81.3	41.489	94	50	1	86	174	377	470
OVAF	XP_020608092.1	9.43e-16	43	199	81.3	41.489	94	50	1	86	174	377	470
OVAF	XP_020608093.1	9.43e-16	43	199	81.3	41.489	94	50	1	86	174	377	470
OVAF	XP_020608094.1	9.43e-16	43	199	81.3	41.489	94	50	1	86	174	377	470
OVAF	XP_020608095.1	9.43e-16	43	199	81.3	41.489	94	50	1	86	174	377	470
OVAF	XP_020608098.1	9.65e-16	43	199	81.3	41.489	94	50	1	86	174	371	464
OVAF	XP_020627343.1	2.09e-13	99	179	73.6	37.838	111	66	2	64	174	293	400
OVAF	XP_020627344.1	2.16e-13	68	179	73.6	37.838	111	66	2	64	174	293	400
OVAF	XP_020611323.1	1.12e-12	57	174	71.6	45.070	71	37	1	106	174	75	145
OVAF	XP_020631808.1	2.01e-11	41	162	67.0	36.800	125	68	4	84	201	293	413
