AMIL	XP_029201075.1	3.72e-72	78	631	247	37.811	402	196	10	1	397	289	641
AMIL	XP_029201138.1	3.72e-72	78	631	247	37.811	402	196	10	1	397	289	641
AMIL	XP_029201199.1	3.97e-72	78	631	247	37.811	402	196	10	1	397	289	641
AMIL	XP_029190753.1	2.92e-41	45	406	160	44.944	178	94	2	2	179	361	534
AMIL	XP_029190754.1	2.92e-41	45	406	160	44.944	178	94	2	2	179	361	534
AMIL	XP_029190755.1	3.05e-41	35	405	160	44.944	178	94	2	2	179	361	534
AMIL	XP_029187358.1	2.06e-40	44	399	158	47.126	174	88	2	1	174	417	586
AMIL	XP_029187359.1	2.45e-40	44	399	158	47.126	174	88	2	1	174	411	580
AMIL	XP_029190753.1	6.18e-29	45	308	123	37.500	208	117	5	1	201	465	666
AMIL	XP_029190754.1	6.18e-29	45	308	123	37.500	208	117	5	1	201	465	666
AMIL	XP_029190755.1	8.01e-29	35	306	122	37.500	208	117	5	1	201	465	666
AMIL	XP_029187358.1	1.17e-27	44	298	119	34.615	208	123	4	1	201	522	723
AMIL	XP_029187359.1	1.42e-27	44	297	119	34.615	208	123	4	1	201	516	717
AMIL	XP_029189732.1	1.51e-27	57	298	119	39.655	174	90	4	1	163	262	431
AMIL	XP_029189730.1	1.54e-27	57	298	119	39.655	174	90	4	1	163	262	431
AMIL	XP_029189731.1	1.54e-27	57	298	119	39.655	174	90	4	1	163	262	431
AMIL	XP_029213323.1	5.33e-27	47	293	117	38.636	176	101	4	1	175	617	786
AMIL	XP_029205103.1	2.52e-26	75	286	114	27.211	441	255	15	1	382	303	736
AMIL	XP_029205104.1	2.52e-26	75	286	114	27.211	441	255	15	1	382	303	736
AMIL	XP_029205105.1	2.52e-26	75	286	114	27.211	441	255	15	1	382	303	736
AMIL	XP_029205106.1	2.52e-26	75	286	114	27.211	441	255	15	1	382	303	736
AMIL	XP_029213323.1	2.96e-25	47	278	111	36.464	181	107	6	16	190	410	588
AMIL	XP_029213323.1	2.26e-24	47	271	108	37.989	179	103	5	1	174	505	680
AMIL	XP_029190753.1	5.15e-18	45	218	88.6	36.691	139	71	4	75	207	322	449
AMIL	XP_029190754.1	5.15e-18	45	218	88.6	36.691	139	71	4	75	207	322	449
AMIL	XP_029190755.1	5.76e-18	35	218	88.6	36.691	139	71	4	75	207	322	449
AMIL	XP_029187358.1	1.86e-17	44	214	87.0	40.000	105	56	2	75	174	379	481
AMIL	XP_029187359.1	2.00e-17	44	214	87.0	40.000	105	56	2	75	174	373	475
AMIL	XP_029205103.1	7.36e-17	75	209	85.1	32.143	168	109	3	1	163	73	240
AMIL	XP_029205104.1	7.36e-17	75	209	85.1	32.143	168	109	3	1	163	73	240
AMIL	XP_029205105.1	7.36e-17	75	209	85.1	32.143	168	109	3	1	163	73	240
AMIL	XP_029205106.1	7.36e-17	75	209	85.1	32.143	168	109	3	1	163	73	240
AMIL	XP_029201075.1	1.31e-15	78	198	80.9	52.174	69	31	1	531	599	728	794
AMIL	XP_029201138.1	1.31e-15	78	198	80.9	52.174	69	31	1	531	599	728	794
AMIL	XP_029201199.1	1.32e-15	78	198	80.9	52.174	69	31	1	531	599	727	793
AMIL	XP_029205103.1	3.06e-14	75	187	76.6	32.143	196	117	7	1	181	186	380
AMIL	XP_029205104.1	3.06e-14	75	187	76.6	32.143	196	117	7	1	181	186	380
AMIL	XP_029205105.1	3.06e-14	75	187	76.6	32.143	196	117	7	1	181	186	380
AMIL	XP_029205106.1	3.06e-14	75	187	76.6	32.143	196	117	7	1	181	186	380
AMIL	XP_029201075.1	8.81e-14	78	183	75.1	40.594	101	57	2	74	174	256	353
AMIL	XP_029201138.1	8.81e-14	78	183	75.1	40.594	101	57	2	74	174	256	353
AMIL	XP_029201199.1	9.11e-14	78	183	75.1	40.594	101	57	2	74	174	256	353
AMIL	XP_029189730.1	1.54e-12	57	174	71.6	45.070	71	37	1	106	174	258	328
AMIL	XP_029189731.1	1.54e-12	57	174	71.6	45.070	71	37	1	106	174	258	328
AMIL	XP_029189732.1	1.54e-12	57	174	71.6	45.070	71	37	1	106	174	258	328
AMIL	XP_029189732.1	6.37e-11	57	160	66.2	44.118	68	36	1	528	595	1603	1668
AMIL	XP_029189730.1	6.49e-11	57	160	66.2	44.118	68	36	1	528	595	1605	1670
AMIL	XP_029189731.1	6.49e-11	57	160	66.2	44.118	68	36	1	528	595	1605	1670
