PDAM	XP_027038107.1	2.38e-78	80	676	265	38.129	417	219	8	1	408	329	715
PDAM	XP_027054128.1	5.47e-42	43	410	162	46.067	178	92	2	2	179	406	579
PDAM	XP_027040067.1	2.72e-40	44	397	157	48.276	174	86	3	1	174	422	591
PDAM	XP_027040066.1	2.80e-40	44	397	157	48.276	174	86	3	1	174	422	591
PDAM	XP_027040068.1	2.97e-40	44	397	157	48.276	174	86	3	1	174	396	565
PDAM	XP_027040069.1	2.97e-40	44	397	157	48.276	174	86	3	1	174	396	565
PDAM	XP_027053274.1	4.00e-32	77	333	132	42.077	183	99	3	1	176	266	448
PDAM	XP_027053987.1	2.66e-29	44	310	124	38.122	181	105	5	16	190	407	586
PDAM	XP_027054128.1	9.20e-29	43	305	122	37.500	208	117	5	1	201	510	711
PDAM	XP_027040067.1	2.40e-28	44	302	120	35.577	208	121	4	1	201	527	728
PDAM	XP_027040066.1	2.51e-28	44	302	120	35.577	208	121	4	1	201	527	728
PDAM	XP_027040068.1	2.69e-28	44	301	120	35.577	208	121	4	1	201	501	702
PDAM	XP_027040069.1	2.69e-28	44	301	120	35.577	208	121	4	1	201	501	702
PDAM	XP_027053987.1	8.55e-28	44	298	119	38.547	179	103	4	1	174	502	678
PDAM	XP_027053987.1	4.66e-27	44	292	117	38.068	176	102	4	1	175	615	784
PDAM	XP_027053274.1	1.28e-20	77	240	97.1	26.161	409	226	12	1	396	379	724
PDAM	XP_027038107.1	9.68e-19	80	223	90.5	56.338	71	29	1	529	599	788	856
PDAM	XP_027054128.1	2.65e-16	43	203	82.8	38.679	106	56	3	75	174	367	469
PDAM	XP_027040067.1	2.87e-16	44	203	82.8	38.095	105	58	2	75	174	384	486
PDAM	XP_027040066.1	2.90e-16	44	203	82.8	38.095	105	58	2	75	174	384	486
PDAM	XP_027040068.1	2.96e-16	44	203	82.8	38.095	105	58	2	75	174	358	460
PDAM	XP_027040069.1	2.96e-16	44	203	82.8	38.095	105	58	2	75	174	358	460
PDAM	XP_027038107.1	2.41e-15	80	195	79.7	42.342	111	59	3	64	174	288	393
PDAM	XP_027038599.1	7.64e-15	63	189	77.4	35.714	140	81	4	1	136	74	208
PDAM	XP_027053274.1	1.05e-12	77	174	71.6	45.070	71	37	1	106	174	262	332
PDAM	XP_027053274.1	4.52e-11	77	160	66.2	44.118	68	36	1	528	595	1621	1686
