SCIL	scpid41679|	1.05e-45	99	441	174	26.645	608	328	19	12	595	455	968
SCIL	scpid40697|	1.44e-45	99	440	174	26.645	608	328	19	12	595	470	983
SCIL	scpid40985|	5.12e-43	99	420	166	26.171	619	328	20	12	595	455	979
SCIL	scpid40059|	6.17e-43	99	420	166	26.171	619	328	20	12	595	470	994
SCIL	scpid11215|	2.75e-32	40	336	134	39.665	179	99	4	1	174	1283	1457
SCIL	scpid10559|	2.77e-32	30	336	134	39.665	179	99	4	1	174	1283	1457
SCIL	scpid10679|	3.24e-32	31	336	134	39.665	179	99	4	1	174	1283	1457
SCIL	scpid16595|	3.33e-32	31	335	133	39.665	179	99	4	1	174	1074	1248
SCIL	scpid17566|	3.52e-32	40	335	133	39.665	179	99	4	1	174	1074	1248
SCIL	scpid16403|	4.07e-32	30	335	133	39.665	179	99	4	1	174	1074	1248
SCIL	scpid14075|	3.67e-30	29	319	127	38.674	181	101	5	1	174	1262	1439
SCIL	scpid23601|	3.79e-30	29	319	127	38.674	181	101	5	1	174	1053	1230
SCIL	scpid10679|	5.08e-30	31	318	127	38.674	181	101	5	1	174	1499	1676
SCIL	scpid16595|	5.29e-30	31	318	127	38.674	181	101	5	1	174	1290	1467
SCIL	scpid15805|	1.66e-29	40	314	125	37.989	179	102	4	1	174	1046	1220
SCIL	scpid24842|	1.66e-29	40	313	125	37.989	179	102	4	1	174	837	1011
SCIL	scpid13763|	1.77e-29	30	313	125	37.989	179	102	4	1	174	1046	1220
SCIL	scpid23453|	1.81e-29	30	313	125	37.989	179	102	4	1	174	837	1011
SCIL	scpid11215|	2.15e-29	40	313	125	35.510	245	145	7	1	238	1393	1631
SCIL	scpid14075|	2.17e-29	29	313	125	37.989	179	102	4	1	174	1046	1220
SCIL	scpid23601|	2.18e-29	29	313	125	37.989	179	102	4	1	174	837	1011
SCIL	scpid15805|	2.52e-29	40	312	124	35.918	245	144	7	1	238	1156	1394
SCIL	scpid24842|	2.52e-29	40	312	124	35.918	245	144	7	1	238	947	1185
SCIL	scpid17566|	2.69e-29	40	312	124	35.510	245	145	7	1	238	1184	1422
SCIL	scpid19265|	3.58e-29	29	311	124	34.574	188	105	5	1	174	1046	1229
SCIL	scpid29832|	3.65e-29	29	310	124	34.574	188	105	5	1	174	837	1020
SCIL	scpid14075|	4.74e-29	29	310	124	40.556	180	100	4	1	176	1156	1332
SCIL	scpid10679|	4.76e-29	31	310	124	40.000	180	101	4	1	176	1393	1569
SCIL	scpid23601|	5.08e-29	29	310	124	40.556	180	100	4	1	176	947	1123
SCIL	scpid16595|	5.09e-29	31	310	124	40.000	180	101	4	1	176	1184	1360
SCIL	scpid11215|	5.73e-29	40	310	124	34.574	188	105	5	1	174	1046	1229
SCIL	scpid10559|	6.55e-29	30	309	123	34.574	188	105	5	1	174	1046	1229
SCIL	scpid17566|	6.55e-29	40	309	123	34.574	188	105	5	1	174	837	1020
SCIL	scpid10679|	7.11e-29	31	309	123	34.574	188	105	5	1	174	1046	1229
SCIL	scpid16595|	7.20e-29	31	309	123	34.574	188	105	5	1	174	837	1020
SCIL	scpid16403|	8.12e-29	30	308	123	34.574	188	105	5	1	174	837	1020
SCIL	scpid13763|	1.17e-28	30	307	122	39.227	181	104	3	1	178	1156	1333
SCIL	scpid23453|	1.23e-28	30	306	122	39.227	181	104	3	1	178	947	1124
SCIL	scpid10559|	1.25e-28	30	307	122	38.674	181	105	3	1	178	1393	1570
SCIL	scpid16403|	1.68e-28	30	306	122	38.674	181	105	3	1	178	1184	1361
SCIL	scpid11215|	4.09e-28	40	303	121	33.333	195	101	6	1	174	1163	1349
SCIL	scpid10559|	4.20e-28	30	303	121	33.333	195	101	6	1	174	1163	1349
SCIL	scpid27430|	4.28e-28	32	302	120	33.036	224	113	7	1	192	926	1144
SCIL	scpid17566|	4.55e-28	40	302	120	33.333	195	101	6	1	174	954	1140
SCIL	scpid19265|	4.56e-28	29	302	120	34.555	191	104	5	1	174	926	1112
SCIL	scpid29832|	4.62e-28	29	301	120	34.555	191	104	5	1	174	717	903
SCIL	scpid43558|	4.73e-28	32	301	120	33.036	224	113	7	1	192	717	935
SCIL	scpid10679|	4.93e-28	31	302	120	33.333	195	101	6	1	174	1163	1349
SCIL	scpid16595|	4.96e-28	31	302	120	33.333	195	101	6	1	174	954	1140
SCIL	scpid16403|	5.40e-28	30	301	120	33.333	195	101	6	1	174	954	1140
SCIL	scpid11215|	7.54e-28	40	301	120	34.555	191	104	5	1	174	926	1112
SCIL	scpid10559|	7.88e-28	30	300	120	34.555	191	104	5	1	174	926	1112
SCIL	scpid17566|	8.77e-28	40	300	120	34.555	191	104	5	1	174	717	903
SCIL	scpid15805|	9.42e-28	40	300	120	34.555	191	104	5	1	174	926	1112
SCIL	scpid10679|	9.51e-28	31	300	120	34.555	191	104	5	1	174	926	1112
SCIL	scpid16595|	9.64e-28	31	300	120	34.555	191	104	5	1	174	717	903
SCIL	scpid24842|	9.96e-28	40	299	119	34.555	191	104	5	1	174	717	903
SCIL	scpid16403|	1.00e-27	30	299	119	34.555	191	104	5	1	174	717	903
SCIL	scpid13763|	1.15e-27	30	299	119	34.555	191	104	5	1	174	926	1112
SCIL	scpid23453|	1.24e-27	30	298	119	34.555	191	104	5	1	174	717	903
SCIL	scpid14075|	1.33e-27	29	298	119	34.555	191	104	5	1	174	926	1112
SCIL	scpid23601|	1.33e-27	29	298	119	34.555	191	104	5	1	174	717	903
SCIL	scpid23244|	2.72e-23	51	263	105	34.591	159	97	2	6	164	490	641
SCIL	scpid27430|	1.62e-18	32	223	90.5	31.707	205	102	6	3	174	793	992
SCIL	scpid43558|	1.66e-18	32	223	90.5	31.707	205	102	6	3	174	584	783
SCIL	scpid15805|	2.54e-18	40	222	90.1	31.707	205	102	6	3	174	793	992
SCIL	scpid19265|	2.60e-18	29	222	90.1	31.707	205	102	6	3	174	793	992
SCIL	scpid24842|	2.73e-18	40	222	90.1	31.707	205	102	6	3	174	584	783
SCIL	scpid29832|	2.88e-18	29	221	89.7	31.707	205	102	6	3	174	584	783
SCIL	scpid13763|	2.89e-18	30	222	90.1	31.707	205	102	6	3	174	793	992
SCIL	scpid23453|	3.27e-18	30	221	89.7	31.707	205	102	6	3	174	584	783
SCIL	scpid14075|	3.48e-18	29	221	89.7	31.707	205	102	6	3	174	793	992
SCIL	scpid23601|	3.60e-18	29	221	89.7	31.707	205	102	6	3	174	584	783
SCIL	scpid11215|	3.86e-18	40	221	89.7	31.707	205	102	6	3	174	793	992
SCIL	scpid10559|	3.97e-18	30	221	89.7	31.707	205	102	6	3	174	793	992
SCIL	scpid17566|	4.49e-18	40	220	89.4	31.707	205	102	6	3	174	584	783
SCIL	scpid10679|	4.74e-18	31	220	89.4	30.631	222	110	7	3	185	793	1009
SCIL	scpid16595|	4.90e-18	31	220	89.4	30.631	222	110	7	3	185	584	800
SCIL	scpid16403|	5.38e-18	30	219	89.0	31.707	205	102	6	3	174	584	783
SCIL	scpid105737|	1.33e-16	29	194	79.3	47.368	76	38	1	101	174	89	164
SCIL	scpid100900|	2.25e-16	24	190	77.8	45.122	82	43	1	101	180	89	170
SCIL	scpid105209|	1.38e-15	32	187	76.6	40.385	104	52	3	101	194	89	192
SCIL	scpid24842|	1.50e-13	40	182	74.7	34.932	146	87	5	1	141	1053	1195
SCIL	scpid15805|	1.69e-13	40	182	74.7	34.932	146	87	5	1	141	1262	1404
SCIL	scpid17566|	2.11e-13	40	181	74.3	34.932	146	87	5	1	141	1290	1432
SCIL	scpid11215|	2.20e-13	40	181	74.3	34.932	146	87	5	1	141	1499	1641
