DGIG	XP_028409566.1	2.38e-78	99	669	262	32.441	598	321	13	1	595	177	694
DGIG	XP_028409565.1	5.53e-78	99	668	261	32.441	598	321	13	1	595	207	724
DGIG	XP_028402346.1	4.49e-40	40	396	157	45.251	179	94	2	1	179	300	474
DGIG	XP_028402344.1	4.50e-40	40	396	157	45.251	179	94	2	1	179	301	475
DGIG	XP_028402345.1	4.50e-40	40	396	157	45.251	179	94	2	1	179	301	475
DGIG	XP_028395289.1	1.46e-30	57	322	128	40.782	179	101	3	1	174	220	398
DGIG	XP_028400130.1	1.03e-24	33	273	109	35.354	198	116	6	1	197	483	669
DGIG	XP_028400131.1	1.09e-24	31	273	109	37.500	176	102	5	1	175	457	625
DGIG	XP_028400132.1	2.56e-24	31	268	107	37.500	176	102	5	1	175	483	651
DGIG	XP_028400131.1	4.17e-24	31	268	107	34.463	177	110	4	3	174	235	410
DGIG	XP_028400130.1	4.25e-24	33	268	107	34.463	177	110	4	3	174	261	436
DGIG	XP_028400132.1	5.80e-24	31	265	106	34.463	177	110	4	3	174	261	436
DGIG	XP_028402344.1	1.71e-23	40	263	105	37.853	177	102	3	1	176	406	575
DGIG	XP_028402345.1	1.71e-23	40	263	105	37.853	177	102	3	1	176	406	575
DGIG	XP_028402346.1	1.71e-23	40	263	105	37.853	177	102	3	1	176	405	574
DGIG	XP_028400131.1	3.08e-23	31	261	105	35.602	191	112	6	1	185	343	528
DGIG	XP_028400130.1	3.49e-23	33	260	104	35.602	191	112	6	1	185	369	554
DGIG	XP_028400132.1	4.54e-23	31	258	103	35.602	191	112	6	1	185	369	554
DGIG	XP_028402344.1	2.05e-17	40	213	86.7	39.623	106	57	2	74	174	262	365
DGIG	XP_028402345.1	2.05e-17	40	213	86.7	39.623	106	57	2	74	174	262	365
DGIG	XP_028402346.1	2.05e-17	40	213	86.7	39.623	106	57	2	74	174	261	364
DGIG	XP_028395289.1	1.62e-16	57	206	84.0	37.705	183	100	7	1	178	331	504
DGIG	XP_028409566.1	1.15e-14	99	190	77.8	42.857	105	57	2	70	174	140	241
DGIG	XP_028409565.1	1.52e-14	99	189	77.4	42.857	105	57	2	70	174	170	271
DGIG	XP_028395289.1	2.21e-14	57	189	77.4	44.118	68	36	1	109	174	219	286
DGIG	XP_028398470.1	1.90e-13	12	177	72.8	45.946	74	38	1	524	597	351	422
