DGRA	m.104072	5.08e-19	25	217	88.2	56.944	72	28	1	106	174	15	86
DGRA	m.196044	1.55e-18	43	221	89.7	31.579	209	107	6	2	174	234	442
DGRA	m.236276	1.32e-16	28	198	80.9	50.000	72	36	0	106	177	106	177
DGRA	m.52054	1.58e-16	28	204	83.2	47.126	87	44	1	88	174	557	641
DGRA	m.82584	4.17e-13	23	172	70.9	45.205	73	36	2	106	174	50	122
DGRA	m.21641	6.44e-13	25	174	71.6	50.000	72	31	1	108	174	30	101
DGRA	m.196044	9.53e-12	43	165	68.2	24.211	285	174	7	3	257	106	378
DGRA	m.196044	5.21e-11	43	159	65.9	40.789	76	42	1	106	178	100	175
