family , species_abbrev , species_name , sseqid , evalue , qcovs , score , bitscore , pident , length , mismatch , gapopen , qstart , qend , sstart , send
Bilateria,HMIA,Hofstenia_miamia,HMIM003077-PA,7.49e-24,40,265,106,28.415,366,190,11,502,830,358,688
Bilateria,HMIA,Hofstenia_miamia,HMIM021214-PA,1.55e-12,8,171,70.5,40.909,66,39,0,764,829,503,568
Bilateria,DMEL,Drosophila_melanogaster,NP_001162644.1,7.35e-37,37,379,150,33.123,317,168,8,526,829,1048,1333
Bilateria,DMEL,Drosophila_melanogaster,NP_001284802.1,7.35e-37,37,379,150,33.123,317,168,8,526,829,1048,1333
Bilateria,DMEL,Drosophila_melanogaster,NP_001284803.1,7.35e-37,37,379,150,33.123,317,168,8,526,829,1048,1333
Choanoflagellata,SDOL,Salpingoeca_dolichothecata,m.61520,1.48e-11,7,153,63.5,46.032,63,32,1,760,820,106,168
Choanoflagellata,ASPE,Acanthoma_spectabilis,NA,NA,NA,NA,NA,NA,NA,NA,NA,NA,NA,NA,NA
Choanoflagellata,CHOL,Codosiga_hollandica,NA,NA,NA,NA,NA,NA,NA,NA,NA,NA,NA,NA,NA
Choanoflagellata,CPEX,Choanoeca_perplexa,NA,NA,NA,NA,NA,NA,NA,NA,NA,NA,NA,NA,NA
Choanoflagellata,DCOS,Didymoeca_costata,NA,NA,NA,NA,NA,NA,NA,NA,NA,NA,NA,NA,NA
Choanoflagellata,DGRA,Diaphanoeca_grandis,NA,NA,NA,NA,NA,NA,NA,NA,NA,NA,NA,NA,NA
Choanoflagellata,HBAL,Hartaetosiga_balthica,NA,NA,NA,NA,NA,NA,NA,NA,NA,NA,NA,NA,NA
Choanoflagellata,HGRA,Hartaetosiga_gracilis,NA,NA,NA,NA,NA,NA,NA,NA,NA,NA,NA,NA,NA
Choanoflagellata,HNAN,Helgoeca_nana,NA,NA,NA,NA,NA,NA,NA,NA,NA,NA,NA,NA,NA
Choanoflagellata,MBRE,Monosiga_brevicollis,NA,NA,NA,NA,NA,NA,NA,NA,NA,NA,NA,NA,NA
Choanoflagellata,MFLU,Mytnosiga_fluctuans,NA,NA,NA,NA,NA,NA,NA,NA,NA,NA,NA,NA,NA
Choanoflagellata,MROA,Microstomoeca_roanoka,NA,NA,NA,NA,NA,NA,NA,NA,NA,NA,NA,NA,NA
Choanoflagellata,SDIP,Stephanoeca_diplocostata,NA,NA,NA,NA,NA,NA,NA,NA,NA,NA,NA,NA,NA
Choanoflagellata,SHEL,Salpinogaeca_helianthica,NA,NA,NA,NA,NA,NA,NA,NA,NA,NA,NA,NA,NA
Choanoflagellata,SINF,Salpingoeca_infusionum,NA,NA,NA,NA,NA,NA,NA,NA,NA,NA,NA,NA,NA
Choanoflagellata,SKVE,Salpinogoeca_kvevrii,NA,NA,NA,NA,NA,NA,NA,NA,NA,NA,NA,NA,NA
Choanoflagellata,SMAC,Salpinogaeca_macrocollata,NA,NA,NA,NA,NA,NA,NA,NA,NA,NA,NA,NA,NA
Choanoflagellata,SPAR,Savillea_parva,NA,NA,NA,NA,NA,NA,NA,NA,NA,NA,NA,NA,NA
Choanoflagellata,SPUN,Salpinogaeca_punica,NA,NA,NA,NA,NA,NA,NA,NA,NA,NA,NA,NA,NA
Choanoflagellata,SROS,Salpinogoeca_rosetta,NA,NA,NA,NA,NA,NA,NA,NA,NA,NA,NA,NA,NA
Choanoflagellata,SURC,Salpinogaeca_urceloata,NA,NA,NA,NA,NA,NA,NA,NA,NA,NA,NA,NA,NA
Cnidaria,MSQU,Myxobolus_squamalis,NA,NA,NA,NA,NA,NA,NA,NA,NA,NA,NA,NA,NA
Cnidaria,OFAV,Orbicella_faveolata,NA,NA,NA,NA,NA,NA,NA,NA,NA,NA,NA,NA,NA
Cnidaria,TKIT,Thelohanellus_kitauei,NA,NA,NA,NA,NA,NA,NA,NA,NA,NA,NA,NA,NA
Cnidaria,NVEC,Nematostella_vectensis,XP_001629910.2,4.96e-33,37,325,129,30.094,319,161,10,525,828,13,284
Cnidaria,HVUL,Hydra_vulgaris,XP_012559657.1,1.71e-25,35,268,107,28.904,301,174,9,537,828,40,309
Cnidaria,HVUL,Hydra_vulgaris,XP_012559663.1,1.64e-25,35,267,107,28.763,299,162,9,537,828,40,294
Cnidaria,EPAL,Exaiptasia_pallida,XP_020902826.1,5.43e-12,16,170,70.1,34.641,153,76,5,693,828,1541,1686
Cnidaria,EPAL,Exaiptasia_pallida,XP_020903333.1,1.92e-31,36,313,125,27.848,316,162,7,533,828,19,288
Cnidaria,EPAL,Exaiptasia_pallida,XP_020916618.1,1.37e-15,7,199,81.3,56.452,62,27,0,766,827,579,640
Cnidaria,SPIS,Stylophora_pistillata,XP_022788400.1,9.14e-35,35,337,134,32.203,295,151,11,538,828,23,272
Cnidaria,SPIS,Stylophora_pistillata,XP_022788401.1,4.86e-19,21,216,87.8,58.209,67,28,0,762,828,171,237
Cnidaria,SPIS,Stylophora_pistillata,XP_022800979.1,3.71e-17,8,213,86.7,53.030,66,31,0,765,830,675,740
Cnidaria,PDAM,Pocillopora_damicornis,XP_027049487.1,2.51e-35,37,340,135,31.529,314,166,11,519,828,4,272
Cnidaria,PDAM,Pocillopora_damicornis,XP_027049488.1,3.29e-19,23,216,87.8,58.209,67,28,0,762,828,171,237
Cnidaria,PDAM,Pocillopora_damicornis,XP_027055540.1,1.28e-15,8,199,81.3,50.000,66,33,0,765,830,677,742
Cnidaria,DGIG,Dendronephthya_gigantea,XP_028393777.1,4.17e-21,35,233,94.4,29.766,299,152,11,537,828,9,256
Cnidaria,DGIG,Dendronephthya_gigantea,XP_028393778.1,9.25e-23,35,246,99.4,30.068,296,152,10,537,828,9,253
Cnidaria,DGIG,Dendronephthya_gigantea,XP_028394259.1,5.55e-16,8,202,82.4,51.562,64,31,0,765,828,499,562
Cnidaria,AMIL,Acropora_millepora,XP_029211189.1,2.26e-37,35,357,142,30.592,304,148,8,538,828,23,276
Cnidaria,AMIL,Acropora_millepora,XP_029211190.1,2.10e-38,35,365,145,30.363,303,149,7,538,828,23,275
Cnidaria,AMIL,Acropora_millepora,XP_029211192.1,4.46e-18,20,209,85.1,57.812,64,27,0,765,828,174,237
Cnidaria,ATEN,Actinia_tenebrosa,XP_031564435.1,8.91e-33,35,323,129,30.897,301,150,11,539,828,29,282
Cnidaria,ATEN,Actinia_tenebrosa,XP_031567271.1,1.53e-12,8,175,72.0,50.000,70,34,1,759,828,1600,1668
Cnidaria,ATEN,Actinia_tenebrosa,XP_031572475.1,5.48e-15,8,194,79.3,53.623,69,32,0,759,827,641,709
Cnidaria,NVEC,Nematostella_vectensis,XP_032223464.1,3.32e-15,7,197,80.5,56.452,62,27,0,766,827,645,706
Cnidaria,NVEC,Nematostella_vectensis,XP_032223466.1,1.81e-15,7,198,80.9,56.452,62,27,0,766,827,457,518
Ctenophora,MLEI,Mnemiopsis_leidyi,NA,NA,NA,NA,NA,NA,NA,NA,NA,NA,NA,NA,NA
family,abbrev,species,NA,NA,NA,NA,NA,NA,NA,NA,NA,NA,NA,NA,NA
Filasterea,COWC,Capsaspora_owczarzaki,NA,NA,NA,NA,NA,NA,NA,NA,NA,NA,NA,NA,NA
Fungi,NCRA,Neurospora_crassa,NA,NA,NA,NA,NA,NA,NA,NA,NA,NA,NA,NA,NA
Fungi,SCER,Saccharomyces_cerevisiae,NA,NA,NA,NA,NA,NA,NA,NA,NA,NA,NA,NA,NA
Placozoa,TSPH,Trichoplax_sp._H2,RDD42395.1,2.27e-15,18,184,75.5,46.479,71,38,0,758,828,139,209
Placozoa,TSPH,Trichoplax_sp._H2,RDD44261.1,5.13e-15,8,188,77.0,53.125,64,29,1,766,828,353,416
Placozoa,TADH,Trichoplax_adherens,XP_002113699.1,2.15e-16,9,188,77.0,46.479,71,38,0,758,828,103,173
Placozoa,TADH,Trichoplax_adherens,XP_002113858.1,8.66e-16,7,172,70.9,58.182,55,23,0,766,820,5,59
Porifera,OCAR,Oscarella_carmela,m.27369,9.78e-11,8,155,64.3,40.000,70,41,1,759,828,339,407
Porifera,OCAR,Oscarella_carmela,m.311052,9.29e-14,35,174,71.6,28.041,296,142,11,539,828,18,248
Porifera,EMUE,Ephydatia_muelleri,m.5426,2.33e-17,34,204,83.2,25.974,308,150,13,543,827,31,283
Porifera,OCAR,Oscarella_carmela,m.78950,3.82e-13,14,174,71.6,35.294,119,66,3,712,830,270,377
Porifera,EMUE,Ephydatia_muelleri,m.98975,3.82e-12,8,157,65.1,44.286,70,39,0,759,828,100,169
Porifera,EMUE,Ephydatia_muelleri,m.98980,3.66e-12,8,160,66.2,44.286,70,39,0,759,828,140,209
Porifera,SCAR,Stylissa_carteri,maker-SC_scaffold10708-snap-gene-0.13-mRNA-1,5.05e-14,8,183,75.1,45.714,70,38,0,759,828,594,663
Porifera,SCAR,Stylissa_carteri,maker-SC_scaffold5347-augustus-gene-0.153-mRNA-1,2.67e-12,9,168,69.3,40.260,77,41,2,755,829,433,506
Porifera,SCAR,Stylissa_carteri,maker-SC_scaffold6310-augustus-gene-0.10-mRNA-1,5.11e-11,8,157,65.1,46.269,67,35,1,762,828,383,448
Porifera,XTES,Xestospongia_testudinaria,maker-XT_scaffold1756-augustus-gene-0.79-mRNA-1,3.05e-14,8,184,75.5,49.206,63,32,0,766,828,460,522
Porifera,SCIL,Sycon_ciliatum,NA,NA,NA,NA,NA,NA,NA,NA,NA,NA,NA,NA,NA
Porifera,AQUE,Amphimedon_queenslandica,XP_011405944.2,5.64e-17,9,209,85.1,50.000,74,37,0,755,828,601,674
Porifera,AQUE,Amphimedon_queenslandica,XP_019850206.1,4.49e-18,34,210,85.5,26.852,324,146,11,544,828,25,296
Porifera,AQUE,Amphimedon_queenslandica,XP_019850207.1,2.29e-19,34,220,89.4,27.103,321,146,10,544,828,25,293
Teretosporea,SARC,Sphaeroforma_arctica,NA,NA,NA,NA,NA,NA,NA,NA,NA,NA,NA,NA,NA
Viridiplantae,ATHA,Arabidopsis_thaliana,NA,NA,NA,NA,NA,NA,NA,NA,NA,NA,NA,NA,NA
