family , species_abbrev , species_name , sseqid , evalue , qcovs , score , bitscore , pident , length , mismatch , gapopen , qstart , qend , sstart , send
Bilateria,HMIA,Hofstenia_miamia,HMIM003077-PA,1.54e-27,31,297,119,31.707,328,193,10,676,983,372,688
Bilateria,DMEL,Drosophila_melanogaster,NP_001162644.1,7.97e-23,19,263,105,68.182,66,21,0,917,982,1268,1333
Bilateria,DMEL,Drosophila_melanogaster,NP_001284802.1,7.97e-23,19,263,105,68.182,66,21,0,917,982,1268,1333
Bilateria,DMEL,Drosophila_melanogaster,NP_001284803.1,7.97e-23,19,263,105,68.182,66,21,0,917,982,1268,1333
Choanoflagellata,SDOL,Salpingoeca_dolichothecata,m.61520,9.70e-12,7,155,64.3,48.529,68,33,1,915,980,108,175
Choanoflagellata,ASPE,Acanthoma_spectabilis,NA,NA,NA,NA,NA,NA,NA,NA,NA,NA,NA,NA,NA
Choanoflagellata,CHOL,Codosiga_hollandica,NA,NA,NA,NA,NA,NA,NA,NA,NA,NA,NA,NA,NA
Choanoflagellata,CPEX,Choanoeca_perplexa,NA,NA,NA,NA,NA,NA,NA,NA,NA,NA,NA,NA,NA
Choanoflagellata,DCOS,Didymoeca_costata,NA,NA,NA,NA,NA,NA,NA,NA,NA,NA,NA,NA,NA
Choanoflagellata,DGRA,Diaphanoeca_grandis,NA,NA,NA,NA,NA,NA,NA,NA,NA,NA,NA,NA,NA
Choanoflagellata,HBAL,Hartaetosiga_balthica,NA,NA,NA,NA,NA,NA,NA,NA,NA,NA,NA,NA,NA
Choanoflagellata,HGRA,Hartaetosiga_gracilis,NA,NA,NA,NA,NA,NA,NA,NA,NA,NA,NA,NA,NA
Choanoflagellata,HNAN,Helgoeca_nana,NA,NA,NA,NA,NA,NA,NA,NA,NA,NA,NA,NA,NA
Choanoflagellata,MBRE,Monosiga_brevicollis,NA,NA,NA,NA,NA,NA,NA,NA,NA,NA,NA,NA,NA
Choanoflagellata,MFLU,Mytnosiga_fluctuans,NA,NA,NA,NA,NA,NA,NA,NA,NA,NA,NA,NA,NA
Choanoflagellata,MROA,Microstomoeca_roanoka,NA,NA,NA,NA,NA,NA,NA,NA,NA,NA,NA,NA,NA
Choanoflagellata,SDIP,Stephanoeca_diplocostata,NA,NA,NA,NA,NA,NA,NA,NA,NA,NA,NA,NA,NA
Choanoflagellata,SHEL,Salpinogaeca_helianthica,NA,NA,NA,NA,NA,NA,NA,NA,NA,NA,NA,NA,NA
Choanoflagellata,SINF,Salpingoeca_infusionum,NA,NA,NA,NA,NA,NA,NA,NA,NA,NA,NA,NA,NA
Choanoflagellata,SKVE,Salpinogoeca_kvevrii,NA,NA,NA,NA,NA,NA,NA,NA,NA,NA,NA,NA,NA
Choanoflagellata,SMAC,Salpinogaeca_macrocollata,NA,NA,NA,NA,NA,NA,NA,NA,NA,NA,NA,NA,NA
Choanoflagellata,SPAR,Savillea_parva,NA,NA,NA,NA,NA,NA,NA,NA,NA,NA,NA,NA,NA
Choanoflagellata,SPUN,Salpinogaeca_punica,NA,NA,NA,NA,NA,NA,NA,NA,NA,NA,NA,NA,NA
Choanoflagellata,SROS,Salpinogoeca_rosetta,NA,NA,NA,NA,NA,NA,NA,NA,NA,NA,NA,NA,NA
Choanoflagellata,SURC,Salpinogaeca_urceloata,NA,NA,NA,NA,NA,NA,NA,NA,NA,NA,NA,NA,NA
Cnidaria,MSQU,Myxobolus_squamalis,NA,NA,NA,NA,NA,NA,NA,NA,NA,NA,NA,NA,NA
Cnidaria,OFAV,Orbicella_faveolata,NA,NA,NA,NA,NA,NA,NA,NA,NA,NA,NA,NA,NA
Cnidaria,TKIT,Thelohanellus_kitauei,NA,NA,NA,NA,NA,NA,NA,NA,NA,NA,NA,NA,NA
Cnidaria,NVEC,Nematostella_vectensis,XP_001629910.2,1.30e-26,29,278,111,30.263,304,145,11,700,981,26,284
Cnidaria,HVUL,Hydra_vulgaris,XP_012559657.1,2.60e-24,29,260,104,32.673,303,152,13,698,981,40,309
Cnidaria,HVUL,Hydra_vulgaris,XP_012559663.1,4.54e-25,29,265,106,31.741,293,153,12,698,981,40,294
Cnidaria,EPAL,Exaiptasia_pallida,XP_020903333.1,8.36e-19,20,217,88.2,48.649,74,38,0,908,981,215,288
Cnidaria,EPAL,Exaiptasia_pallida,XP_020916618.1,2.26e-14,7,189,77.4,53.125,64,30,0,919,982,579,642
Cnidaria,SPIS,Stylophora_pistillata,XP_022788400.1,2.09e-29,29,297,119,32.759,290,148,8,699,981,23,272
Cnidaria,SPIS,Stylophora_pistillata,XP_022788401.1,4.95e-18,19,209,85.1,51.899,79,35,1,906,981,159,237
Cnidaria,SPIS,Stylophora_pistillata,XP_022800980.1,6.91e-17,7,212,86.3,55.385,65,29,0,919,983,675,739
Cnidaria,PDAM,Pocillopora_damicornis,XP_027049487.1,6.73e-30,29,300,120,33.106,293,155,10,693,981,17,272
Cnidaria,PDAM,Pocillopora_damicornis,XP_027049488.1,3.32e-18,20,209,85.1,51.899,79,35,1,906,981,159,237
Cnidaria,PDAM,Pocillopora_damicornis,XP_027055540.1,5.33e-16,7,203,82.8,53.846,65,30,0,919,983,678,742
Cnidaria,DGIG,Dendronephthya_gigantea,XP_028393777.1,8.52e-19,29,216,87.8,26.042,288,169,9,698,981,9,256
Cnidaria,DGIG,Dendronephthya_gigantea,XP_028393778.1,1.27e-18,29,215,87.4,26.990,289,162,10,698,981,9,253
Cnidaria,DGIG,Dendronephthya_gigantea,XP_028394259.1,2.16e-15,8,198,80.9,44.156,77,43,0,905,981,486,562
Cnidaria,AMIL,Acropora_millepora,XP_029211189.1,5.13e-30,29,303,121,32.653,294,147,7,699,981,23,276
Cnidaria,AMIL,Acropora_millepora,XP_029211190.1,9.92e-31,29,308,123,32.872,289,152,8,699,981,23,275
Cnidaria,AMIL,Acropora_millepora,XP_029211192.1,2.59e-17,18,204,83.2,58.730,63,26,0,919,981,175,237
Cnidaria,ATEN,Actinia_tenebrosa,XP_031564435.1,1.55e-24,29,261,105,30.795,302,141,10,700,981,29,282
Cnidaria,ATEN,Actinia_tenebrosa,XP_031567271.1,6.00e-11,7,162,67.0,47.059,68,35,1,914,981,1602,1668
Cnidaria,ATEN,Actinia_tenebrosa,XP_031572475.1,4.28e-14,7,188,77.0,56.250,64,28,0,919,982,648,711
Cnidaria,NVEC,Nematostella_vectensis,XP_032223465.1,4.28e-15,7,196,80.1,56.250,64,28,0,919,982,575,638
Cnidaria,NVEC,Nematostella_vectensis,XP_032223466.1,2.97e-15,7,197,80.5,56.250,64,28,0,919,982,457,520
Ctenophora,MLEI,Mnemiopsis_leidyi,NA,NA,NA,NA,NA,NA,NA,NA,NA,NA,NA,NA,NA
family,abbrev,species,NA,NA,NA,NA,NA,NA,NA,NA,NA,NA,NA,NA,NA
Filasterea,COWC,Capsaspora_owczarzaki,NA,NA,NA,NA,NA,NA,NA,NA,NA,NA,NA,NA,NA
Fungi,NCRA,Neurospora_crassa,NA,NA,NA,NA,NA,NA,NA,NA,NA,NA,NA,NA,NA
Fungi,SCER,Saccharomyces_cerevisiae,NA,NA,NA,NA,NA,NA,NA,NA,NA,NA,NA,NA,NA
Placozoa,TSPH,Trichoplax_sp._H2,RDD42395.1,1.65e-14,11,178,73.2,38.000,100,48,2,896,981,110,209
Placozoa,TSPH,Trichoplax_sp._H2,RDD44261.1,1.22e-13,7,178,73.2,47.887,71,32,1,907,977,346,411
Placozoa,TADH,Trichoplax_adherens,XP_002113699.1,2.07e-13,9,166,68.6,38.000,100,48,2,896,981,74,173
Placozoa,TADH,Trichoplax_adherens,XP_002113858.1,1.35e-14,6,164,67.8,56.364,55,24,0,919,973,5,59
Porifera,OCAR,Oscarella_carmela,m.311052,4.98e-15,29,184,75.5,26.148,283,156,8,700,981,18,248
Porifera,EMUE,Ephydatia_muelleri,m.5426,2.23e-19,28,220,89.4,29.085,306,135,15,704,980,31,283
Porifera,EMUE,Ephydatia_muelleri,m.98975,3.68e-11,7,150,62.4,43.750,64,36,0,919,982,107,170
Porifera,EMUE,Ephydatia_muelleri,m.98980,2.73e-11,7,154,63.9,43.750,64,36,0,919,982,147,210
Porifera,SCAR,Stylissa_carteri,maker-SC_scaffold10708-snap-gene-0.13-mRNA-1,7.92e-13,7,174,71.6,44.118,68,38,0,915,982,597,664
Porifera,XTES,Xestospongia_testudinaria,maker-XT_scaffold1756-augustus-gene-0.79-mRNA-1,1.11e-12,7,172,70.9,46.875,64,34,0,919,982,460,523
Porifera,SCIL,Sycon_ciliatum,NA,NA,NA,NA,NA,NA,NA,NA,NA,NA,NA,NA,NA
Porifera,SCAR,Stylissa_carteri,snap_masked-SC_scaffold78-processed-gene-0.1-mRNA-1,7.37e-11,6,141,58.9,42.857,63,35,1,919,981,18,79
Porifera,AQUE,Amphimedon_queenslandica,XP_011405944.2,1.56e-14,8,190,77.8,46.988,83,38,2,900,982,599,675
Porifera,AQUE,Amphimedon_queenslandica,XP_019855926.1,4.69e-16,12,203,82.8,38.136,118,65,3,868,982,595,707
Porifera,AQUE,Amphimedon_queenslandica,XP_019862072.1,3.33e-15,8,173,71.2,50.000,74,34,1,909,982,5,75
Teretosporea,SARC,Sphaeroforma_arctica,NA,NA,NA,NA,NA,NA,NA,NA,NA,NA,NA,NA,NA
Viridiplantae,ATHA,Arabidopsis_thaliana,NA,NA,NA,NA,NA,NA,NA,NA,NA,NA,NA,NA,NA
