family 	 species_abbrev 	 species_name 	 sseqid 	 evalue 	 qcovs 	 score 	 bitscore 	 pident 	 length 	 mismatch 	 gapopen 	 qstart 	 qend 	 sstart 	 send
Bilateria	HMIA	Hofstenia_miamia	HMIM014271-PA	6.08e-56	77	472	186	78.095	105	23	0	11	115	9	113
Bilateria	DMEL	Drosophila_melanogaster	NP_477509.1	1.11e-79	72	644	252	78.231	147	32	0	11	157	9	155
Bilateria	DMEL	Drosophila_melanogaster	NP_477509.1	5.11e-20	72	227	92.0	35.948	153	48	4	259	403	324	434
Choanoflagellata	MROA	Microstomoeca_roanoka	m.104002	5.22e-34	36	321	128	43.448	145	80	2	13	157	29	171
Choanoflagellata	ASPE	Acanthoma_spectabilis	m.112992	1.41e-38	33	354	140	46.763	139	70	2	16	150	10	148
Choanoflagellata	SURC	Salpinogaeca_urceloata	m.117589	2.05e-48	35	421	166	50.694	144	71	0	12	155	24	167
Choanoflagellata	SDOL	Salpingoeca_dolichothecata	m.11924	7.36e-45	35	399	158	50.704	142	69	1	16	157	4	144
Choanoflagellata	SHEL	Salpinogaeca_helianthica	m.133750	4.15e-38	35	352	140	49.655	145	69	3	14	157	7	148
Choanoflagellata	DGRA	Diaphanoeca_grandis	m.144140	7.45e-13	25	163	67.4	38.614	101	53	3	49	148	1	93
Choanoflagellata	DGRA	Diaphanoeca_grandis	m.144143	4.36e-38	34	348	138	46.715	137	70	1	12	148	6	139
Choanoflagellata	MROA	Microstomoeca_roanoka	m.146848	1.61e-37	43	344	137	42.391	184	93	4	16	191	39	217
Choanoflagellata	SKVE	Salpinogoeca_kvevrii	m.147758	7.94e-45	34	397	157	57.042	142	58	2	10	149	22	162
Choanoflagellata	SKVE	Salpinogoeca_kvevrii	m.147770	2.48e-46	34	400	158	57.042	142	58	2	10	149	22	162
Choanoflagellata	SMAC	Salpinogaeca_macrocollata	m.148963	2.43e-30	39	293	117	42.236	161	90	3	15	173	8	167
Choanoflagellata	DGRA	Diaphanoeca_grandis	m.16286	3.87e-30	33	294	117	46.617	133	70	1	16	148	13	144
Choanoflagellata	SDOL	Salpingoeca_dolichothecata	m.21237	1.09e-36	78	347	138	27.945	365	193	9	15	330	39	382
Choanoflagellata	SPAR	Savillea_parva	m.213393	7.99e-36	43	334	133	41.111	180	101	3	14	188	14	193
Choanoflagellata	SHEL	Salpinogaeca_helianthica	m.238182	8.11e-21	27	224	90.9	40.909	110	60	2	16	125	9	113
Choanoflagellata	HGRA	Hartaetosiga_gracilis	m.24574	4.45e-32	34	295	118	44.526	137	74	2	16	152	25	159
Choanoflagellata	HNAN	Helgoeca_nana	m.251238	1.48e-28	27	285	114	46.847	111	58	1	45	155	61	170
Choanoflagellata	HNAN	Helgoeca_nana	m.27466	2.83e-38	35	353	140	44.521	146	77	2	14	155	8	153
Choanoflagellata	SKVE	Salpinogoeca_kvevrii	m.303564	5.21e-36	40	333	132	40.244	164	70	1	41	204	43	178
Choanoflagellata	SPAR	Savillea_parva	m.31155	7.75e-26	36	265	106	39.103	156	83	5	9	155	35	187
Choanoflagellata	HBAL	Hartaetosiga_balthica	m.3563	1.18e-30	37	295	118	42.000	150	83	3	8	156	12	158
Choanoflagellata	MFLU	Mytnosiga_fluctuans	m.37986	4.11e-35	35	328	130	43.750	144	79	1	14	157	6	147
Choanoflagellata	HBAL	Hartaetosiga_balthica	m.38431	9.57e-41	35	381	151	50.355	141	70	0	15	155	64	204
Choanoflagellata	HBAL	Hartaetosiga_balthica	m.38436	7.94e-41	35	381	151	50.355	141	70	0	15	155	64	204
Choanoflagellata	ASPE	Acanthoma_spectabilis	m.40543	2.80e-27	34	276	110	40.141	142	82	2	16	155	30	170
Choanoflagellata	DCOS	Didymoeca_costata	m.48071	3.36e-36	30	334	133	49.167	120	61	0	14	133	10	129
Choanoflagellata	SMAC	Salpinogaeca_macrocollata	m.49256	7.48e-32	26	299	119	49.533	107	54	0	41	147	42	148
Choanoflagellata	SMAC	Salpinogaeca_macrocollata	m.49260	5.46e-35	35	318	127	45.833	144	76	1	16	159	19	160
Choanoflagellata	HGRA	Hartaetosiga_gracilis	m.59066	1.92e-44	34	401	159	52.174	138	64	2	16	152	18	154
Choanoflagellata	SINF	Salpingoeca_infusionum	m.61076	2.43e-38	39	349	139	46.835	158	81	2	1	158	1	155
Choanoflagellata	SINF	Salpingoeca_infusionum	m.61396	2.46e-31	35	302	120	42.958	142	78	3	16	157	7	145
Choanoflagellata	CPEX	Choanoeca_perplexa	m.77554	7.42e-41	74	371	147	32.787	305	169	7	1	301	8	280
Choanoflagellata	SPUN	Salpinogaeca_punica	m.82249	9.16e-34	26	319	127	54.206	107	48	1	8	113	19	125
Choanoflagellata	SPUN	Salpinogaeca_punica	m.82758	4.49e-42	72	376	149	32.542	295	142	3	16	306	7	248
Choanoflagellata	CHOL	Codosiga_hollandica	m.902327	3.50e-17	40	197	80.5	32.738	168	105	5	8	169	3	168
Choanoflagellata	CHOL	Codosiga_hollandica	m.902341	4.41e-18	40	208	84.7	32.738	168	105	5	8	169	3	168
Choanoflagellata	CHOL	Codosiga_hollandica	m.97624	2.84e-28	25	268	107	45.217	115	49	2	6	107	16	129
Choanoflagellata	SDIP	Stephanoeca_diplocostata	NA	NA	NA	NA	NA	NA	NA	NA	NA	NA	NA	NA	NA
Choanoflagellata	MBRE	Monosiga_brevicollis	XP_001744915.1	2.42e-30	20	276	110	57.647	85	34	1	48	130	1	85
Choanoflagellata	SROS	Salpinogoeca_rosetta	XP_004989461.1	9.39e-11	31	151	62.8	31.731	104	67	2	25	125	314	416
Choanoflagellata	SROS	Salpinogoeca_rosetta	XP_004995496.1	7.56e-32	35	307	122	43.262	141	79	1	15	155	4	143
Choanoflagellata	SROS	Salpinogoeca_rosetta	XP_004995828.1	5.93e-34	40	317	126	41.358	162	90	2	8	169	3	159
Cnidaria	MSQU	Myxobolus_squamalis	NA	NA	NA	NA	NA	NA	NA	NA	NA	NA	NA	NA	NA
Cnidaria	OFAV	Orbicella_faveolata	NA	NA	NA	NA	NA	NA	NA	NA	NA	NA	NA	NA	NA
Cnidaria	TKIT	Thelohanellus_kitauei	NA	NA	NA	NA	NA	NA	NA	NA	NA	NA	NA	NA	NA
Cnidaria	NVEC	Nematostella_vectensis	XP_001642018.2	1.24e-129	97	966	376	51.269	394	107	7	12	403	16	326
Cnidaria	HVUL	Hydra_vulgaris	XP_002161941.3	8.37e-96	75	740	289	49.020	306	125	4	1	306	2	276
Cnidaria	HVUL	Hydra_vulgaris	XP_012561073.1	8.37e-96	75	740	289	49.020	306	125	4	1	306	2	276
Cnidaria	EPAL	Exaiptasia_pallida	XP_020908555.1	1.15e-124	96	933	363	49.744	390	121	7	12	400	14	329
Cnidaria	SPIS	Stylophora_pistillata	XP_022801714.1	4.83e-133	97	989	385	53.046	394	113	7	12	403	14	337
Cnidaria	PDAM	Pocillopora_damicornis	XP_027038049.1	5.19e-132	97	981	382	52.792	394	114	7	12	403	14	337
Cnidaria	DGIG	Dendronephthya_gigantea	XP_028399738.1	3.08e-126	97	943	367	50.761	394	116	9	12	403	14	331
Cnidaria	AMIL	Acropora_millepora	XP_029180700.1	5.17e-130	97	969	377	51.399	393	118	6	12	403	14	334
Cnidaria	ATEN	Actinia_tenebrosa	XP_031559868.1	6.78e-125	96	934	364	50.513	390	117	8	12	400	14	328
Cnidaria	ATEN	Actinia_tenebrosa	XP_031559876.1	1.64e-124	96	932	363	50.513	390	116	8	12	400	14	327
Ctenophora	MLEI	Mnemiopsis_leidyi	NA	NA	NA	NA	NA	NA	NA	NA	NA	NA	NA	NA	NA
family	abbrev	species	NA	NA	NA	NA	NA	NA	NA	NA	NA	NA	NA	NA	NA
Filasterea	COWC	Capsaspora_owczarzaki	XP_004365242.2	1.41e-20	27	224	90.9	40.541	111	63	3	13	122	22	130
Fungi	NCRA	Neurospora_crassa	NA	NA	NA	NA	NA	NA	NA	NA	NA	NA	NA	NA	NA
Fungi	SCER	Saccharomyces_cerevisiae	NA	NA	NA	NA	NA	NA	NA	NA	NA	NA	NA	NA	NA
Placozoa	TSPH	Trichoplax_sp._H2	RDD44654.1	3.51e-105	95	801	313	43.003	393	144	7	15	400	8	327
Placozoa	TADH	Trichoplax_adherens	XP_002108615.1	4.69e-78	36	603	236	73.973	146	38	0	15	160	1	146
Porifera	OCAR	Oscarella_carmela	m.101703	9.55e-11	17	152	63.2	37.681	69	41	2	42	110	32	98
Porifera	OCAR	Oscarella_carmela	m.21092	2.36e-56	28	473	186	72.566	113	31	0	9	121	5	117
Porifera	EMUE	Ephydatia_muelleri	m.60952	2.49e-66	71	542	213	43.299	291	101	6	13	301	12	240
Porifera	SCAR	Stylissa_carteri	maker-SC_scaffold7052-augustus-gene-0.8-mRNA-1	2.25e-11	19	143	59.7	36.709	79	46	2	37	112	28	105
Porifera	XTES	Xestospongia_testudinaria	maker-XT_scaffold3710-snap-gene-0.39-mRNA-1	1.31e-60	31	491	193	68.548	124	39	0	1	124	33	156
Porifera	SCIL	Sycon_ciliatum	scpid46202|	1.27e-88	96	691	270	41.327	392	125	11	11	399	3	292
Porifera	AQUE	Amphimedon_queenslandica	XP_019851346.1	1.38e-56	31	476	187	65.873	126	41	1	14	139	14	137
Teretosporea	SARC	Sphaeroforma_arctica	NA	NA	NA	NA	NA	NA	NA	NA	NA	NA	NA	NA	NA
Viridiplantae	ATHA	Arabidopsis_thaliana	NP_001323367.1	7.52e-23	21	246	99.4	47.619	84	44	0	35	118	1	84
Viridiplantae	ATHA	Arabidopsis_thaliana	NP_001323369.1	7.52e-23	21	246	99.4	47.619	84	44	0	35	118	1	84
Viridiplantae	ATHA	Arabidopsis_thaliana	NP_001331587.1	5.90e-23	19	248	100	51.948	77	37	0	42	118	8	84
