AMIL	XP_029180700.1	3.96e-40	80	357	142	85.333	75	9	1	11	83	8	82
AMIL	XP_029180700.1	2.02e-33	80	311	124	49.306	144	66	4	123	261	193	334
AQUE	XP_019851346.1	5.51e-35	94	318	127	31.438	299	138	10	12	258	9	292
ASPE	m.112992	2.51e-16	24	188	77.0	50.794	63	31	0	19	81	10	72
ATEN	XP_031559876.1	8.51e-66	97	528	207	40.673	327	121	9	4	258	2	327
ATEN	XP_031559868.1	5.02e-64	97	517	203	39.458	332	119	10	4	258	2	328
CPEX	m.77554	2.14e-13	65	165	68.2	51.471	68	31	2	17	83	21	87
DCOS	m.48071	8.20e-16	67	182	74.7	28.365	208	113	5	17	193	10	212
DGIG	XP_028399738.1	1.16e-39	93	353	140	80.247	81	15	1	4	83	2	82
DGIG	XP_028399738.1	1.08e-33	93	312	124	45.665	173	75	6	96	261	171	331
DGRA	m.144143	2.74e-17	25	194	79.3	49.254	67	34	0	17	83	8	74
DGRA	m.16286	2.77e-11	24	150	62.4	50.794	63	31	0	19	81	13	75
DMEL	NP_477509.1	6.52e-38	67	347	138	87.143	70	9	0	14	83	9	78
DMEL	NP_477509.1	6.18e-25	67	255	102	46.903	113	46	2	153	258	326	431
EMUE	m.60952	7.47e-44	95	379	150	34.304	309	145	7	7	258	3	310
EPAL	XP_020908555.1	2.22e-39	72	351	139	77.778	81	17	1	4	83	2	82
EPAL	XP_020908555.1	5.33e-36	72	328	130	59.649	114	40	3	148	258	219	329
HBAL	m.38431	7.28e-17	26	193	79.0	53.623	69	32	0	15	83	61	129
HBAL	m.38436	9.09e-17	26	192	78.6	53.623	69	32	0	15	83	61	129
HBAL	m.3563	8.78e-11	23	144	60.1	48.387	62	28	3	22	82	23	81
HGRA	m.59066	2.12e-15	26	181	74.3	48.571	70	34	2	15	83	14	82
HGRA	m.24574	9.08e-11	25	139	58.2	47.761	67	29	3	19	83	25	87
HMIA	HMIM014271-PA	7.64e-40	92	352	140	34.304	309	137	9	14	257	9	316
HNAN	m.27466	2.84e-16	25	188	77.0	49.231	65	33	0	17	81	8	72
HVUL	XP_002161941.3	9.75e-39	88	345	137	78.313	83	15	2	1	83	2	81
HVUL	XP_012561073.1	9.75e-39	88	345	137	78.313	83	15	2	1	83	2	81
MFLU	m.37986	3.59e-11	25	148	61.6	40.299	67	38	1	17	83	6	70
MROA	m.146848	3.97e-17	25	192	78.6	49.231	65	33	0	19	83	39	103
NVEC	XP_001642018.2	7.55e-69	99	549	216	43.072	332	112	11	1	261	1	326
OCAR	m.21092	1.04e-47	96	403	159	36.455	299	137	10	6	259	3	293
OVAF	XP_020631010.1	6.33e-40	69	356	141	85.333	75	9	1	11	83	8	82
OVAF	XP_020631010.1	8.73e-34	69	314	125	57.273	110	45	2	153	261	235	343
PDAM	XP_027038049.1	3.16e-40	78	357	142	89.855	69	7	0	15	83	14	82
PDAM	XP_027038049.1	2.95e-35	78	323	129	49.286	140	66	3	123	258	196	334
SCIL	scpid46202|	1.84e-32	66	302	120	78.261	69	15	0	14	82	3	71
SCIL	scpid46202|	3.22e-15	66	181	74.3	37.838	111	58	5	153	257	187	292
SDIP.australia	m.789755	2.97e-17	26	193	79.0	50.725	69	34	0	13	81	1	69
SDIP.france	m.562951	3.32e-17	26	192	78.6	50.725	69	34	0	13	81	1	69
SDOL	m.11924	2.83e-17	25	195	79.7	52.308	65	30	1	19	83	4	67
SDOL	m.21237	2.74e-13	64	166	68.6	46.970	66	34	1	18	83	39	103
SHEL	m.133750	3.30e-15	25	179	73.6	54.412	68	27	3	17	83	7	71
SINF	m.61076	2.55e-12	27	156	64.7	45.714	70	37	1	14	83	9	77
SKVE	m.147770	3.52e-17	25	190	77.8	60.294	68	24	2	18	83	27	93
SKVE	m.147758	7.84e-17	43	191	78.2	60.294	68	24	2	18	83	27	93
SKVE	m.303564	2.38e-12	25	156	64.7	47.826	69	28	2	18	83	19	82
SMAC	m.148963	1.80e-13	25	165	68.2	48.485	66	33	1	18	83	8	72
SMAC	m.49260	2.50e-11	25	145	60.5	47.692	65	32	1	19	83	19	81
SPAR	m.213393	7.06e-15	25	176	72.4	47.692	65	34	0	17	81	14	78
SPIS	XP_022801714.1	3.66e-40	78	357	142	89.855	69	7	0	15	83	14	82
SPIS	XP_022801714.1	1.58e-35	78	325	129	50.000	140	65	3	123	258	196	334
SPUN	m.82758	1.09e-16	27	189	77.4	47.887	71	37	0	13	83	1	71
SPUN	m.82249	1.29e-16	29	188	77.0	46.154	78	41	1	7	83	15	92
SROS	XP_004995828.1	3.03e-15	25	177	72.8	49.231	65	33	0	19	83	11	75
SURC	m.117589	1.77e-21	70	225	91.3	27.193	228	123	5	15	199	24	251
TADH	XP_002108615.1	1.19e-31	25	282	113	77.273	66	15	0	18	83	1	66
TSPH	RDD44654.1	2.16e-48	91	409	162	33.739	329	121	9	18	258	8	327
XTES	maker-XT_scaffold3710-snap-gene-0.39-mRNA-1	6.31e-32	29	287	115	67.532	77	25	0	7	83	36	112
