AMIL	XP_029180700.1	2.40e-135	96	997	388	61.562	333	112	7	11	333	8	334
AQUE	XP_019851346.1	7.90e-69	95	552	217	39.752	322	153	7	12	330	9	292
ASPE	m.112992	7.40e-40	40	358	142	46.763	139	70	2	19	153	10	148
ASPE	m.40543	1.80e-31	75	302	120	33.074	257	151	6	19	271	30	269
ATEN	XP_031559876.1	3.09e-141	97	1035	403	62.349	332	114	6	4	330	2	327
ATEN	XP_031559868.1	1.53e-139	97	1024	399	61.145	332	119	5	4	330	2	328
ATHA	NP_001323367.1	3.44e-24	25	253	102	50.000	84	42	0	38	121	1	84
ATHA	NP_001323369.1	3.44e-24	25	253	102	50.000	84	42	0	38	121	1	84
ATHA	NP_001318915.1	3.92e-24	26	255	102	48.276	87	45	0	38	124	92	178
CHOL	m.97624	1.17e-24	29	240	97.1	45.872	109	45	2	15	110	22	129
CHOL	m.902341	2.09e-18	36	208	84.7	39.370	127	71	4	16	137	8	133
CHOL	m.902327	2.26e-18	36	203	82.8	39.370	127	71	4	16	137	8	133
COWC	XP_004365242.2	1.27e-21	45	229	92.8	34.437	151	91	4	13	162	19	162
CPEX	m.77554	2.24e-44	93	390	154	32.544	338	182	12	17	329	21	337
DCOS	m.48071	6.23e-37	74	335	133	33.600	250	118	6	17	265	10	212
DCOS	m.181109	1.37e-11	86	156	64.7	23.906	297	141	12	43	331	137	356
DGIG	XP_028399738.1	7.82e-136	98	999	389	61.111	342	109	8	4	333	2	331
DGRA	m.144143	3.89e-42	44	371	147	47.619	147	74	1	17	163	8	151
DGRA	m.16286	8.96e-32	41	302	120	47.445	137	71	1	19	155	13	148
DGRA	m.144140	1.02e-14	24	176	72.4	45.679	81	41	1	83	163	28	105
DMEL	NP_477509.1	3.25e-80	83	641	251	78.912	147	31	0	14	160	9	155
DMEL	NP_477509.1	2.54e-24	83	256	103	41.135	141	62	4	198	330	304	431
EMUE	m.60952	1.67e-73	97	584	229	40.580	345	151	7	5	330	1	310
EPAL	XP_020908555.1	4.96e-136	97	1000	389	61.562	333	117	6	4	330	2	329
HBAL	m.38436	2.30e-46	43	415	164	52.414	145	69	0	18	162	64	208
HBAL	m.38431	2.42e-46	43	416	164	52.414	145	69	0	18	162	64	208
HBAL	m.3563	2.81e-35	40	323	129	47.407	135	67	3	22	155	23	154
HGRA	m.59066	8.31e-45	47	398	157	48.101	158	79	3	15	171	14	169
HGRA	m.24574	1.04e-36	41	323	129	47.482	139	67	3	19	155	25	159
HGRA	m.160853	6.36e-12	89	154	63.9	23.746	299	152	10	34	331	23	246
HMIA	HMIM014271-PA	1.31e-61	94	505	199	40.597	335	153	7	14	329	9	316
HNAN	m.27466	4.08e-41	46	368	146	44.025	159	85	2	17	171	8	166
HNAN	m.251238	1.88e-32	73	308	123	32.794	247	151	4	45	290	58	290
HVUL	XP_002161941.3	1.85e-105	98	797	311	49.855	345	134	9	1	330	2	322
HVUL	XP_012561073.1	1.85e-105	98	797	311	49.855	345	134	9	1	330	2	322
MBRE	XP_001744915.1	2.29e-27	27	253	102	51.648	91	44	0	51	141	1	91
MFLU	m.37986	1.20e-39	94	354	140	30.887	327	176	9	17	332	6	293
MROA	m.146848	1.07e-39	47	354	140	43.827	162	80	3	19	176	39	193
MROA	m.104002	2.59e-37	43	339	135	45.455	143	76	2	16	158	29	169
NVEC	XP_001642018.2	7.54e-143	99	1045	407	62.426	338	110	7	1	333	1	326
OCAR	m.21092	2.62e-74	97	587	230	42.727	330	146	8	6	331	3	293
OVAF	XP_020631010.1	1.15e-136	95	1006	392	60.060	333	116	4	15	333	14	343
PDAM	XP_027038049.1	1.58e-139	94	1024	399	61.801	322	116	4	15	330	14	334
SCIL	scpid46202|	3.34e-91	94	702	275	46.894	322	133	9	14	329	3	292
SDIP.australia	m.789755	9.44e-45	44	388	154	46.259	147	79	0	13	159	1	147
SDIP.australia	m.284112	2.22e-40	75	363	144	32.453	265	155	6	15	267	34	286
SDIP.france	m.562951	1.05e-44	44	387	153	46.259	147	79	0	13	159	1	147
SDIP.france	m.10317	2.37e-40	75	363	144	32.453	265	155	6	15	267	31	283
SDOL	m.11924	6.16e-50	46	428	169	50.323	155	76	1	19	173	4	157
SDOL	m.21237	1.03e-36	74	343	136	44.521	146	80	1	18	163	39	183
SHEL	m.133750	1.25e-42	44	378	150	50.676	148	69	3	17	163	7	151
SHEL	m.238182	3.81e-22	30	231	93.6	44.000	100	55	1	19	118	9	107
SINF	m.61076	1.54e-40	44	360	143	47.973	148	76	1	14	161	9	155
SINF	m.61396	2.71e-34	42	318	127	43.662	142	77	3	19	160	7	145
SINF	m.152733	9.88e-12	90	157	65.1	24.026	308	149	10	29	329	211	440
SKVE	m.147770	5.63e-49	40	413	163	60.584	137	51	2	18	152	27	162
SKVE	m.147758	8.58e-48	82	412	163	38.732	284	133	8	18	293	27	277
SKVE	m.303564	4.25e-41	88	363	144	29.236	301	144	8	18	311	19	257
SMAC	m.49260	1.62e-37	47	331	132	44.586	157	81	2	19	175	19	169
SMAC	m.49256	4.77e-35	39	317	126	46.970	132	68	1	19	150	19	148
SMAC	m.148963	3.36e-34	50	316	126	42.529	174	92	4	18	186	8	178
SPAR	m.213393	4.73e-36	77	331	132	32.197	264	145	7	17	276	14	247
SPAR	m.31155	1.13e-29	86	288	115	28.378	296	174	8	19	308	47	310
SPIS	XP_022801714.1	1.07e-139	94	1026	399	62.112	322	115	4	15	330	14	334
SPUN	m.82758	2.82e-51	95	433	171	34.347	329	174	10	13	332	1	296
SPUN	m.82249	4.62e-36	54	330	131	39.560	182	97	3	7	187	15	184
SROS	XP_004995828.1	5.52e-38	42	340	135	47.183	142	74	1	19	160	11	151
SROS	XP_004995496.1	3.59e-35	41	326	130	45.652	138	74	1	18	155	4	140
SURC	m.117589	2.16e-56	76	469	185	38.521	257	129	4	15	271	24	251
TADH	XP_002108615.1	6.27e-78	41	596	234	77.536	138	31	0	18	155	1	138
TSPH	RDD44654.1	1.55e-114	93	856	334	52.778	324	138	5	18	330	8	327
XTES	maker-XT_scaffold3710-snap-gene-0.39-mRNA-1	1.09e-59	36	479	189	71.901	121	34	0	7	127	36	156
