SCAR	maker-SC_scaffold10708-snap-gene-0.13-mRNA-1	1.80e-14	7	188	77.0	45.070	71	39	0	886	956	594	664
SCAR	maker-SC_scaffold5347-augustus-gene-0.153-mRNA-1	1.45e-11	7	163	67.4	43.836	73	36	2	886	956	437	506
SCAR	snap_masked-SC_scaffold78-processed-gene-0.1-mRNA-1	4.81e-11	7	142	59.3	41.270	63	36	1	893	955	18	79
SCAR	maker-SC_scaffold6310-augustus-gene-0.10-mRNA-1	5.26e-11	7	157	65.1	42.857	70	39	1	886	955	380	448
SCAR	maker-SC_scaffold105997-snap-gene-0.3-mRNA-1	6.85e-05	7	99	42.7	33.333	69	41	2	871	939	45	108
SCAR	snap_masked-SC_scaffold54579-processed-gene-0.15-mRNA-1	0.47	4	75	33.5	40.476	42	24	1	887	928	5	45
SCAR	maker-SC_scaffold818-snap-gene-0.12-mRNA-1	1.7	12	69	31.2	22.951	122	83	6	336	447	142	262
SCAR	snap_masked-SC_scaffold2697-processed-gene-0.46-mRNA-1	1.7	10	70	31.6	27.723	101	59	3	395	485	173	269
SCAR	maker-SC_scaffold142293-snap-gene-0.97-mRNA-1	1.7	3	69	31.2	48.387	31	15	1	848	878	281	310
SCAR	maker-SC_scaffold7506-augustus-gene-0.35-mRNA-1	2.6	9	69	31.2	26.190	84	58	1	429	512	419	498
SCAR	maker-SC_scaffold143975-augustus-gene-0.31-mRNA-1	2.7	8	69	31.2	25.316	79	57	2	357	435	2723	2799
SCAR	maker-SC_scaffold140058-snap-gene-0.19-mRNA-1	3.5	8	68	30.8	26.250	80	50	2	187	266	590	660
SCAR	maker-SC_scaffold111616-augustus-gene-0.3-mRNA-1	3.6	7	67	30.4	33.824	68	35	4	877	942	279	338
SCAR	augustus_masked-SC_scaffold127308-processed-gene-0.0-mRNA-1	4.2	5	67	30.4	41.304	46	25	1	707	752	154	197
SCAR	maker-SC_scaffold54055-augustus-gene-0.4-mRNA-1	4.3	6	67	30.4	33.962	53	28	1	436	488	39	84
SCAR	maker-SC_scaffold81843-snap-gene-0.80-mRNA-1	5.6	8	65	29.6	31.081	74	36	4	381	454	26	84
SCAR	maker-SC_scaffold61560-snap-gene-0.3-mRNA-1	7.9	4	64	29.3	43.243	37	18	1	481	517	35	68
SCAR	maker-SC_scaffold35791-augustus-gene-0.7-mRNA-1	9.8	9	62	28.5	23.596	89	52	3	371	458	109	182
