SMAC	m.146173	4.81e-05	7	109	46.6	39.706	68	40	1	887	954	139	205
SMAC	m.72510	1.86e-04	7	102	43.9	33.333	66	43	1	890	955	221	285
SMAC	m.194258	0.035	5	76	33.9	40.000	45	26	1	889	933	10	53
SMAC	m.228791	0.066	4	80	35.4	34.146	41	26	1	893	933	35	74
SMAC	m.171993	0.13	5	81	35.8	42.553	47	26	1	889	935	360	405
SMAC	m.267089	2.8	17	67	30.4	27.381	168	91	9	245	410	27	165
SMAC	m.102672	9.9	4	61	28.1	40.476	42	19	2	869	908	47	84
