HNAN	m.303592	4.79e-05	7	110	47.0	40.000	65	38	1	893	957	540	603
HNAN	m.409971	0.054	7	84	37.0	33.846	65	40	3	893	956	343	405
HNAN	m.407672	0.21	7	77	34.3	31.250	64	43	1	893	956	15	77
HNAN	m.48044	0.25	7	79	35.0	35.938	64	35	3	889	951	328	386
HNAN	m.50612	1.1	6	74	33.1	36.207	58	36	1	898	955	1013	1069
HNAN	m.125956	1.1	4	65	29.6	33.333	39	26	0	631	669	13	51
HNAN	m.466188	1.2	4	67	30.4	38.095	42	21	2	725	765	20	57
HNAN	m.91783	2.1	9	71	32.0	27.381	84	57	1	429	512	245	324
HNAN	m.407662	3.2	4	67	30.4	38.095	42	26	0	915	956	3	44
HNAN	m.409964	3.5	5	69	31.2	34.043	47	29	2	893	939	346	390
HNAN	m.407627	7.3	7	67	30.4	32.812	64	42	1	893	956	373	435
