SDIP.australia	m.292229	0.011	6	89	38.9	34.545	55	31	1	893	947	276	325
SDIP.australia	m.643784	0.021	4	88	38.5	38.095	42	26	0	889	930	326	367
SDIP.australia	m.679196	0.47	7	77	34.3	32.051	78	40	2	890	955	945	1021
SDIP.australia	m.881334	1.5	8	72	32.3	36.145	83	41	4	397	473	89	165
SDIP.australia	m.488185	2.0	9	71	32.0	27.381	84	57	1	429	512	424	503
SDIP.australia	m.549965	4.6	8	68	30.8	28.395	81	49	3	639	712	511	589
SDIP.australia	m.404046	5.2	4	68	30.8	28.889	45	30	1	886	928	1	45
SDIP.australia	m.232499	8.9	13	65	29.6	22.481	129	97	2	15	142	89	215
