NVEC	XP_001629910.2	8.44e-36	30	347	138	33.110	299	159	10	671	955	13	284
NVEC	XP_032223466.1	7.32e-16	7	202	82.4	56.250	64	28	0	893	956	457	520
NVEC	XP_032223464.1	2.24e-15	7	199	81.3	56.250	64	28	0	893	956	645	708
NVEC	XP_032223465.1	2.45e-15	7	198	80.9	56.250	64	28	0	893	956	575	638
NVEC	XP_001617912.2	8.29e-13	7	162	67.0	41.429	70	40	1	887	956	69	137
NVEC	XP_032230518.1	3.28e-10	7	156	64.7	41.429	70	40	1	887	956	808	876
NVEC	XP_032230517.1	3.81e-10	7	155	64.3	41.429	70	40	1	887	956	832	900
NVEC	XP_032238163.1	5.38e-10	8	137	57.4	42.857	77	42	2	882	957	15	90
NVEC	XP_032238213.1	6.54e-10	7	153	63.5	46.575	73	31	3	887	955	785	853
NVEC	XP_032236032.1	8.06e-10	13	153	63.5	37.374	99	51	2	853	951	1078	1165
NVEC	XP_032236032.1	0.21	13	82	36.2	46.429	28	15	0	750	777	388	415
NVEC	XP_032236029.1	1.07e-09	11	152	63.2	40.244	82	40	2	878	951	888	968
NVEC	XP_032236029.1	0.010	11	93	40.4	39.130	46	17	1	743	777	209	254
NVEC	XP_032234511.1	1.88e-09	7	150	62.4	42.857	70	39	1	886	955	1541	1609
NVEC	XP_032234510.1	1.88e-09	7	150	62.4	42.857	70	39	1	886	955	1541	1609
NVEC	XP_032234512.1	1.89e-09	7	150	62.4	42.857	70	39	1	886	955	1540	1608
NVEC	XP_032242215.1	7.10e-09	11	145	60.5	43.662	71	39	1	887	957	972	1041
NVEC	XP_032242215.1	3.29e-04	11	105	45.1	52.778	36	16	1	749	783	148	183
NVEC	XP_001635967.2	1.77e-08	7	134	56.2	37.143	70	43	1	886	955	125	193
NVEC	XP_001635968.2	3.83e-08	7	137	57.4	37.681	69	42	1	886	954	394	461
NVEC	XP_001630217.2	1.75e-07	7	133	55.8	38.095	63	38	1	893	955	866	927
NVEC	XP_032235571.1	3.88e-05	7	112	47.8	33.333	66	41	2	891	955	317	380
NVEC	XP_032235570.1	3.88e-05	7	112	47.8	33.333	66	41	2	891	955	317	380
NVEC	XP_032235569.1	3.88e-05	7	112	47.8	33.333	66	41	2	891	955	317	380
NVEC	XP_032230853.1	0.010	6	90	39.3	37.931	58	34	2	891	947	32	88
NVEC	XP_032230852.1	0.030	6	86	37.7	36.207	58	35	2	891	947	34	90
NVEC	XP_032230851.1	0.039	6	86	37.7	37.500	56	33	2	893	947	45	99
NVEC	XP_032230570.1	0.062	7	85	37.4	32.353	68	44	2	886	952	447	513
NVEC	XP_032230850.1	0.069	6	84	37.0	37.500	56	33	2	893	947	63	117
NVEC	XP_032221857.1	0.11	8	84	37.0	31.169	77	51	1	214	290	262	336
NVEC	XP_032239989.1	0.24	7	81	35.8	35.294	68	41	3	891	956	20	86
NVEC	XP_032239602.1	0.54	8	78	34.7	30.000	80	53	1	366	445	280	356
NVEC	XP_032239601.1	0.54	8	78	34.7	30.000	80	53	1	366	445	280	356
NVEC	XP_032239600.1	0.54	8	78	34.7	30.000	80	53	1	366	445	280	356
NVEC	XP_032229470.1	4.8	7	70	31.6	26.761	71	44	2	825	893	84	148
