SCIL	scpid23244|	2.23e-11	13	167	68.9	47.761	67	34	1	889	955	1035	1100
SCIL	scpid23244|	0.002	13	99	42.7	39.655	58	28	3	753	809	47	98
SCIL	scpid40985|	5.57e-09	12	146	60.8	38.806	67	40	1	889	955	914	979
SCIL	scpid40985|	2.03e-04	12	108	46.2	43.396	53	26	3	753	804	164	213
SCIL	scpid41679|	6.20e-09	13	146	60.8	37.681	69	42	1	887	955	901	968
SCIL	scpid41679|	2.17e-04	13	107	45.8	43.396	53	26	3	753	804	164	213
SCIL	scpid40059|	7.73e-09	7	145	60.5	37.681	69	42	1	887	955	927	994
SCIL	scpid40697|	8.11e-09	7	145	60.5	37.681	69	42	1	887	955	916	983
SCIL	scpid55889|	3.48e-07	7	129	54.3	32.812	64	42	1	888	951	375	437
SCIL	scpid92276|	2.23e-06	12	123	52.0	39.344	61	35	2	887	947	310	368
SCIL	scpid92276|	0.17	12	82	36.2	44.737	38	17	1	752	789	130	163
SCIL	scpid92276|	1.7	12	74	33.1	63.158	19	7	0	686	704	21	39
SCIL	scpid68366|	5.65e-06	14	120	50.8	32.941	85	44	2	876	947	430	514
SCIL	scpid68366|	0.083	14	85	37.4	30.508	59	37	1	744	802	243	297
SCIL	scpid79420|	7.35e-04	5	102	43.9	43.396	53	26	3	753	804	164	213
SCIL	scpid20993|	1.2	10	76	33.9	23.158	95	66	2	860	954	2085	2172
