OVAF	XP_020625665.1	1.45e-41	28	389	154	36.301	292	126	12	684	955	22	273
OVAF	XP_020625666.1	8.02e-21	28	230	93.2	29.861	288	113	10	684	955	22	236
OVAF	XP_020626314.1	4.62e-15	7	196	80.1	47.692	65	34	0	893	957	685	749
OVAF	XP_020611323.1	3.12e-12	7	173	71.2	48.571	70	35	1	886	955	1490	1558
OVAF	XP_020627343.1	7.57e-11	7	161	66.6	49.275	69	34	1	887	955	778	845
OVAF	XP_020603475.1	2.66e-10	7	156	64.7	46.154	65	34	1	891	955	662	725
OVAF	XP_020603474.1	2.75e-10	7	156	64.7	46.154	65	34	1	891	955	663	726
OVAF	XP_020619581.1	7.18e-10	6	151	62.8	52.542	59	27	1	889	947	418	475
OVAF	XP_020631808.1	4.37e-09	11	145	60.5	48.214	56	28	1	892	947	619	673
OVAF	XP_020631808.1	0.008	11	92	40.0	36.000	50	24	1	749	798	130	171
OVAF	XP_020628056.1	1.72e-08	12	141	58.9	45.588	68	36	1	889	956	1052	1118
OVAF	XP_020628056.1	4.28e-04	12	104	44.7	50.000	44	16	2	738	780	132	170
OVAF	XP_020628056.1	0.001	12	100	43.1	43.137	51	21	2	741	783	202	252
OVAF	XP_020606785.1	7.16e-08	7	135	56.6	37.879	66	40	1	891	956	763	827
OVAF	XP_020612299.1	1.14e-07	7	133	55.8	43.077	65	34	2	891	955	403	464
OVAF	XP_020612298.1	1.14e-07	7	133	55.8	43.077	65	34	2	891	955	403	464
OVAF	XP_020608095.1	2.65e-07	11	131	55.1	44.068	59	32	1	893	951	904	961
OVAF	XP_020608095.1	0.003	11	96	41.6	42.857	42	24	0	739	780	220	261
OVAF	XP_020608094.1	2.65e-07	11	131	55.1	44.068	59	32	1	893	951	904	961
OVAF	XP_020608094.1	0.003	11	96	41.6	42.857	42	24	0	739	780	220	261
OVAF	XP_020608093.1	2.65e-07	11	131	55.1	44.068	59	32	1	893	951	904	961
OVAF	XP_020608093.1	0.003	11	96	41.6	42.857	42	24	0	739	780	220	261
OVAF	XP_020608092.1	2.65e-07	11	131	55.1	44.068	59	32	1	893	951	904	961
OVAF	XP_020608092.1	0.003	11	96	41.6	42.857	42	24	0	739	780	220	261
OVAF	XP_020608097.1	2.76e-07	11	131	55.1	44.068	59	32	1	893	951	903	960
OVAF	XP_020608097.1	0.003	11	96	41.6	42.857	42	24	0	739	780	220	261
OVAF	XP_020608098.1	2.93e-07	11	130	54.7	44.068	59	32	1	893	951	898	955
OVAF	XP_020608098.1	0.003	11	96	41.6	42.857	42	24	0	739	780	220	261
OVAF	XP_020616074.1	0.005	12	92	40.0	30.508	118	76	3	840	956	4	116
OVAF	XP_020624256.1	0.47	10	76	33.9	28.125	96	67	1	426	521	63	156
OVAF	XP_020623595.1	2.4	5	72	32.3	30.612	49	34	0	891	939	317	365
OVAF	XP_020632936.1	5.5	4	68	30.8	41.860	43	24	1	892	933	163	205
OVAF	XP_020607318.1	6.5	10	68	30.8	21.649	97	70	1	118	208	1589	1685
OVAF	XP_020607318.1	6.5	10	68	30.8	21.649	97	70	1	118	208	1839	1935
OVAF	XP_020631104.1	8.1	16	68	30.8	21.384	159	102	5	338	494	8129	8266
