SPAR	m.156020	0.94	6	66	30.0	38.182	55	30	3	887	940	14	65
SPAR	m.76583	1.2	9	72	32.3	27.381	84	57	1	429	512	211	290
SPAR	m.13653	2.7	4	70	31.6	40.426	47	16	2	660	694	475	521
SPAR	m.123365	3.3	9	69	31.2	30.120	83	48	3	874	955	1078	1151
SPAR	m.196804	6.8	4	66	30.0	44.737	38	21	0	190	227	31	68
SPAR	m.209045	8.7	6	65	29.6	34.247	73	36	5	96	156	5	77
