SPIS	XP_022788400.1	1.16e-35	28	344	137	35.211	284	138	9	684	955	23	272
SPIS	XP_022788401.1	9.54e-20	18	222	90.1	54.545	77	33	1	881	955	161	237
SPIS	XP_022788401.1	3.20e-10	18	149	62.0	33.962	106	60	3	684	781	23	126
SPIS	XP_022800979.1	1.16e-18	8	226	91.7	48.780	82	39	1	879	957	659	740
SPIS	XP_022800980.1	1.24e-18	8	226	91.7	48.780	82	39	1	879	957	658	739
SPIS	XP_022780254.1	4.54e-13	12	181	74.3	40.496	121	62	4	841	955	1444	1560
SPIS	XP_022780253.1	4.58e-13	12	180	73.9	40.496	121	62	4	841	955	1445	1561
SPIS	XP_022780252.1	4.58e-13	12	180	73.9	40.496	121	62	4	841	955	1445	1561
SPIS	XP_022780251.1	4.58e-13	12	180	73.9	40.496	121	62	4	841	955	1445	1561
SPIS	XP_022788866.1	1.52e-11	7	167	68.9	52.174	69	32	1	887	955	779	846
SPIS	XP_022788860.1	1.52e-11	7	167	68.9	52.174	69	32	1	887	955	779	846
SPIS	XP_022788872.1	1.87e-11	7	166	68.6	52.174	69	32	1	887	955	755	822
SPIS	XP_022797047.1	1.02e-09	6	150	62.4	52.542	59	27	1	889	947	418	475
SPIS	XP_022777959.1	2.23e-09	7	148	61.6	44.615	65	35	1	891	955	655	718
SPIS	XP_022777953.1	2.71e-09	7	148	61.6	44.615	65	35	1	891	955	676	739
SPIS	XP_022777946.1	2.71e-09	7	148	61.6	44.615	65	35	1	891	955	676	739
SPIS	XP_022796962.1	8.70e-09	6	144	60.1	45.614	57	30	1	891	947	885	940
SPIS	XP_022781212.1	1.03e-08	11	143	59.7	45.588	68	36	1	889	956	975	1041
SPIS	XP_022781212.1	3.43e-04	11	105	45.1	52.778	36	16	1	749	783	144	179
SPIS	XP_022781210.1	1.08e-08	12	143	59.7	45.588	68	36	1	889	956	1053	1119
SPIS	XP_022781210.1	7.59e-04	12	102	43.9	45.098	51	20	2	741	783	207	257
SPIS	XP_022781210.1	0.001	12	100	43.1	54.545	33	14	1	749	780	144	176
SPIS	XP_022781211.1	1.10e-08	12	143	59.7	45.588	68	36	1	889	956	1052	1118
SPIS	XP_022781211.1	7.53e-04	12	102	43.9	45.098	51	20	2	741	783	207	257
SPIS	XP_022781211.1	0.001	12	100	43.1	54.545	33	14	1	749	780	144	176
SPIS	XP_022779947.1	3.61e-08	7	137	57.4	44.615	65	33	2	893	957	366	427
SPIS	XP_022804678.1	2.61e-07	11	131	55.1	43.333	60	33	1	892	951	917	975
SPIS	XP_022804678.1	0.040	11	87	38.1	34.000	50	25	1	749	798	234	275
SPIS	XP_022788944.1	3.09e-07	6	129	54.3	47.273	55	28	1	893	947	437	490
SPIS	XP_022778323.1	0.002	3	97	42.0	48.485	33	17	0	748	780	222	254
SPIS	XP_022796115.1	0.045	9	85	37.4	31.868	91	57	2	866	955	29	115
SPIS	XP_022804679.1	0.065	5	85	37.4	34.000	50	25	1	749	798	234	275
SPIS	XP_022800592.1	1.5	4	73	32.7	39.474	38	22	1	891	928	338	374
SPIS	XP_022798456.1	1.9	5	73	32.7	30.612	49	34	0	891	939	312	360
SPIS	XP_022789856.1	2.4	7	71	32.0	29.412	68	41	2	429	496	1	61
SPIS	XP_022804166.1	2.6	5	71	32.0	38.462	52	29	2	893	944	364	412
SPIS	XP_022804165.1	2.8	5	71	32.0	38.462	52	29	2	893	944	387	435
SPIS	XP_022791263.1	4.0	8	71	32.0	29.114	79	47	1	393	471	404	473
SPIS	XP_022800614.1	5.3	5	70	31.6	33.962	53	28	2	389	435	266	317
SPIS	XP_022784542.1	7.0	7	67	30.4	32.812	64	41	2	894	957	7	68
SPIS	XP_022803195.1	8.0	6	66	30.0	28.571	63	36	2	753	806	20	82
SPIS	XP_022803202.1	8.0	6	66	30.0	28.571	63	36	2	753	806	20	82
