SURC	m.23043	3.07e-09	14	143	59.7	33.094	139	77	6	825	955	249	379
SURC	m.277862	1.89e-04	7	94	40.8	31.818	66	41	2	883	948	9	70
SURC	m.258365	4.51e-04	3	100	43.1	64.000	25	9	0	753	777	34	58
SURC	m.429622	4.87e-04	5	93	40.4	40.909	44	25	1	912	955	40	82
SURC	m.429620	0.007	4	83	36.6	39.024	41	24	1	912	952	40	79
SURC	m.483658	0.009	6	91	39.7	37.097	62	38	1	893	954	37	97
SURC	m.125860	0.17	5	80	35.4	34.043	47	30	1	893	939	18	63
SURC	m.323211	0.59	6	75	33.5	33.333	57	36	2	886	940	415	471
SURC	m.444128	5.2	5	68	30.8	29.545	44	31	0	886	929	316	359
SURC	m.143926	7.7	7	66	30.0	26.087	69	50	1	888	956	1283	1350
SURC	m.115388	8.5	8	65	29.6	28.916	83	49	2	489	561	138	220
