SKVE	m.14999	0.032	5	86	37.7	38.298	47	28	1	889	935	828	873
SKVE	m.291841	0.039	7	84	37.0	34.375	64	41	1	893	956	172	234
SKVE	m.96550	0.25	5	78	34.7	37.778	45	25	2	890	934	168	209
SKVE	m.21818	0.36	7	77	34.3	33.333	66	37	4	893	955	247	308
SKVE	m.14230	0.56	4	75	33.5	48.571	35	17	1	894	928	933	966
SKVE	m.15702	1.2	6	72	32.3	28.302	53	37	1	883	935	130	181
SKVE	m.302626	1.6	6	71	32.0	33.333	63	41	1	893	954	131	193
SKVE	m.166316	2.7	11	69	31.2	27.523	109	72	3	79	184	17	121
SKVE	m.152426	3.4	5	68	30.8	33.962	53	34	1	469	520	383	435
SKVE	m.291896	4.2	8	68	30.8	26.506	83	54	2	846	925	5	83
SKVE	m.186459	5.0	4	67	30.4	41.026	39	23	0	372	410	9	47
SKVE	m.289914	5.7	4	65	29.6	34.043	47	27	1	875	917	179	225
SKVE	m.19660	8.7	8	65	29.6	27.160	81	59	0	483	563	458	538
SKVE	m.114029	8.9	3	65	29.6	36.364	33	20	1	893	925	840	871
SKVE	m.95638	9.8	5	63	28.9	28.000	50	36	0	430	479	105	154
