COWC	XP_004349356.1	0.045	6	81	35.8	33.871	62	40	1	893	954	255	315
COWC	XP_004348442.1	0.045	5	75	33.5	34.615	52	33	1	891	942	10	60
COWC	XP_004346774.2	0.067	7	81	35.8	26.562	64	46	1	893	956	11	73
COWC	XP_004349116.1	0.37	4	75	33.5	35.556	45	26	1	780	821	356	400
COWC	XP_004342637.1	1.4	6	70	31.6	37.500	64	37	2	399	460	272	334
COWC	XP_004363648.1	4.7	4	65	29.6	32.500	40	27	0	354	393	600	639
COWC	XP_004346962.1	5.3	9	65	29.6	27.907	86	62	0	517	602	600	685
COWC	XP_004349259.2	8.1	9	63	28.9	27.273	99	61	2	416	503	286	384
