AMIL	XP_029211190.1	6.79e-40	28	377	149	35.664	286	137	8	684	955	23	275
AMIL	XP_029211189.1	1.32e-39	28	375	149	35.192	287	138	8	684	955	23	276
AMIL	XP_029211192.1	1.21e-25	28	267	107	30.420	286	114	8	684	955	23	237
AMIL	XP_029211191.1	2.40e-25	28	264	106	29.965	287	115	8	684	955	23	238
AMIL	XP_029211193.1	5.59e-19	23	216	87.8	30.085	236	113	10	684	902	23	223
AMIL	XP_029193992.1	5.06e-17	8	213	86.7	54.167	72	33	0	886	957	666	737
AMIL	XP_029193991.1	5.06e-17	8	213	86.7	54.167	72	33	0	886	957	666	737
AMIL	XP_029193990.1	5.06e-17	8	213	86.7	54.167	72	33	0	886	957	666	737
AMIL	XP_029193989.1	5.06e-17	8	213	86.7	54.167	72	33	0	886	957	666	737
AMIL	XP_029193988.1	5.06e-17	8	213	86.7	54.167	72	33	0	886	957	666	737
AMIL	XP_029189732.1	2.34e-11	7	166	68.6	47.143	70	36	1	886	955	1600	1668
AMIL	XP_029189731.1	2.36e-11	7	166	68.6	47.143	70	36	1	886	955	1602	1670
AMIL	XP_029189730.1	2.36e-11	7	166	68.6	47.143	70	36	1	886	955	1602	1670
AMIL	XP_029201199.1	6.43e-11	14	162	67.0	32.450	151	73	6	822	955	651	789
AMIL	XP_029201138.1	1.78e-10	14	158	65.5	33.553	152	71	7	822	955	651	790
AMIL	XP_029201075.1	1.78e-10	14	158	65.5	33.553	152	71	7	822	955	651	790
AMIL	XP_029189526.1	3.03e-10	6	155	64.3	54.098	61	27	1	891	951	413	472
AMIL	XP_029185643.1	1.27e-09	7	151	62.8	47.692	65	33	1	891	955	675	738
AMIL	XP_029185645.1	1.35e-09	7	150	62.4	47.692	65	33	1	891	955	656	719
AMIL	XP_029185644.1	1.35e-09	7	150	62.4	47.692	65	33	1	891	955	656	719
AMIL	XP_029185642.1	1.52e-09	7	150	62.4	47.692	65	33	1	891	955	681	744
AMIL	XP_029213323.1	1.14e-08	12	143	59.7	45.588	68	36	1	889	956	1067	1133
AMIL	XP_029213323.1	7.24e-04	12	103	44.3	45.098	51	20	2	741	783	218	268
AMIL	XP_029213323.1	0.001	12	100	43.1	54.545	33	14	1	749	780	152	184
AMIL	XP_029187358.1	6.64e-08	10	137	57.4	41.667	60	34	1	892	951	915	973
AMIL	XP_029187358.1	0.002	10	99	42.7	51.613	31	15	0	750	780	248	278
AMIL	XP_029187359.1	6.86e-08	10	137	57.4	41.667	60	34	1	892	951	909	967
AMIL	XP_029187359.1	0.002	10	99	42.7	51.613	31	15	0	750	780	242	272
AMIL	XP_029192659.1	1.65e-07	7	132	55.5	44.615	65	33	2	891	955	353	414
AMIL	XP_029192658.1	1.67e-07	7	132	55.5	44.615	65	33	2	891	955	354	415
AMIL	XP_029192662.1	1.69e-07	7	132	55.5	44.615	65	33	2	891	955	351	412
AMIL	XP_029192660.1	1.69e-07	7	132	55.5	44.615	65	33	2	891	955	351	412
AMIL	XP_029190754.1	2.58e-07	6	132	55.5	41.667	60	34	1	892	951	872	930
AMIL	XP_029190753.1	2.58e-07	6	132	55.5	41.667	60	34	1	892	951	872	930
AMIL	XP_029205106.1	2.66e-06	6	123	52.0	37.705	61	37	1	887	947	826	885
AMIL	XP_029205105.1	2.66e-06	6	123	52.0	37.705	61	37	1	887	947	826	885
AMIL	XP_029205104.1	2.66e-06	6	123	52.0	37.705	61	37	1	887	947	826	885
AMIL	XP_029205103.1	2.66e-06	6	123	52.0	37.705	61	37	1	887	947	826	885
AMIL	XP_029182121.1	0.029	5	88	38.5	42.222	45	25	1	887	931	5	48
AMIL	XP_029196470.1	0.18	7	80	35.4	33.333	69	41	2	866	933	30	94
AMIL	XP_029204313.1	0.89	4	76	33.9	41.667	36	20	1	893	928	421	455
AMIL	XP_029200632.1	1.7	5	73	32.7	38.462	52	29	2	893	944	369	417
AMIL	XP_029203484.1	2.4	9	73	32.7	23.529	85	57	1	102	186	110	186
AMIL	XP_029207074.1	3.0	11	72	32.3	21.569	102	79	1	337	437	3190	3291
AMIL	XP_029197340.1	5.0	3	70	31.6	36.364	33	21	0	843	875	573	605
AMIL	XP_029201530.1	6.0	8	69	31.2	31.250	80	46	3	695	766	172	250
AMIL	XP_029205283.1	9.8	9	68	30.8	27.273	88	62	1	235	320	659	746
AMIL	XP_029205282.1	9.8	9	68	30.8	27.273	88	62	1	235	320	659	746
AMIL	XP_029205281.1	9.8	9	68	30.8	27.273	88	62	1	235	320	659	746
