SPUN	m.91343	0.003	8	93	40.4	34.328	67	43	1	762	828	24	89
SPUN	m.212479	0.004	8	92	40.0	36.364	66	34	2	749	813	344	402
SPUN	m.79339	0.006	8	89	38.9	29.412	68	47	1	761	828	353	419
SPUN	m.163317	0.32	7	76	33.9	31.579	57	37	2	756	812	4	58
