SROS	XP_004992957.1	0.074	8	81	35.8	32.812	64	42	1	766	829	825	887
SROS	XP_004992238.1	0.13	9	80	35.4	29.167	72	48	3	757	827	336	405
SROS	XP_004992238.1	0.23	9	77	34.3	28.125	64	45	1	765	828	618	680
SROS	XP_004997333.1	0.17	7	78	34.7	30.645	62	42	1	767	828	320	380
SROS	XP_004990922.1	0.65	11	73	32.7	29.167	96	59	4	312	405	471	559
