AQUE	XP_019850207.1	2.29e-19	34	220	89.4	27.103	321	146	10	544	828	25	293
AQUE	XP_019850206.1	4.49e-18	34	210	85.5	26.852	324	146	11	544	828	25	296
AQUE	XP_011405944.2	5.64e-17	9	209	85.1	50.000	74	37	0	755	828	601	674
AQUE	XP_019855926.1	1.94e-16	8	205	83.6	51.429	70	34	0	759	828	637	706
AQUE	XP_019862072.1	7.96e-16	8	177	72.8	51.429	70	34	0	759	828	5	74
AQUE	XP_019850209.1	1.33e-15	31	190	77.8	26.780	295	141	9	570	828	20	275
AQUE	XP_019850208.1	2.32e-14	31	181	74.3	26.510	298	141	10	570	828	20	278
AQUE	XP_019863008.1	1.99e-12	8	154	63.9	41.429	70	40	1	759	828	33	101
AQUE	XP_011404240.2	5.72e-11	8	157	65.1	43.284	67	37	1	762	828	339	404
AQUE	XP_019856562.1	0.005	39	93	40.4	26.087	184	103	8	308	470	2594	2765
AQUE	XP_019856562.1	0.096	39	82	36.2	24.873	197	121	6	146	340	2588	2759
AQUE	XP_019849555.1	0.30	7	78	34.7	34.426	61	38	2	10	69	708	767
AQUE	XP_003385689.1	0.61	13	73	32.7	26.415	106	64	2	723	828	7	98
AQUE	XP_003384371.2	0.83	6	74	33.1	32.609	46	28	1	760	805	891	933
AQUE	XP_019858307.1	0.85	4	73	32.7	38.235	34	21	0	765	798	17	50
AQUE	XP_019859559.1	0.91	5	74	33.1	37.778	45	23	2	766	808	16	57
AQUE	XP_019859554.1	0.91	5	74	33.1	37.778	45	23	2	766	808	16	57
AQUE	XP_019851325.1	2.6	13	70	31.6	28.058	139	69	6	174	281	6960	7098
AQUE	XP_019857645.1	2.8	18	69	31.2	24.000	150	77	4	182	328	231	346
AQUE	XP_019863986.1	4.3	6	66	30.0	40.000	50	29	1	757	806	114	162
AQUE	XP_019849913.1	4.5	8	68	30.8	31.429	70	29	3	551	620	127	177
AQUE	XP_019853147.1	5.0	7	67	30.4	28.571	56	38	1	753	806	237	292
AQUE	XP_019857338.1	6.6	5	66	30.0	37.209	43	25	2	770	812	1078	1118
AQUE	XP_019850602.1	7.0	15	66	30.0	29.839	124	72	6	462	583	619	729
AQUE	XP_019852323.1	9.4	6	65	29.6	28.070	57	28	2	758	807	157	207
AQUE	XP_011409357.1	9.7	5	63	28.9	36.842	38	24	0	752	789	22	59
