EPAL	XP_020903333.1	1.92e-31	36	313	125	27.848	316	162	7	533	828	19	288
EPAL	XP_020916618.1	1.37e-15	7	199	81.3	56.452	62	27	0	766	827	579	640
EPAL	XP_020902826.1	5.43e-12	16	170	70.1	34.641	153	76	5	693	828	1541	1686
EPAL	XP_028515492.1	5.48e-12	16	170	70.1	34.641	153	76	5	693	828	1542	1687
EPAL	XP_028515490.1	5.48e-12	16	170	70.1	34.641	153	76	5	693	828	1542	1687
EPAL	XP_020897473.1	7.37e-12	8	163	67.4	45.714	70	37	1	759	828	238	306
EPAL	XP_020897472.1	3.23e-11	8	161	66.6	45.714	70	37	1	759	828	391	459
EPAL	XP_020896074.1	3.75e-11	11	162	67.0	45.902	61	32	1	764	824	963	1022
EPAL	XP_020896074.1	1.7	11	72	32.3	43.333	30	17	0	612	641	279	308
EPAL	XP_020906324.1	4.31e-11	11	162	67.0	45.902	61	32	1	764	824	1059	1118
EPAL	XP_020906324.1	1.6	11	72	32.3	43.333	30	17	0	612	641	375	404
EPAL	XP_028513624.1	1.05e-10	11	158	65.5	53.333	60	27	1	765	824	910	968
EPAL	XP_028513624.1	0.17	11	81	35.8	43.333	30	17	0	612	641	245	274
EPAL	XP_020896090.1	1.05e-10	11	158	65.5	53.333	60	27	1	765	824	910	968
EPAL	XP_020896090.1	0.17	11	81	35.8	43.333	30	17	0	612	641	245	274
EPAL	XP_020896089.1	1.05e-10	11	158	65.5	53.333	60	27	1	765	824	910	968
EPAL	XP_020896089.1	0.17	11	81	35.8	43.333	30	17	0	612	641	245	274
EPAL	XP_020899614.1	7.50e-10	8	151	62.8	41.538	65	37	1	764	828	673	736
EPAL	XP_020912289.1	8.22e-10	8	151	62.8	45.455	66	29	2	766	828	754	815
EPAL	XP_020912288.1	8.22e-10	8	151	62.8	45.455	66	29	2	766	828	754	815
EPAL	XP_020915016.1	1.46e-09	13	149	62.0	46.377	69	36	1	762	830	940	1007
EPAL	XP_020915016.1	0.004	13	94	40.8	45.946	37	19	1	613	648	108	144
EPAL	XP_020915017.1	1.53e-09	13	149	62.0	46.377	69	36	1	762	830	932	999
EPAL	XP_020915017.1	0.005	13	94	40.8	45.946	37	19	1	613	648	108	144
EPAL	XP_028513994.1	1.19e-08	8	141	58.9	38.095	63	38	1	766	828	998	1059
EPAL	XP_020897274.1	1.19e-08	8	141	58.9	38.095	63	38	1	766	828	998	1059
EPAL	XP_028513995.1	1.20e-08	8	141	58.9	38.095	63	38	1	766	828	997	1058
EPAL	XP_020916235.2	1.52e-05	8	113	48.1	38.806	67	38	2	764	829	322	386
EPAL	XP_020912502.1	0.53	9	77	34.3	30.233	86	47	1	175	247	518	603
EPAL	XP_028519136.1	0.86	5	74	33.1	42.105	38	21	1	759	796	57	93
EPAL	XP_020896399.1	1.0	5	73	32.7	34.146	41	27	0	759	799	22	62
EPAL	XP_020894959.1	1.4	7	72	32.3	35.185	54	34	1	759	812	386	438
EPAL	XP_020916484.1	2.6	5	69	31.2	29.545	44	31	0	760	803	43	86
EPAL	XP_028512859.1	4.4	28	69	31.2	19.409	237	171	4	104	339	17296	17513
EPAL	XP_020916393.1	5.7	13	68	30.8	26.087	115	71	3	531	641	74	178
EPAL	XP_028516916.1	7.9	6	67	30.4	43.860	57	25	3	289	341	249	302
EPAL	XP_028513911.1	8.4	9	67	30.4	27.027	74	51	1	203	276	629	699
EPAL	XP_028515425.1	9.3	12	66	30.0	27.000	100	63	3	653	750	1470	1561
