CHOL	m.943981	0.009	7	88	38.5	28.571	56	39	1	759	814	124	178
CHOL	m.119109	0.014	8	90	39.3	34.848	66	42	1	759	824	135	199
CHOL	m.825990	0.016	7	80	35.4	30.357	56	38	1	759	814	3	57
CHOL	m.915094	0.021	6	88	38.5	41.860	43	24	1	764	806	335	376
CHOL	m.915094	0.20	6	80	35.4	36.364	44	27	1	761	804	451	493
CHOL	m.275567	0.068	12	83	36.6	29.126	103	66	4	718	814	460	561
CHOL	m.275471	0.14	7	80	35.4	29.091	55	38	1	760	814	273	326
CHOL	m.884223	0.25	15	79	35.0	28.000	125	69	5	708	828	505	612
CHOL	m.275541	0.26	7	77	34.3	27.778	54	38	1	761	814	178	230
CHOL	m.734922	0.41	6	77	34.3	37.255	51	31	1	763	812	362	412
CHOL	m.747798	0.59	9	76	33.9	25.974	77	56	1	754	829	536	612
CHOL	m.117997	0.63	8	75	33.5	33.846	65	38	2	760	824	414	473
CHOL	m.264636	0.69	5	75	33.5	36.585	41	25	1	766	806	265	304
CHOL	m.368042	0.97	8	73	32.7	34.328	67	36	4	756	818	139	201
CHOL	m.368071	1.00	8	73	32.7	32.394	71	40	4	752	818	159	225
CHOL	m.363621	1.1	5	67	30.4	36.585	41	25	1	759	798	15	55
CHOL	m.858893	1.2	7	73	32.7	23.636	55	41	1	760	814	803	856
CHOL	m.41897	1.7	7	70	31.6	31.579	57	36	1	761	814	124	180
CHOL	m.398153	2.8	5	70	31.6	30.769	39	27	0	599	637	332	370
CHOL	m.397997	2.9	5	69	31.2	30.769	39	27	0	614	652	273	311
CHOL	m.398161	3.6	5	69	31.2	30.769	39	27	0	599	637	312	350
CHOL	m.397943	3.7	5	69	31.2	30.769	39	27	0	599	637	312	350
CHOL	m.346089	4.1	7	67	30.4	30.909	55	37	1	760	814	219	272
CHOL	m.275686	4.3	7	66	30.0	27.778	54	38	1	761	814	130	182
CHOL	m.398012	6.0	5	67	30.4	30.769	39	27	0	599	637	312	350
CHOL	m.895657	6.9	9	66	30.0	31.111	90	46	4	463	540	121	206
