COWC	XP_004348442.1	0.19	6	70	31.6	32.692	52	34	1	764	815	10	60
COWC	XP_004349356.1	0.22	8	75	33.5	33.333	63	41	1	765	827	254	315
COWC	XP_004346911.2	1.5	9	69	31.2	35.443	79	37	3	213	285	665	735
COWC	XP_004346999.1	4.3	13	65	29.6	22.881	118	64	3	637	746	1083	1181
COWC	XP_004343105.1	4.7	5	64	29.3	45.652	46	20	2	395	438	292	334
