NVEC	XP_001629910.2	4.96e-33	37	325	129	30.094	319	161	10	525	828	13	284
NVEC	XP_032223466.1	1.81e-15	7	198	80.9	56.452	62	27	0	766	827	457	518
NVEC	XP_032223464.1	3.32e-15	7	197	80.5	56.452	62	27	0	766	827	645	706
NVEC	XP_032223465.1	3.38e-15	7	196	80.1	56.452	62	27	0	766	827	575	636
NVEC	XP_032236032.1	1.27e-11	11	167	68.9	50.820	61	29	1	764	824	1106	1165
NVEC	XP_032236032.1	3.2	11	71	32.0	42.424	33	18	1	612	644	389	420
NVEC	XP_001635968.2	4.41e-11	8	161	66.6	41.429	70	40	1	759	828	394	462
NVEC	XP_001635967.2	5.01e-11	8	153	63.5	42.647	68	38	1	761	828	127	193
NVEC	XP_001617912.2	2.89e-10	8	143	59.7	39.683	63	37	1	766	828	75	136
NVEC	XP_032236029.1	3.34e-10	13	155	64.3	50.820	61	29	1	764	824	909	968
NVEC	XP_032236029.1	0.43	13	78	34.7	35.294	51	26	2	592	638	207	254
NVEC	XP_001630217.2	1.03e-09	8	151	62.8	42.857	63	35	1	766	828	866	927
NVEC	XP_032234511.1	1.50e-09	8	150	62.4	42.857	70	39	1	759	828	1541	1609
NVEC	XP_032234510.1	1.50e-09	8	150	62.4	42.857	70	39	1	759	828	1541	1609
NVEC	XP_032242215.1	1.52e-09	13	150	62.4	46.377	69	36	1	762	830	974	1041
NVEC	XP_032242215.1	0.007	13	93	40.4	45.946	37	19	1	613	648	151	187
NVEC	XP_032234512.1	1.52e-09	8	150	62.4	42.857	70	39	1	759	828	1540	1608
NVEC	XP_032230518.1	3.54e-08	8	138	57.8	39.683	63	37	1	766	828	814	875
NVEC	XP_032230517.1	3.93e-08	8	138	57.8	39.683	63	37	1	766	828	838	899
NVEC	XP_032238213.1	8.61e-08	8	135	56.6	44.118	68	31	2	766	830	792	855
NVEC	XP_032238163.1	8.62e-08	8	121	51.2	43.243	74	34	3	761	830	21	90
NVEC	XP_032235571.1	5.40e-06	8	118	50.1	35.714	70	42	2	762	830	315	382
NVEC	XP_032235570.1	5.40e-06	8	118	50.1	35.714	70	42	2	762	830	315	382
NVEC	XP_032235569.1	5.40e-06	8	118	50.1	35.714	70	42	2	762	830	315	382
NVEC	XP_032230852.1	0.003	7	94	40.8	38.710	62	36	2	760	820	30	90
NVEC	XP_032230853.1	0.008	7	90	39.3	37.931	58	34	2	764	820	32	88
NVEC	XP_032230851.1	0.018	7	88	38.5	39.286	56	32	2	766	820	45	99
NVEC	XP_032230850.1	0.033	7	86	37.7	39.286	56	32	2	766	820	63	117
NVEC	XP_032230570.1	0.035	6	87	38.1	33.333	48	31	1	766	813	454	500
NVEC	XP_032239999.1	0.66	5	77	34.3	38.462	39	23	1	757	795	1527	1564
NVEC	XP_032240000.1	0.69	5	77	34.3	38.462	39	23	1	757	795	1501	1538
NVEC	XP_032239998.1	0.69	5	77	34.3	38.462	39	23	1	757	795	1501	1538
NVEC	XP_032239997.1	0.73	5	76	33.9	38.462	39	23	1	757	795	1764	1801
NVEC	XP_032239996.1	0.73	5	76	33.9	38.462	39	23	1	757	795	1764	1801
NVEC	XP_032239989.1	2.0	8	72	32.3	29.851	67	44	3	764	828	20	85
NVEC	XP_032218918.1	2.3	3	72	32.3	56.000	25	10	1	606	630	248	271
NVEC	XP_001638396.2	2.4	3	71	32.0	56.000	25	10	1	606	630	185	208
NVEC	XP_001625072.2	4.7	7	69	31.2	36.842	57	32	2	280	334	487	541
NVEC	XP_001627281.2	5.3	13	69	31.2	23.485	132	76	4	330	441	546	672
NVEC	XP_032239289.1	7.7	12	67	30.4	25.234	107	70	3	178	277	168	271
NVEC	XP_001634136.1	8.0	12	67	30.4	25.234	107	70	3	178	277	198	301
NVEC	XP_032230577.1	9.1	8	66	30.0	28.571	70	40	2	759	828	381	440
