HMIA	HMIM003077-PA	7.49e-24	40	265	106	28.415	366	190	11	502	830	358	688
HMIA	HMIM021214-PA	1.55e-12	8	171	70.5	40.909	66	39	0	764	829	503	568
HMIA	HMIM012075-PA	1.84e-09	8	144	60.1	43.284	67	37	1	762	828	300	365
HMIA	HMIM011915-PA	1.67e-07	7	129	54.3	42.857	63	35	1	759	820	488	550
HMIA	HMIM015308-PA	2.06e-06	8	121	51.2	35.294	68	43	1	761	828	1292	1358
HMIA	HMIM018451-PA	0.004	39	93	40.4	25.749	334	193	16	204	523	3145	3437
HMIA	HMIM018451-PA	2.8	39	69	31.2	25.145	346	205	15	204	523	2795	3112
HMIA	HMIM007804-PA	0.77	3	73	32.7	58.621	29	11	1	220	247	13	41
HMIA	HMIM022244-PA	3.1	9	68	30.8	29.268	82	47	4	567	637	413	494
HMIA	HMIM021632-PA	4.4	7	66	30.0	32.727	55	37	0	668	722	189	243
HMIA	HMIM018861-PA	7.2	4	61	28.1	41.176	34	20	0	757	790	49	82
