PDAM	XP_027049487.1	2.51e-35	37	340	135	31.529	314	166	11	519	828	4	272
PDAM	XP_027049488.1	3.29e-19	23	216	87.8	58.209	67	28	0	762	828	171	237
PDAM	XP_027049488.1	4.04e-07	23	123	52.0	28.906	128	82	2	519	642	4	126
PDAM	XP_027055540.1	1.28e-15	8	199	81.3	50.000	66	33	0	765	830	677	742
PDAM	XP_027053274.1	2.84e-12	8	172	70.9	48.571	70	35	1	759	828	1618	1686
PDAM	XP_027049530.1	2.15e-11	8	162	67.0	47.143	70	36	1	759	828	415	483
PDAM	XP_027054312.1	1.01e-10	8	158	65.5	46.269	67	35	1	762	828	671	736
PDAM	XP_027054128.1	1.97e-10	13	156	64.7	50.000	60	29	1	765	824	915	973
PDAM	XP_027054128.1	0.38	13	77	34.3	28.788	66	33	1	590	641	200	265
PDAM	XP_027038107.1	2.24e-10	8	155	64.3	47.826	69	35	1	761	829	786	853
PDAM	XP_027040067.1	8.12e-09	11	142	59.3	47.458	59	30	1	766	824	924	981
PDAM	XP_027040067.1	0.092	11	83	36.6	43.333	30	17	0	612	641	253	282
PDAM	XP_027040066.1	8.26e-09	11	142	59.3	47.458	59	30	1	766	824	925	982
PDAM	XP_027040066.1	0.092	11	83	36.6	43.333	30	17	0	612	641	253	282
PDAM	XP_027040069.1	9.15e-09	11	142	59.3	47.458	59	30	1	766	824	899	956
PDAM	XP_027040069.1	0.099	11	82	36.2	43.333	30	17	0	612	641	227	256
PDAM	XP_027040068.1	9.15e-09	11	142	59.3	47.458	59	30	1	766	824	899	956
PDAM	XP_027040068.1	0.099	11	82	36.2	43.333	30	17	0	612	641	227	256
PDAM	XP_027053987.1	3.10e-08	16	137	57.4	41.791	67	38	1	762	828	1060	1125
PDAM	XP_027053987.1	0.003	16	95	41.2	34.921	63	33	2	613	674	228	283
PDAM	XP_027053987.1	0.015	16	89	38.9	53.333	30	13	1	613	641	149	178
PDAM	XP_027050292.1	4.95e-07	8	126	53.1	42.857	63	33	2	766	828	369	428
PDAM	XP_027051944.1	0.011	8	88	38.5	34.783	69	45	0	760	828	47	115
PDAM	XP_027054655.1	0.61	10	75	33.5	34.177	79	47	3	750	828	438	511
PDAM	XP_027059637.1	0.73	6	75	33.5	34.043	47	31	0	766	812	314	360
PDAM	XP_027059646.1	0.76	6	75	33.5	34.043	47	31	0	766	812	314	360
PDAM	XP_027047635.1	2.0	7	71	32.0	32.258	62	41	1	766	827	1165	1225
PDAM	XP_027055683.1	2.4	15	71	32.0	29.104	134	75	5	253	378	973	1094
PDAM	XP_027035949.1	2.5	19	71	32.0	24.684	158	112	3	6	160	102	255
PDAM	XP_027040911.1	2.7	14	70	31.6	24.194	124	84	4	216	333	1113	1232
PDAM	XP_027037497.1	2.9	3	70	31.6	41.379	29	17	0	383	411	347	375
PDAM	XP_027037495.1	2.9	3	70	31.6	41.379	29	17	0	383	411	347	375
