SPAR	m.35443	0.39	8	76	33.9	28.571	70	43	2	582	651	133	195
SPAR	m.29360	2.4	12	69	31.2	22.936	109	58	2	15	116	359	448
SPAR	m.99716	2.8	5	69	31.2	36.170	47	16	2	398	442	141	175
SPAR	m.123365	5.9	7	66	30.0	33.333	60	39	1	771	830	1095	1153
SPAR	m.194667	7.5	16	65	29.6	26.573	143	81	7	482	617	106	231
SPAR	m.177355	9.2	10	64	29.3	32.609	92	51	5	196	281	117	203
SPAR	m.35790	9.8	6	64	29.3	38.776	49	29	1	200	247	229	277
