ATHA	NP_182094.1	1.1	7	75	33.5	35.593	59	37	1	771	829	244	301
ATHA	NP_001323744.1	1.2	7	74	33.1	35.593	59	37	1	771	829	244	301
ATHA	NP_001318467.1	5.5	7	69	31.2	28.070	57	36	1	617	673	550	601
ATHA	NP_566450.1	9.2	4	65	29.6	38.235	34	21	0	465	498	6	39
ATHA	NP_001326485.1	9.2	4	65	29.6	38.235	34	21	0	465	498	6	39
