HNAN	m.303592	1.45e-04	8	106	45.4	38.095	63	38	1	766	828	540	601
HNAN	m.303592	1.4	8	72	32.3	32.787	61	39	2	768	827	467	526
HNAN	m.409971	0.032	8	86	37.7	34.722	72	28	4	766	828	343	404
HNAN	m.409964	0.76	6	74	33.1	36.364	55	17	3	766	812	346	390
HNAN	m.158820	1.6	8	71	32.0	33.333	66	42	2	558	623	99	162
HNAN	m.314430	2.3	8	70	31.6	29.851	67	46	1	765	830	174	240
HNAN	m.49986	2.8	8	70	31.6	25.974	77	47	1	525	591	868	944
HNAN	m.409002	3.9	5	66	30.0	35.000	40	26	0	318	357	148	187
HNAN	m.59689	5.0	4	68	30.8	44.444	36	19	1	766	801	9	43
HNAN	m.275654	6.8	6	66	30.0	30.000	50	35	0	552	601	268	317
HNAN	m.231996	8.7	7	66	30.0	31.250	64	39	2	191	249	334	397
HNAN	m.191343	9.0	3	66	30.0	48.000	25	13	0	429	453	231	255
HNAN	m.122075	9.6	3	62	28.5	41.176	34	12	1	781	806	111	144
