DGIG	XP_028393778.1	9.25e-23	35	246	99.4	30.068	296	152	10	537	828	9	253
DGIG	XP_028393777.1	4.17e-21	35	233	94.4	29.766	299	152	11	537	828	9	256
DGIG	XP_028394259.1	5.55e-16	8	202	82.4	51.562	64	31	0	765	828	499	562
DGIG	XP_028398470.1	1.41e-13	12	180	73.9	40.385	104	58	3	729	830	321	422
DGIG	XP_028404723.1	1.87e-10	8	155	64.3	46.377	69	36	1	760	828	405	472
DGIG	XP_028402346.1	3.99e-09	10	146	60.8	49.153	59	29	1	766	824	826	883
DGIG	XP_028402346.1	1.4	10	74	33.1	39.286	28	17	0	614	641	154	181
DGIG	XP_028402345.1	4.13e-09	10	146	60.8	49.153	59	29	1	766	824	827	884
DGIG	XP_028402345.1	1.4	10	74	33.1	39.286	28	17	0	614	641	154	181
DGIG	XP_028402344.1	4.13e-09	10	146	60.8	49.153	59	29	1	766	824	827	884
DGIG	XP_028402344.1	1.4	10	74	33.1	39.286	28	17	0	614	641	154	181
DGIG	XP_028409566.1	9.95e-09	8	142	59.3	44.118	68	37	1	761	828	628	694
DGIG	XP_028409565.1	1.14e-08	8	142	59.3	44.118	68	37	1	761	828	658	724
DGIG	XP_028395289.1	7.17e-08	9	136	57.0	46.479	71	37	1	758	828	1751	1820
DGIG	XP_028400132.1	0.006	5	93	40.4	41.304	46	22	2	606	648	125	168
DGIG	XP_028400130.1	0.009	5	92	40.0	41.304	46	22	2	606	648	125	168
DGIG	XP_028400131.1	0.010	5	92	40.0	41.304	46	22	2	606	648	99	142
DGIG	XP_028392389.1	0.013	7	89	38.9	32.258	62	40	2	766	827	9	68
DGIG	XP_028413638.1	0.018	7	89	38.9	32.258	62	40	2	766	827	9	68
DGIG	XP_028397135.1	0.022	7	88	38.5	32.258	62	40	2	766	827	9	68
DGIG	XP_028414671.1	0.023	7	88	38.5	32.258	62	40	2	766	827	9	68
DGIG	XP_028399973.1	0.029	7	87	38.1	32.258	62	40	2	766	827	9	68
DGIG	XP_028418060.1	0.031	7	87	38.1	32.258	62	40	2	766	827	9	68
DGIG	XP_028417239.1	0.031	7	87	38.1	32.258	62	40	2	766	827	9	68
DGIG	XP_028416373.1	0.086	6	84	37.0	40.000	50	29	1	499	548	449	497
DGIG	XP_028391350.1	1.1	6	74	33.1	38.000	50	27	2	780	829	579	624
DGIG	XP_028413398.1	2.1	6	72	32.3	36.735	49	29	2	766	813	9	56
DGIG	XP_028410482.1	3.5	31	71	32.0	30.088	113	55	6	203	296	12418	12525
DGIG	XP_028410482.1	7.8	31	68	30.8	22.727	176	101	7	408	571	12388	12540
DGIG	XP_028410478.1	3.5	31	71	32.0	30.088	113	55	6	203	296	12261	12368
DGIG	XP_028410478.1	7.8	31	68	30.8	22.727	176	101	7	408	571	12231	12383
DGIG	XP_028410472.1	3.5	31	71	32.0	30.088	113	55	6	203	296	12418	12525
DGIG	XP_028410472.1	7.8	31	68	30.8	22.727	176	101	7	408	571	12388	12540
DGIG	XP_028395686.1	6.3	6	68	30.8	34.043	47	31	0	499	545	1686	1732
