SDOL	m.61520	1.48e-11	7	153	63.5	46.032	63	32	1	760	820	106	168
SDOL	m.95229	5.22e-08	7	126	53.1	41.818	55	32	0	766	820	103	157
SDOL	m.63440	0.069	8	83	36.6	29.688	64	43	2	766	829	43	104
SDOL	m.161677	0.51	6	76	33.9	33.333	48	31	1	765	812	1705	1751
SDOL	m.109585	0.56	9	73	32.7	29.730	74	47	3	752	822	156	227
SDOL	m.168467	1.1	7	72	32.3	27.419	62	43	1	747	806	569	630
SDOL	m.28395	2.4	5	69	31.2	40.000	40	23	1	767	806	20	58
SDOL	m.59556	6.4	13	66	30.0	31.481	108	70	3	63	169	238	342
SDOL	m.31282	6.8	11	66	30.0	24.444	90	64	2	620	707	299	386
SDOL	m.141114	8.6	5	60	27.7	33.333	42	27	1	766	807	53	93
SDOL	m.116152	9.8	4	61	28.1	35.135	37	23	1	610	645	4	40
