MROA	m.157511	0.004	6	92	40.0	37.879	66	36	4	916	976	356	421
MROA	m.167048	0.006	4	91	39.7	42.857	42	23	1	919	960	21	61
MROA	m.48091	0.031	14	84	37.0	19.463	149	95	5	760	900	124	255
MROA	m.197384	0.045	5	84	37.0	35.556	45	29	0	917	961	8	52
MROA	m.111320	0.35	8	75	33.5	25.641	78	57	1	904	980	190	267
MROA	m.131875	0.50	5	75	33.5	33.962	53	31	2	919	971	300	348
MROA	m.65098	0.81	5	73	32.7	38.298	47	27	2	919	965	17	61
MROA	m.137006	2.2	8	69	31.2	34.066	91	35	7	783	859	282	361
MROA	m.39916	4.0	4	66	30.0	27.027	37	26	1	769	804	1	37
