SCAR	maker-SC_scaffold10708-snap-gene-0.13-mRNA-1	7.92e-13	7	174	71.6	44.118	68	38	0	915	982	597	664
SCAR	snap_masked-SC_scaffold78-processed-gene-0.1-mRNA-1	7.37e-11	6	141	58.9	42.857	63	35	1	919	981	18	79
SCAR	maker-SC_scaffold5347-augustus-gene-0.153-mRNA-1	1.74e-10	10	154	63.9	31.915	94	63	1	889	982	414	506
SCAR	maker-SC_scaffold6310-augustus-gene-0.10-mRNA-1	4.52e-08	7	133	55.8	38.356	73	44	1	909	981	377	448
SCAR	maker-SC_scaffold105997-snap-gene-0.3-mRNA-1	0.013	6	82	36.2	35.593	59	36	2	919	976	63	120
SCAR	maker-SC_scaffold39962-augustus-gene-0.10-mRNA-1	2.3	9	66	30.0	25.532	94	68	2	86	178	2	94
SCAR	maker-SC_scaffold92816-snap-gene-0.25-mRNA-1	2.3	2	64	29.3	48.000	25	11	1	351	373	57	81
SCAR	maker-SC_scaffold937-snap-gene-0.4-mRNA-1	4.5	14	66	30.0	23.841	151	81	6	840	981	130	255
SCAR	maker-SC_scaffold143252-snap-gene-0.42-mRNA-1	4.7	5	66	30.0	34.043	47	30	1	723	768	228	274
SCAR	maker-SC_scaffold1642-snap-gene-0.9-mRNA-1	6.8	12	65	29.6	27.119	118	76	4	114	231	26	133
SCAR	snap_masked-SC_scaffold54579-processed-gene-0.15-mRNA-1	8.6	2	64	29.3	55.000	20	9	0	935	954	26	45
SCAR	maker-SC_scaffold2793-snap-gene-0.5-mRNA-1	8.8	3	61	28.1	39.394	33	20	0	924	956	108	140
