SARC	XP_014158797.1	0.017	6	83	36.6	36.508	63	39	1	919	981	119	180
SARC	XP_014156351.1	0.19	3	77	34.3	32.258	31	21	0	778	808	269	299
SARC	XP_014155272.1	0.54	6	74	33.1	32.812	64	40	2	917	977	935	998
SARC	XP_014152911.1	3.0	3	65	29.6	32.353	34	23	0	338	371	127	160
SARC	XP_014150973.1	5.3	5	65	29.6	35.185	54	35	0	344	397	1202	1255
SARC	XP_014161768.1	6.9	5	64	29.3	39.130	46	28	0	575	620	557	602
