SHEL	m.196348	0.16	6	79	35.0	32.836	67	39	2	906	967	40	105
SHEL	m.249620	0.72	5	74	33.1	40.000	50	28	2	916	965	198	245
SHEL	m.237254	0.96	4	72	32.3	39.130	46	26	1	911	954	298	343
SHEL	m.130404	5.9	6	66	30.0	26.471	68	45	2	920	982	28	95
