SINF	m.18872	0.008	7	91	39.7	33.333	75	42	4	915	983	41	113
SINF	m.190027	0.11	7	79	35.0	32.308	65	44	0	916	980	227	291
SINF	m.166843	0.15	3	80	35.4	40.625	32	18	1	783	813	95	126
SINF	m.346672	0.53	8	75	33.5	24.675	77	58	0	907	983	878	954
SINF	m.135105	0.73	8	73	32.7	26.250	80	55	2	765	842	380	457
SINF	m.358959	1.3	4	72	32.3	39.130	46	25	2	916	959	2442	2486
SINF	m.5927	1.3	9	71	32.0	29.545	88	56	2	874	961	136	217
SINF	m.147564	3.4	5	68	30.8	36.170	47	29	1	912	957	1272	1318
SINF	m.307121	4.3	8	68	30.8	29.070	86	54	4	884	965	2148	2230
SINF	m.65042	5.0	6	65	29.6	30.769	65	36	1	533	588	8	72
SINF	m.42905	7.7	7	66	30.0	31.081	74	50	1	615	687	669	742
