CHOL	m.119109	0.040	7	86	37.7	35.385	65	41	1	919	983	142	205
CHOL	m.549091	0.041	9	86	37.7	30.435	92	63	1	890	981	173	263
CHOL	m.549102	0.050	10	85	37.4	29.897	97	67	1	885	981	168	263
CHOL	m.915094	1.3	4	74	33.1	41.463	41	23	1	919	959	337	376
CHOL	m.918723	1.7	15	73	32.7	31.977	172	91	8	58	209	1922	2087
CHOL	m.734922	2.4	7	71	32.0	30.000	70	47	2	916	983	362	431
CHOL	m.174943	4.7	11	68	30.8	27.200	125	70	4	787	898	213	329
