EPAL	XP_020903333.1	8.36e-19	20	217	88.2	48.649	74	38	0	908	981	215	288
EPAL	XP_020903333.1	2.07e-06	20	120	50.8	28.188	149	55	5	694	819	19	138
EPAL	XP_020916618.1	2.26e-14	7	189	77.4	53.125	64	30	0	919	982	579	642
EPAL	XP_020912289.1	2.61e-10	7	156	64.7	45.333	75	33	3	911	981	745	815
EPAL	XP_020912288.1	2.61e-10	7	156	64.7	45.333	75	33	3	911	981	745	815
EPAL	XP_028515492.1	3.00e-09	7	148	61.6	44.118	68	37	1	914	981	1621	1687
EPAL	XP_028515490.1	3.00e-09	7	148	61.6	44.118	68	37	1	914	981	1621	1687
EPAL	XP_020902826.1	3.02e-09	7	147	61.2	44.118	68	37	1	914	981	1620	1686
EPAL	XP_020906324.1	4.15e-09	17	146	60.8	31.783	129	62	5	849	977	1016	1118
EPAL	XP_020906324.1	0.005	17	94	40.8	44.118	34	19	0	779	812	371	404
EPAL	XP_020896074.1	5.00e-09	17	145	60.5	31.783	129	62	5	849	977	920	1022
EPAL	XP_020896074.1	0.005	17	94	40.8	44.118	34	19	0	779	812	275	308
EPAL	XP_028513624.1	6.79e-08	9	136	57.0	50.847	59	28	1	919	977	911	968
EPAL	XP_028513624.1	0.005	9	95	41.2	42.424	33	19	0	780	812	242	274
EPAL	XP_020896090.1	6.79e-08	9	136	57.0	50.847	59	28	1	919	977	911	968
EPAL	XP_020896090.1	0.005	9	95	41.2	42.424	33	19	0	780	812	242	274
EPAL	XP_020896089.1	6.79e-08	9	136	57.0	50.847	59	28	1	919	977	911	968
EPAL	XP_020896089.1	0.005	9	95	41.2	42.424	33	19	0	780	812	242	274
EPAL	XP_020897473.1	7.18e-08	7	132	55.5	42.647	68	38	1	915	982	241	307
EPAL	XP_020915017.1	1.07e-07	13	134	56.2	43.478	69	38	1	915	983	932	999
EPAL	XP_020915017.1	1.04e-05	13	117	49.7	39.683	63	30	2	782	843	106	161
EPAL	XP_020915016.1	1.11e-07	13	134	56.2	43.478	69	38	1	915	983	940	1007
EPAL	XP_020915016.1	1.06e-05	13	117	49.7	39.683	63	30	2	782	843	106	161
EPAL	XP_020897472.1	1.61e-07	7	131	55.1	42.647	68	38	1	915	982	394	460
EPAL	XP_020899614.1	1.95e-07	7	131	55.1	36.620	71	44	1	911	981	667	736
EPAL	XP_028513994.1	1.96e-07	7	132	55.5	38.462	65	39	1	917	981	996	1059
EPAL	XP_020897274.1	1.96e-07	7	132	55.5	38.462	65	39	1	917	981	996	1059
EPAL	XP_028513995.1	2.00e-07	7	132	55.5	38.462	65	39	1	917	981	995	1058
EPAL	XP_020916235.2	3.84e-04	7	102	43.9	37.681	69	40	2	914	981	319	385
EPAL	XP_028513339.1	0.65	4	76	33.9	38.462	39	23	1	776	814	160	197
EPAL	XP_028513338.1	0.65	4	76	33.9	38.462	39	23	1	776	814	160	197
EPAL	XP_020904506.1	1.5	4	74	33.1	37.736	53	22	2	485	527	2850	2901
EPAL	XP_028518130.1	1.6	4	73	32.7	38.095	42	24	1	778	817	356	397
EPAL	XP_020911741.1	1.6	4	73	32.7	38.095	42	24	1	778	817	356	397
EPAL	XP_020911742.1	1.9	4	72	32.3	38.095	42	24	1	778	817	310	351
EPAL	XP_020901181.1	3.1	6	67	30.4	31.746	63	38	1	562	624	24	81
EPAL	XP_020902795.2	6.3	5	67	30.4	31.915	47	28	1	752	798	31	73
EPAL	XP_028512859.1	6.5	7	68	30.8	30.303	66	40	2	374	439	3716	3775
EPAL	XP_028516982.1	9.7	3	66	30.0	45.946	37	14	1	467	497	91	127
