HVUL	XP_012559663.1	4.54e-25	29	265	106	31.741	293	153	12	698	981	40	294
HVUL	XP_012559657.1	2.60e-24	29	260	104	32.673	303	152	13	698	981	40	309
HVUL	XP_002160469.3	1.31e-09	7	148	61.6	43.939	66	36	1	916	981	750	814
HVUL	XP_012563849.1	1.81e-08	6	139	58.2	46.774	62	32	1	919	980	794	854
HVUL	XP_004207258.1	8.96e-08	7	132	55.5	41.791	67	38	1	907	973	410	475
HVUL	XP_012553884.1	1.77e-07	15	131	55.1	30.464	151	96	4	823	973	1487	1628
HVUL	XP_012553804.1	2.93e-06	9	120	50.8	38.824	85	45	3	898	982	825	902
HVUL	XP_012559766.1	6.06e-06	15	118	50.1	41.667	72	41	1	911	982	998	1068
HVUL	XP_012559766.1	7.74e-06	15	117	49.7	35.366	82	39	4	743	819	95	167
HVUL	XP_002164997.2	0.17	8	78	34.7	29.333	75	53	0	908	982	47	121
HVUL	XP_012557203.1	0.40	6	76	33.9	32.727	55	34	1	927	981	559	610
HVUL	XP_012561821.1	2.3	5	70	31.6	36.170	47	29	1	919	965	349	394
HVUL	XP_012554665.1	3.4	10	69	31.2	29.245	106	69	4	63	165	631	733
HVUL	XP_012565774.1	5.7	6	64	29.3	28.125	64	44	2	738	800	32	94
HVUL	XP_002159997.2	9.3	5	65	29.6	33.333	45	30	0	343	387	7	51
