MFLU	m.286376	0.035	6	77	34.3	31.884	69	31	3	586	641	2	67
MFLU	m.25267	0.16	4	76	33.9	39.216	51	22	2	913	954	72	122
MFLU	m.274272	0.23	11	76	33.9	25.893	112	64	3	606	716	72	165
MFLU	m.38213	0.37	6	76	33.9	29.412	68	31	3	765	821	421	482
MFLU	m.59816	1.4	9	71	32.0	29.032	93	56	4	33	116	184	275
MFLU	m.221721	2.2	9	70	31.6	25.556	90	63	1	549	634	450	539
MFLU	m.65678	3.3	6	69	31.2	34.921	63	38	3	920	981	2766	2826
MFLU	m.251504	4.2	4	66	30.0	35.897	39	25	0	578	616	67	105
MFLU	m.243568	6.1	4	67	30.4	41.860	43	21	1	605	647	91	129
MFLU	m.1271	6.1	8	66	30.0	30.380	79	49	3	906	982	96	170
