HGRA	m.91810	0.30	7	76	33.9	27.536	69	49	1	914	982	45	112
HGRA	m.203964	0.61	11	74	33.1	27.434	113	72	3	426	538	1122	1224
HGRA	m.209828	3.0	6	68	30.8	29.231	65	44	1	262	324	70	134
HGRA	m.129433	6.2	14	66	30.0	27.143	140	88	5	95	231	724	852
HGRA	m.245532	6.4	5	64	29.3	37.255	51	32	0	300	350	155	205
