MSQU	KAF1741212.1	0.11	6	70	31.6	35.593	59	38	0	109	167	38	96
MSQU	KAF1745477.1	0.85	3	65	29.6	46.154	26	14	0	214	239	172	197
MSQU	KAF1743762.1	0.89	10	66	30.0	27.885	104	56	5	664	757	207	301
MSQU	KAF1740960.1	6.5	9	56	26.2	31.915	94	38	6	739	829	28	98
MSQU	KAF1743572.1	6.8	4	53	25.0	37.838	37	20	3	785	819	30	65
MSQU	KAF1743150.1	9.0	6	57	26.6	26.316	57	42	0	252	308	303	359
