SCIL	scpid40985|	1.12e-10	11	161	66.6	43.662	71	39	1	911	981	910	979
SCIL	scpid40985|	0.009	11	94	40.8	44.444	36	19	1	781	815	160	195
SCIL	scpid41679|	1.18e-10	11	160	66.2	43.662	71	39	1	911	981	899	968
SCIL	scpid41679|	0.009	11	94	40.8	44.444	36	19	1	781	815	160	195
SCIL	scpid40059|	1.35e-10	7	160	66.2	43.662	71	39	1	911	981	925	994
SCIL	scpid40697|	1.44e-10	7	160	66.2	43.662	71	39	1	911	981	914	983
SCIL	scpid23244|	2.02e-09	11	150	62.4	46.970	66	34	1	916	981	1036	1100
SCIL	scpid23244|	0.002	11	99	42.7	39.024	41	24	1	780	819	42	82
SCIL	scpid92276|	2.08e-06	9	123	52.0	40.323	62	31	3	914	973	311	368
SCIL	scpid92276|	0.14	9	83	36.6	41.379	29	17	0	784	812	130	158
SCIL	scpid68366|	1.57e-05	12	116	49.3	39.394	66	39	1	916	980	456	521
SCIL	scpid68366|	0.013	12	92	40.0	31.034	58	39	1	768	824	235	292
SCIL	scpid55889|	2.59e-05	6	114	48.5	40.000	55	32	1	919	973	380	433
SCIL	scpid79420|	0.014	4	91	39.7	44.444	36	19	1	781	815	160	195
