SPIS	XP_022788400.1	2.09e-29	29	297	119	32.759	290	148	8	699	981	23	272
SPIS	XP_022788401.1	4.95e-18	19	209	85.1	51.899	79	35	1	906	981	159	237
SPIS	XP_022788401.1	1.38e-06	19	121	51.2	33.043	115	66	3	699	813	23	126
SPIS	XP_022800980.1	6.91e-17	7	212	86.3	55.385	65	29	0	919	983	675	739
SPIS	XP_022800979.1	7.03e-17	7	212	86.3	55.385	65	29	0	919	983	676	740
SPIS	XP_022780253.1	2.18e-10	7	158	65.5	47.761	67	34	1	915	981	1496	1561
SPIS	XP_022780252.1	2.18e-10	7	158	65.5	47.761	67	34	1	915	981	1496	1561
SPIS	XP_022780251.1	2.18e-10	7	158	65.5	47.761	67	34	1	915	981	1496	1561
SPIS	XP_022780254.1	2.29e-10	7	158	65.5	47.761	67	34	1	915	981	1495	1560
SPIS	XP_022781212.1	7.13e-09	11	145	60.5	43.478	69	38	1	915	983	975	1042
SPIS	XP_022781212.1	1.70e-05	11	116	49.3	53.846	39	17	1	782	819	145	183
SPIS	XP_022781211.1	7.28e-09	11	145	60.5	43.478	69	38	1	915	983	1052	1119
SPIS	XP_022781211.1	1.66e-05	11	116	49.3	53.659	41	18	1	780	819	221	261
SPIS	XP_022781211.1	1.61e-04	11	108	46.2	56.250	32	13	1	782	812	145	176
SPIS	XP_022781210.1	7.47e-09	11	145	60.5	43.478	69	38	1	915	983	1053	1120
SPIS	XP_022781210.1	1.67e-05	11	116	49.3	53.659	41	18	1	780	819	221	261
SPIS	XP_022781210.1	1.63e-04	11	108	46.2	56.250	32	13	1	782	812	145	176
SPIS	XP_022797047.1	7.66e-09	7	143	59.7	46.269	67	35	1	915	981	418	483
SPIS	XP_022788866.1	1.12e-08	7	143	59.7	45.455	66	35	1	916	981	782	846
SPIS	XP_022788860.1	1.12e-08	7	143	59.7	45.455	66	35	1	916	981	782	846
SPIS	XP_022788872.1	1.44e-08	7	142	59.3	45.455	66	35	1	916	981	758	822
SPIS	XP_022777953.1	2.50e-08	7	140	58.5	39.437	71	42	1	911	981	670	739
SPIS	XP_022777946.1	2.50e-08	7	140	58.5	39.437	71	42	1	911	981	670	739
SPIS	XP_022777959.1	2.57e-08	7	139	58.2	39.437	71	42	1	911	981	649	718
SPIS	XP_022788944.1	2.67e-08	10	138	57.8	37.624	101	47	2	873	973	406	490
SPIS	XP_022779947.1	8.31e-08	6	134	56.2	42.857	63	33	2	919	981	366	425
SPIS	XP_022804678.1	1.05e-07	9	135	56.6	49.091	55	27	1	919	973	918	971
SPIS	XP_022804678.1	0.006	9	94	40.8	48.485	33	17	0	780	812	233	265
SPIS	XP_022796962.1	2.61e-07	7	131	55.1	40.625	64	37	1	919	982	887	949
SPIS	XP_022778323.1	0.008	3	92	40.0	48.485	33	17	0	780	812	222	254
SPIS	XP_022804679.1	0.009	3	93	40.4	48.485	33	17	0	780	812	233	265
SPIS	XP_022803783.1	0.31	9	78	34.7	30.108	93	59	2	810	901	144	231
SPIS	XP_022781247.1	0.45	4	77	34.3	37.500	40	25	0	352	391	228	267
SPIS	XP_022779929.1	1.1	4	75	33.5	47.619	42	20	2	919	959	10	50
SPIS	XP_022796115.1	1.3	8	73	32.7	30.380	79	55	0	903	981	37	115
SPIS	XP_022791263.1	1.5	19	74	33.1	23.958	192	118	5	100	281	271	444
SPIS	XP_022798456.1	2.2	6	73	32.7	31.250	64	43	1	903	965	297	360
SPIS	XP_022779115.1	5.1	7	70	31.6	29.688	64	44	1	917	980	1163	1225
SPIS	XP_022784542.1	5.2	5	69	31.2	34.783	46	29	1	938	983	24	68
SPIS	XP_022803059.1	6.0	6	66	30.0	34.426	61	29	2	192	246	15	70
SPIS	XP_022784541.1	8.1	5	67	30.4	34.783	46	29	1	938	983	24	68
SPIS	XP_022781146.1	9.8	8	66	30.0	29.762	84	50	2	881	962	37	113
