DGIG	XP_028393777.1	8.52e-19	29	216	87.8	26.042	288	169	9	698	981	9	256
DGIG	XP_028393778.1	1.27e-18	29	215	87.4	26.990	289	162	10	698	981	9	253
DGIG	XP_028394259.1	2.16e-15	8	198	80.9	44.156	77	43	0	905	981	486	562
DGIG	XP_028398470.1	6.01e-11	10	160	66.2	37.234	94	57	2	890	983	331	422
DGIG	XP_028409566.1	3.10e-09	12	147	61.2	32.283	127	73	4	864	981	572	694
DGIG	XP_028409565.1	4.17e-09	12	146	60.8	32.283	127	73	4	864	981	602	724
DGIG	XP_028404723.1	5.78e-06	6	119	50.4	44.444	63	34	1	919	981	411	472
DGIG	XP_028402345.1	1.37e-05	9	117	49.7	44.068	59	32	1	919	977	827	884
DGIG	XP_028402345.1	0.008	9	93	40.4	46.875	32	17	0	781	812	150	181
DGIG	XP_028402344.1	1.37e-05	9	117	49.7	44.068	59	32	1	919	977	827	884
DGIG	XP_028402344.1	0.008	9	93	40.4	46.875	32	17	0	781	812	150	181
DGIG	XP_028402346.1	1.39e-05	9	117	49.7	44.068	59	32	1	919	977	826	883
DGIG	XP_028402346.1	0.008	9	93	40.4	46.875	32	17	0	781	812	150	181
DGIG	XP_028395289.1	4.31e-05	7	113	48.1	44.776	67	36	1	915	981	1755	1820
DGIG	XP_028400132.1	5.95e-05	4	111	47.4	52.778	36	16	1	785	819	133	168
DGIG	XP_028400130.1	7.93e-05	4	110	47.0	48.780	41	20	1	785	824	133	173
DGIG	XP_028400131.1	8.42e-05	4	110	47.0	48.780	41	20	1	785	824	107	147
DGIG	XP_028392389.1	0.022	5	88	38.5	35.849	53	33	1	931	983	20	71
DGIG	XP_028413638.1	0.030	5	87	38.1	36.000	50	31	1	931	980	20	68
DGIG	XP_028414671.1	0.032	5	87	38.1	35.849	53	33	1	931	983	20	71
DGIG	XP_028418060.1	0.033	5	87	38.1	35.849	53	33	1	931	983	20	71
DGIG	XP_028417239.1	0.033	5	87	38.1	35.849	53	33	1	931	983	20	71
DGIG	XP_028399973.1	0.036	5	87	38.1	35.849	53	33	1	931	983	20	71
DGIG	XP_028397135.1	0.036	5	87	38.1	35.849	53	33	1	931	983	20	71
DGIG	XP_028400538.1	0.70	6	75	33.5	34.921	63	32	2	879	935	9	68
DGIG	XP_028392201.1	2.2	5	72	32.3	40.000	50	28	2	759	807	8	56
DGIG	XP_028391350.1	2.7	4	72	32.3	34.884	43	27	1	933	975	579	620
DGIG	XP_028396288.1	3.3	3	71	32.0	51.852	27	13	0	575	601	3615	3641
DGIG	XP_028396287.1	3.3	3	71	32.0	51.852	27	13	0	575	601	3615	3641
DGIG	XP_028402279.1	7.8	5	68	30.8	26.923	52	38	0	124	175	1199	1250
DGIG	XP_028402278.1	8.2	5	68	30.8	26.923	52	38	0	124	175	1199	1250
DGIG	XP_028402277.1	8.4	5	68	30.8	26.923	52	38	0	124	175	1199	1250
DGIG	XP_028402275.1	8.4	5	68	30.8	26.923	52	38	0	124	175	1199	1250
DGIG	XP_028407519.1	8.8	6	66	30.0	25.000	60	45	0	14	73	108	167
