AQUE	XP_019851346.1	5.51e-35	94	318	127	31.438	299	138	10	12	258	9	292
AQUE	XP_019856716.1	1.18e-04	19	100	43.1	42.000	50	25	2	45	94	12	57
AQUE	XP_003382743.1	6.39e-04	14	94	40.8	44.444	36	19	1	43	78	819	853
AQUE	XP_003388691.2	0.002	16	89	38.9	39.535	43	24	1	35	77	17	57
AQUE	XP_011402885.2	0.003	12	88	38.5	50.000	32	15	1	45	76	62	92
AQUE	XP_019858010.1	0.004	27	84	37.0	28.736	87	47	2	46	117	18	104
AQUE	XP_019853375.1	0.007	12	83	36.6	40.625	32	18	1	45	76	6	36
AQUE	XP_011405859.1	0.009	28	84	37.0	29.870	77	50	1	39	111	18	94
AQUE	XP_019851914.1	0.011	12	84	37.0	50.000	32	15	1	45	76	17	47
AQUE	XP_011403536.1	0.015	11	82	36.2	48.276	29	15	0	48	76	15	43
AQUE	XP_011408666.2	0.015	12	82	36.2	43.750	32	17	1	45	76	18	48
AQUE	XP_011408270.2	0.019	18	79	35.0	42.553	47	21	2	45	91	16	56
AQUE	XP_011407462.1	0.020	21	81	35.8	32.759	58	35	3	48	102	22	78
AQUE	XP_019860742.1	0.021	12	81	35.8	41.935	31	18	0	46	76	18	48
AQUE	XP_011408466.1	0.021	12	77	34.3	41.935	31	18	0	46	76	18	48
AQUE	XP_019862949.1	0.021	11	78	34.7	40.000	30	17	1	47	76	21	49
AQUE	XP_011410400.1	0.022	14	81	35.8	48.649	37	18	1	40	76	24	59
AQUE	XP_011403334.2	0.023	11	81	35.8	40.000	30	17	1	47	76	21	49
AQUE	XP_019858091.1	0.024	12	80	35.4	41.935	31	18	0	46	76	18	48
AQUE	XP_019860741.1	0.025	12	80	35.4	41.935	31	18	0	46	76	18	48
AQUE	XP_019860740.1	0.025	12	80	35.4	41.935	31	18	0	46	76	18	48
AQUE	XP_019860739.1	0.025	12	80	35.4	41.935	31	18	0	46	76	18	48
AQUE	XP_019860738.1	0.025	12	80	35.4	41.935	31	18	0	46	76	18	48
AQUE	XP_019860737.1	0.025	12	80	35.4	41.935	31	18	0	46	76	18	48
AQUE	XP_011405252.1	0.025	25	81	35.8	29.851	67	46	1	35	100	290	356
AQUE	XP_011408283.1	0.025	12	79	35.0	41.935	31	18	0	46	76	16	46
AQUE	XP_019862950.1	0.026	11	77	34.3	40.000	30	17	1	47	76	21	49
AQUE	XP_019851625.1	0.030	11	79	35.0	44.828	29	16	0	48	76	20	48
AQUE	XP_011407066.1	0.030	12	77	34.3	41.935	31	18	0	46	76	18	48
AQUE	XP_019861185.1	0.033	12	79	35.0	46.875	32	16	1	45	76	13	43
AQUE	XP_019860846.1	0.042	12	77	34.3	41.935	31	18	0	46	76	18	48
AQUE	XP_011409018.2	0.047	12	77	34.3	41.935	31	18	0	46	76	18	48
AQUE	XP_019851698.1	0.052	16	76	33.9	32.558	43	29	0	40	82	6	48
AQUE	XP_019859494.1	0.057	11	78	34.7	48.276	29	14	1	48	76	17	44
AQUE	XP_019859339.1	0.061	12	77	34.3	46.875	32	16	1	45	76	13	43
AQUE	XP_011403757.1	0.078	27	76	33.9	29.213	89	44	3	48	117	20	108
AQUE	XP_011404978.1	0.096	27	74	33.1	29.213	89	44	3	48	117	19	107
AQUE	XP_011404977.1	0.10	27	75	33.5	28.261	92	46	4	46	117	18	109
AQUE	XP_011408179.1	0.11	20	75	33.5	33.333	54	33	2	24	76	8	59
AQUE	XP_019849913.1	0.12	12	75	33.5	43.750	32	17	1	45	76	70	100
AQUE	XP_011409650.1	0.12	13	75	33.5	39.394	33	19	1	45	77	14	45
AQUE	XP_011403293.1	0.12	16	74	33.1	37.209	43	25	1	34	76	25	65
AQUE	XP_019850390.1	0.13	22	75	33.5	36.667	60	29	4	25	83	118	169
AQUE	XP_011402947.1	0.15	38	74	33.1	26.263	99	60	3	45	143	9	94
AQUE	XP_003385002.1	0.18	16	73	32.7	39.535	43	25	1	51	93	131	172
AQUE	XP_003383841.1	0.19	11	73	32.7	39.286	28	17	0	49	76	20	47
AQUE	XP_019856933.1	0.21	12	73	32.7	43.750	32	17	1	45	76	7	37
AQUE	XP_011407420.1	0.22	28	72	32.3	30.667	75	40	2	32	106	21	83
AQUE	XP_011406387.1	0.22	12	72	32.3	40.625	32	18	1	45	76	13	43
AQUE	XP_011405619.2	0.24	12	72	32.3	43.750	32	17	1	51	82	85	115
AQUE	XP_019852014.1	0.26	15	72	32.3	38.462	39	23	1	38	76	24	61
AQUE	XP_019856250.1	0.31	11	72	32.3	42.857	28	15	1	49	76	58	84
AQUE	XP_019855979.1	0.34	10	71	32.0	46.154	26	14	0	51	76	237	262
AQUE	XP_019855043.1	0.35	11	71	32.0	41.379	29	17	0	48	76	92	120
AQUE	XP_019860638.1	0.36	12	70	31.6	43.750	32	17	1	51	82	86	116
AQUE	XP_019853783.1	0.36	23	71	32.0	30.882	68	41	2	48	109	410	477
AQUE	XP_019863045.1	0.38	12	71	32.0	37.500	32	19	1	45	76	9	39
AQUE	XP_019858590.1	0.39	12	70	31.6	38.710	31	19	0	46	76	18	48
AQUE	XP_019857214.1	0.39	12	70	31.6	40.625	32	18	1	45	76	10	40
AQUE	XP_011408545.1	0.45	11	69	31.2	37.931	29	18	0	48	76	20	48
AQUE	XP_019853780.1	0.46	11	70	31.6	41.379	29	17	0	48	76	162	190
AQUE	XP_019853208.1	0.59	13	70	31.6	30.303	33	23	0	44	76	244	276
AQUE	XP_019853205.1	0.59	13	70	31.6	30.303	33	23	0	44	76	244	276
AQUE	XP_019850714.1	0.67	19	69	31.2	30.000	50	34	1	27	76	5	53
AQUE	XP_019854831.1	0.68	12	69	31.2	34.375	32	21	0	44	75	181	212
AQUE	XP_019852786.1	0.69	25	69	31.2	27.778	72	46	1	46	111	18	89
AQUE	XP_011404258.2	0.69	25	69	31.2	27.778	72	46	1	46	111	18	89
AQUE	XP_011403358.2	0.71	16	68	30.8	35.714	42	26	1	42	83	7	47
AQUE	XP_011410445.2	0.71	16	68	30.8	38.298	47	24	2	30	71	4	50
AQUE	XP_019854384.1	0.88	15	68	30.8	38.462	39	23	1	38	76	305	342
AQUE	XP_019851924.1	0.97	18	68	30.8	34.043	47	25	2	45	91	17	57
AQUE	XP_011403663.1	1.1	16	67	30.4	35.714	42	25	1	42	83	27	66
AQUE	XP_011403160.2	1.1	38	67	30.4	25.243	103	66	3	48	147	29	123
AQUE	XP_003391248.1	1.2	40	67	30.4	24.771	109	73	3	48	153	23	125
AQUE	XP_011408778.1	1.2	15	67	30.4	35.897	39	24	1	39	77	6	43
AQUE	XP_019848978.1	1.2	13	67	30.4	40.000	35	19	1	41	75	974	1006
AQUE	XP_019853230.1	1.2	12	66	30.0	35.484	31	20	0	46	76	18	48
AQUE	XP_019849818.1	1.3	15	67	30.4	40.000	40	22	2	49	88	43	80
AQUE	XP_019849817.1	1.3	15	67	30.4	40.000	40	22	2	49	88	43	80
AQUE	XP_019861753.1	1.4	16	66	30.0	32.558	43	27	2	49	90	1	42
AQUE	XP_011402998.1	1.5	16	66	30.0	33.333	42	27	1	35	76	3	43
AQUE	XP_011406638.1	1.7	13	66	30.0	36.364	33	20	1	44	76	11	42
AQUE	XP_019850766.1	1.9	26	65	29.6	26.761	71	45	3	33	100	347	413
AQUE	XP_011402950.1	2.1	10	64	29.3	51.852	27	12	1	51	76	62	88
AQUE	XP_019861337.1	2.1	12	62	28.5	38.710	31	19	0	46	76	18	48
AQUE	XP_003383304.1	2.3	17	65	29.6	31.915	47	31	1	47	92	303	349
AQUE	XP_019856206.1	2.4	14	64	29.3	36.111	36	22	1	41	76	18	52
AQUE	XP_003383131.1	2.4	11	63	28.9	41.379	29	16	1	48	76	57	84
AQUE	XP_019857122.1	2.5	11	64	29.3	35.714	28	17	1	49	76	382	408
AQUE	XP_011407980.2	2.7	15	64	29.3	38.462	39	23	1	38	76	34	71
AQUE	XP_011409881.1	2.8	12	64	29.3	34.375	32	20	1	45	76	12	42
AQUE	XP_011408753.1	2.8	11	62	28.5	37.931	29	18	0	48	76	20	48
AQUE	XP_019853516.1	2.9	12	64	29.3	37.500	32	19	1	45	76	13	43
AQUE	XP_011410380.1	2.9	13	64	29.3	35.294	34	21	1	43	76	7	39
AQUE	XP_019862662.1	3.0	12	63	28.9	37.500	32	19	1	45	76	11	41
AQUE	XP_011409054.1	3.1	15	63	28.9	36.585	41	25	1	46	85	30	70
AQUE	XP_011410253.1	3.1	15	63	28.9	36.585	41	25	1	46	85	31	71
AQUE	XP_011403498.1	3.4	19	63	28.9	30.612	49	34	0	28	76	3	51
AQUE	XP_011405852.2	3.6	15	63	28.9	33.333	39	25	1	40	78	10	47
AQUE	XP_011405504.1	3.7	11	62	28.5	34.483	29	19	0	48	76	20	48
AQUE	XP_011404742.1	3.9	11	62	28.5	36.667	30	19	0	47	76	23	52
AQUE	XP_011405840.1	4.9	11	62	28.5	46.429	28	14	1	49	76	7	33
AQUE	XP_019853974.1	5.1	13	62	28.5	32.353	34	22	1	43	76	11	43
AQUE	XP_019863765.1	5.6	18	60	27.7	34.043	47	25	2	45	91	21	61
AQUE	XP_019857108.1	6.5	14	61	28.1	36.111	36	23	0	48	83	20	55
AQUE	XP_019854967.1	7.0	17	61	28.1	28.261	46	32	1	47	92	293	337
AQUE	XP_011407298.2	7.0	15	61	28.1	33.333	39	23	2	41	79	6	41
AQUE	XP_011405002.1	7.1	13	60	27.7	35.897	39	20	2	42	76	5	42
AQUE	XP_019859095.1	7.1	12	60	27.7	37.500	32	19	1	45	76	15	45
AQUE	XP_003386546.1	7.2	11	59	27.3	46.429	28	14	1	51	78	8	34
AQUE	XP_011410567.1	8.2	11	60	27.7	40.000	30	17	1	47	76	27	55
AQUE	XP_019851900.1	8.4	12	60	27.7	37.500	32	19	1	45	76	9	39
AQUE	XP_019854245.1	9.0	14	60	27.7	33.333	36	23	1	44	79	6	40
AQUE	XP_011407241.2	9.4	12	60	27.7	32.258	31	20	1	49	79	11	40
