ASPE	m.112992	2.51e-16	24	188	77.0	50.794	63	31	0	19	81	10	72
ASPE	m.40543	4.97e-07	23	118	50.1	37.879	66	35	2	19	80	30	93
ASPE	m.459337	1.34e-05	82	106	45.4	21.371	248	135	7	43	259	80	298
ASPE	m.103882	0.008	12	85	37.4	51.613	31	14	1	51	81	38	67
ASPE	m.103860	0.016	10	82	36.2	57.692	26	10	1	51	76	38	62
ASPE	m.118563	0.018	14	82	36.2	39.474	38	23	0	43	80	176	213
ASPE	m.44201	0.018	25	83	36.6	24.615	65	42	1	51	115	1129	1186
ASPE	m.10699	0.022	14	82	36.2	44.737	38	20	1	45	82	16	52
ASPE	m.118559	0.042	13	77	34.3	41.176	34	20	0	43	76	88	121
ASPE	m.54068	0.070	13	77	34.3	36.364	44	19	2	42	76	64	107
ASPE	m.89460	0.12	15	76	33.9	35.000	40	25	1	38	76	40	79
ASPE	m.214860	0.19	11	74	33.1	39.286	28	17	0	49	76	202	229
ASPE	m.214882	0.19	11	73	32.7	39.286	28	17	0	49	76	202	229
ASPE	m.112738	0.24	25	73	32.7	29.412	68	41	2	51	115	192	255
ASPE	m.96283	0.24	16	71	32.0	32.558	43	27	1	41	81	83	125
ASPE	m.214903	0.29	11	73	32.7	39.286	28	17	0	49	76	202	229
ASPE	m.184260	0.58	22	69	31.2	29.508	61	41	1	22	80	40	100
ASPE	m.186789	0.68	13	70	31.6	29.412	34	24	0	49	82	1277	1310
ASPE	m.50306	0.88	26	69	31.2	26.374	91	45	2	158	226	535	625
ASPE	m.8223	0.91	20	68	30.8	35.185	54	32	2	23	76	47	97
ASPE	m.471588	0.94	12	68	30.8	38.710	31	19	0	47	77	13	43
ASPE	m.459041	1.3	13	67	30.4	28.571	35	25	0	46	80	234	268
ASPE	m.110338	1.3	43	67	30.4	26.050	119	81	4	97	210	113	229
ASPE	m.165870	3.3	32	64	29.3	28.090	89	57	2	177	260	256	342
ASPE	m.87217	3.7	10	63	28.9	34.615	26	17	0	51	76	50	75
ASPE	m.450884	4.6	17	62	28.5	30.435	46	32	0	135	180	13	58
ASPE	m.393120	5.2	13	59	27.3	36.364	33	21	0	97	129	37	69
ASPE	m.199401	6.6	38	61	28.1	23.000	100	66	4	131	230	70	158
ASPE	m.10281	6.7	16	61	28.1	28.571	42	30	0	51	92	71	112
ASPE	m.131445	8.4	14	60	27.7	28.947	38	24	1	38	75	125	159
ASPE	m.442133	9.6	10	60	27.7	48.387	31	12	1	117	143	32	62
