AMIL	XP_029180700.1	5.17e-130	97	969	377	51.399	393	118	6	12	403	14	334
AMIL	XP_029200116.1	2.23e-08	27	131	55.1	30.435	115	74	3	28	137	3	116
AMIL	XP_029200132.1	2.68e-08	27	130	54.7	30.435	115	74	3	28	137	3	116
AMIL	XP_029187931.1	3.33e-08	17	135	56.6	38.961	77	39	3	40	110	13	87
AMIL	XP_029200124.1	3.54e-08	26	130	54.7	32.110	109	68	3	34	137	9	116
AMIL	XP_029198735.1	9.73e-08	20	126	53.1	29.070	86	57	2	30	112	1	85
AMIL	XP_029187998.1	1.39e-06	30	120	50.8	26.119	134	71	5	42	164	22	138
AMIL	XP_029187882.1	2.12e-06	20	118	50.1	32.222	90	50	3	42	121	11	99
AMIL	XP_029187603.1	2.59e-06	17	118	50.1	32.353	68	44	2	43	110	41	106
AMIL	XP_029187602.1	2.59e-06	17	118	50.1	32.353	68	44	2	43	110	41	106
AMIL	XP_029187604.1	2.68e-06	17	118	50.1	32.353	68	44	2	43	110	41	106
AMIL	XP_029187880.1	2.72e-06	20	117	49.7	31.868	91	50	3	42	121	11	100
AMIL	XP_029187879.1	2.72e-06	20	117	49.7	31.868	91	50	3	42	121	11	100
AMIL	XP_029209560.1	5.13e-06	20	113	48.1	28.261	92	56	3	41	123	11	101
AMIL	XP_029209559.1	5.13e-06	20	113	48.1	28.261	92	56	3	41	123	11	101
AMIL	XP_029202834.1	1.84e-05	18	111	47.4	36.000	75	44	4	42	116	369	439
AMIL	XP_029187906.1	2.38e-05	17	109	46.6	33.784	74	45	2	42	112	40	112
AMIL	XP_029187905.1	2.39e-05	17	109	46.6	33.784	74	45	2	42	112	42	114
AMIL	XP_029191050.1	3.21e-05	11	108	46.2	43.182	44	25	0	48	91	67	110
AMIL	XP_029191049.1	4.00e-05	11	108	46.2	43.182	44	25	0	48	91	67	110
AMIL	XP_029194168.1	4.01e-05	18	108	46.2	32.941	85	43	4	42	116	11	91
AMIL	XP_029191614.1	4.35e-05	13	107	45.8	39.216	51	30	1	48	98	395	444
AMIL	XP_029198740.1	6.58e-05	21	104	44.7	32.584	89	52	3	40	123	8	93
AMIL	XP_029199167.1	7.96e-05	15	106	45.4	31.250	64	41	2	36	97	183	245
AMIL	XP_029196953.1	9.12e-05	19	105	45.1	33.766	77	49	2	40	116	30	104
AMIL	XP_029212837.1	9.41e-05	13	104	44.7	38.596	57	28	2	45	95	276	331
AMIL	XP_029204468.1	9.82e-05	17	105	45.1	34.286	70	42	4	42	110	12	78
AMIL	XP_029181048.1	1.49e-04	24	104	44.7	31.132	106	55	5	40	138	8	102
AMIL	XP_029181048.1	0.003	24	93	40.4	30.769	78	38	4	42	113	742	809
AMIL	XP_029192762.1	1.50e-04	10	104	44.7	45.238	42	21	2	48	89	596	635
AMIL	XP_029212359.1	2.78e-04	13	99	42.7	40.351	57	29	2	39	91	94	149
AMIL	XP_029200104.1	3.11e-04	17	99	42.7	33.803	71	43	2	46	112	21	91
AMIL	XP_029206019.1	3.54e-04	23	100	43.1	30.208	96	49	5	21	114	55	134
AMIL	XP_029210477.1	3.55e-04	17	101	43.5	36.111	72	35	4	40	106	6	71
AMIL	XP_029212237.1	4.63e-04	18	100	43.1	24.658	73	54	1	40	112	708	779
AMIL	XP_029212235.1	4.63e-04	18	100	43.1	24.658	73	54	1	40	112	708	779
AMIL	XP_029212234.1	4.63e-04	18	100	43.1	24.658	73	54	1	40	112	708	779
AMIL	XP_029212233.1	4.63e-04	18	100	43.1	24.658	73	54	1	40	112	708	779
AMIL	XP_029212232.1	4.63e-04	18	100	43.1	24.658	73	54	1	40	112	708	779
AMIL	XP_029212236.1	4.88e-04	18	99	42.7	24.658	73	54	1	40	112	707	778
AMIL	XP_029181634.1	5.02e-04	17	99	42.7	34.722	72	42	1	41	107	21	92
AMIL	XP_029184434.1	5.67e-04	11	99	42.7	36.364	44	27	1	48	91	61	103
AMIL	XP_029179724.1	8.97e-04	17	97	42.0	36.111	72	35	4	40	106	6	71
AMIL	XP_029202008.1	0.001	14	96	41.6	38.596	57	33	2	45	100	25	80
AMIL	XP_029205978.1	0.001	17	95	41.2	32.857	70	38	3	46	114	10	71
AMIL	XP_029191051.1	0.001	10	96	41.6	47.500	40	19	1	48	87	20	57
AMIL	XP_029201174.1	0.001	12	97	42.0	36.364	55	28	2	40	88	619	672
AMIL	XP_029201173.1	0.001	12	97	42.0	36.364	55	28	2	40	88	619	672
AMIL	XP_029186971.1	0.001	15	95	41.2	35.938	64	36	2	42	100	24	87
AMIL	XP_029185105.1	0.001	22	95	41.2	31.868	91	48	3	42	132	28	104
AMIL	XP_029186858.1	0.001	16	94	40.8	35.938	64	38	2	37	100	35	95
AMIL	XP_029186972.1	0.002	16	95	41.2	35.211	71	41	2	42	107	24	94
AMIL	XP_029202009.1	0.002	14	94	40.8	36.066	61	33	2	45	100	25	84
AMIL	XP_029198845.1	0.002	18	95	41.2	31.646	79	43	4	41	114	9	81
AMIL	XP_029190501.1	0.002	12	95	41.2	38.776	49	27	2	46	92	305	352
AMIL	XP_029207268.1	0.002	14	93	40.4	36.842	57	34	2	45	100	25	80
AMIL	XP_029206020.1	0.002	12	94	40.8	35.417	48	30	1	42	88	6	53
AMIL	XP_029190502.1	0.002	12	94	40.8	38.776	49	27	2	46	92	305	352
AMIL	XP_029206882.1	0.002	23	94	40.8	29.126	103	53	6	21	114	17	108
AMIL	XP_029186857.1	0.003	15	93	40.4	35.593	59	36	1	37	95	35	91
AMIL	XP_029190817.1	0.003	10	93	40.4	38.095	42	25	1	46	87	846	886
AMIL	XP_029179645.1	0.003	14	93	40.4	32.759	58	39	0	40	97	239	296
AMIL	XP_029206884.1	0.003	23	93	40.4	29.126	103	53	6	21	114	17	108
AMIL	XP_029206883.1	0.003	23	93	40.4	29.126	103	53	6	21	114	17	108
AMIL	XP_029202007.1	0.003	14	92	40.0	36.066	61	33	2	45	100	25	84
AMIL	XP_029213693.1	0.003	12	92	40.0	38.462	52	30	1	40	89	18	69
AMIL	XP_029206886.1	0.004	12	92	40.0	41.071	56	24	3	40	88	8	61
AMIL	XP_029194206.1	0.004	12	91	39.7	42.553	47	25	2	45	91	397	441
AMIL	XP_029179723.1	0.005	17	91	39.7	34.722	72	36	4	40	106	6	71
AMIL	XP_029192766.1	0.006	10	89	38.9	45.238	42	21	2	48	89	133	172
AMIL	XP_029192768.1	0.006	10	89	38.9	45.238	42	21	2	48	89	129	168
AMIL	XP_029206881.1	0.007	11	90	39.3	44.444	45	21	2	29	73	72	112
AMIL	XP_029192769.1	0.007	10	89	38.9	45.238	42	21	2	48	89	129	168
AMIL	XP_029190054.1	0.007	13	90	39.3	38.182	55	29	2	41	91	7	60
AMIL	XP_029185101.1	0.007	15	89	38.9	38.710	62	35	3	42	103	58	116
AMIL	XP_029207267.1	0.007	14	89	38.9	36.842	57	34	2	45	100	25	80
AMIL	XP_029192765.1	0.007	10	88	38.5	45.238	42	21	2	48	89	133	172
AMIL	XP_029185230.1	0.008	27	89	38.9	30.909	110	61	6	23	132	33	127
AMIL	XP_029192767.1	0.008	10	88	38.5	45.238	42	21	2	48	89	129	168
AMIL	XP_029187622.1	0.009	15	89	38.9	32.258	62	35	2	41	100	12	68
AMIL	XP_029213124.1	0.009	28	89	38.9	28.682	129	71	6	46	157	19	143
AMIL	XP_029198217.1	0.010	16	89	38.9	33.846	65	41	2	42	106	762	824
AMIL	XP_029208524.1	0.011	18	88	38.5	32.500	80	38	4	40	113	8	77
AMIL	XP_029200840.1	0.012	16	88	38.5	30.556	72	41	3	28	91	29	99
AMIL	XP_029185102.1	0.013	15	87	38.1	38.710	62	35	3	42	103	51	109
AMIL	XP_029186064.1	0.013	10	88	38.5	41.860	43	22	2	48	88	1014	1055
AMIL	XP_029201170.1	0.015	12	87	38.1	36.364	55	28	2	40	88	8	61
AMIL	XP_029201169.1	0.015	12	87	38.1	36.364	55	28	2	40	88	8	61
AMIL	XP_029202169.1	0.015	13	87	38.1	35.714	56	33	2	35	88	4	58
AMIL	XP_029185100.1	0.015	15	87	38.1	38.710	62	35	3	42	103	58	116
AMIL	XP_029213933.1	0.016	13	86	37.7	33.333	51	33	1	43	93	6	55
AMIL	XP_029186973.1	0.018	16	86	37.7	33.803	71	42	1	42	107	22	92
AMIL	XP_029184864.1	0.021	19	86	37.7	25.000	76	43	3	45	120	90	151
AMIL	XP_029201832.1	0.025	11	86	37.7	47.826	46	22	2	45	88	1716	1761
AMIL	XP_029202167.1	0.025	11	85	37.4	44.444	45	22	2	46	88	14	57
AMIL	XP_029206887.1	0.026	8	85	37.4	50.000	34	16	1	40	73	8	40
AMIL	XP_029201831.1	0.026	11	85	37.4	47.826	46	22	2	45	88	1716	1761
AMIL	XP_029201830.1	0.026	11	85	37.4	47.826	46	22	2	45	88	1716	1761
AMIL	XP_029201829.1	0.026	11	85	37.4	47.826	46	22	2	45	88	1717	1762
AMIL	XP_029192763.1	0.027	11	84	37.0	37.255	51	26	2	45	89	14	64
AMIL	XP_029193018.1	0.028	13	85	37.4	33.962	53	33	1	39	91	2021	2071
AMIL	XP_029201833.1	0.028	11	85	37.4	47.826	46	22	2	45	88	1715	1760
AMIL	XP_029205194.1	0.030	11	83	36.6	40.909	44	24	2	48	91	243	284
AMIL	XP_029194354.1	0.033	14	81	35.8	33.898	59	35	3	43	99	28	84
AMIL	XP_029193019.1	0.036	13	84	37.0	33.962	53	33	1	39	91	1990	2040
AMIL	XP_029181042.1	0.037	12	84	37.0	34.545	55	29	2	40	88	8	61
AMIL	XP_029205202.1	0.037	11	82	36.2	40.909	44	24	2	48	91	216	257
AMIL	XP_029180933.1	0.037	11	80	35.4	37.778	45	27	1	47	91	21	64
AMIL	XP_029186066.1	0.042	10	84	37.0	38.095	42	23	2	48	87	1013	1053
AMIL	XP_029186065.1	0.042	10	84	37.0	38.095	42	23	2	48	87	1013	1053
AMIL	XP_029204684.1	0.046	11	80	35.4	36.170	47	28	2	46	91	17	62
AMIL	XP_029209864.1	0.047	16	82	36.2	35.385	65	39	2	37	99	7	70
AMIL	XP_029204217.1	0.048	11	83	36.6	35.417	48	29	1	45	90	20	67
AMIL	XP_029198179.1	0.048	12	83	36.6	34.545	55	29	2	40	88	8	61
AMIL	XP_029189387.1	0.049	10	83	36.6	41.463	41	23	1	46	86	12	51
AMIL	XP_029181046.1	0.049	12	83	36.6	34.545	55	29	2	40	88	8	61
AMIL	XP_029186067.1	0.049	10	83	36.6	40.476	42	22	2	48	87	987	1027
AMIL	XP_029208536.1	0.050	12	83	36.6	34.545	55	29	2	40	88	8	61
AMIL	XP_029181045.1	0.057	12	82	36.2	34.545	55	29	2	40	88	8	61
AMIL	XP_029192761.1	0.058	12	82	36.2	33.333	54	30	2	42	89	30	83
AMIL	XP_029212513.1	0.059	11	82	36.2	40.909	44	24	2	48	91	393	434
AMIL	XP_029188156.1	0.062	9	81	35.8	39.474	38	23	0	48	85	18	55
AMIL	XP_029188154.1	0.062	9	81	35.8	39.474	38	23	0	48	85	18	55
AMIL	XP_029189343.1	0.065	12	81	35.8	36.000	50	32	0	48	97	27	76
AMIL	XP_029181044.1	0.067	12	82	36.2	34.545	55	29	2	40	88	8	61
AMIL	XP_029184062.1	0.073	18	81	35.8	28.571	84	43	4	40	114	5	80
AMIL	XP_029202165.1	0.076	13	81	35.8	37.500	56	26	3	38	89	10	60
AMIL	XP_029202164.1	0.076	13	81	35.8	37.500	56	26	3	38	89	10	60
AMIL	XP_029208528.1	0.077	12	81	35.8	34.545	55	29	2	40	88	8	61
AMIL	XP_029196963.1	0.079	10	80	35.4	35.714	42	25	2	46	87	269	308
AMIL	XP_029198209.1	0.086	12	81	35.8	34.545	55	29	2	40	88	8	61
AMIL	XP_029182177.1	0.093	17	80	35.4	30.667	75	38	4	40	108	8	74
AMIL	XP_029198227.1	0.095	16	80	35.4	34.375	64	40	2	40	102	8	70
AMIL	XP_029208526.1	0.097	12	80	35.4	34.545	55	29	2	40	88	8	61
AMIL	XP_029186974.1	0.12	16	79	35.0	30.986	71	44	1	42	107	24	94
AMIL	XP_029208525.1	0.12	8	79	35.0	47.059	34	17	1	40	73	8	40
AMIL	XP_029206879.1	0.13	12	79	35.0	32.727	55	30	2	40	88	8	61
AMIL	XP_029188253.1	0.15	11	79	35.0	34.091	44	26	1	30	73	1	41
AMIL	XP_029206880.1	0.15	12	79	35.0	32.727	55	30	2	40	88	8	61
AMIL	XP_029188254.1	0.15	11	78	34.7	34.091	44	26	1	30	73	1	41
AMIL	XP_029184376.1	0.18	19	78	34.7	24.176	91	56	4	43	120	566	656
AMIL	XP_029181043.1	0.20	12	78	34.7	32.727	55	30	2	40	88	8	61
AMIL	XP_029200487.1	0.20	13	78	34.7	29.091	55	34	3	41	91	710	763
AMIL	XP_029198844.1	0.22	13	77	34.3	30.357	56	34	2	40	91	18	72
AMIL	XP_029198843.1	0.22	13	77	34.3	30.357	56	34	2	40	91	18	72
AMIL	XP_029198601.1	0.25	18	77	34.3	31.646	79	46	3	30	101	1	78
AMIL	XP_029198600.1	0.25	18	77	34.3	31.646	79	46	3	30	101	1	78
AMIL	XP_029185593.1	0.26	8	76	33.9	39.394	33	19	1	48	80	28	59
AMIL	XP_029201171.1	0.27	12	77	34.3	32.727	55	30	2	40	88	8	61
AMIL	XP_029208512.1	0.28	12	75	33.5	34.545	55	29	2	40	88	8	61
AMIL	XP_029209142.1	0.28	18	76	33.9	30.667	75	47	3	20	91	287	359
AMIL	XP_029209608.1	0.29	21	75	33.5	25.581	86	63	1	32	117	2	86
AMIL	XP_029209607.1	0.29	21	75	33.5	25.581	86	63	1	32	117	2	86
AMIL	XP_029209606.1	0.29	21	75	33.5	25.581	86	63	1	32	117	2	86
AMIL	XP_029198026.1	0.31	11	76	33.9	32.558	43	28	1	45	87	564	605
AMIL	XP_029198025.1	0.31	11	76	33.9	32.558	43	28	1	45	87	564	605
AMIL	XP_029198024.1	0.31	11	76	33.9	32.558	43	28	1	45	87	564	605
AMIL	XP_029198023.1	0.31	11	76	33.9	32.558	43	28	1	45	87	564	605
AMIL	XP_029198022.1	0.31	11	76	33.9	32.558	43	28	1	45	87	564	605
AMIL	XP_029201188.1	0.31	13	76	33.9	31.034	58	33	2	40	91	8	64
AMIL	XP_029209148.1	0.32	18	75	33.5	30.667	75	47	3	20	91	280	352
AMIL	XP_029185603.1	0.33	10	76	33.9	35.897	39	25	0	35	73	195	233
AMIL	XP_029185602.1	0.33	10	76	33.9	35.897	39	25	0	35	73	195	233
AMIL	XP_029185601.1	0.33	10	76	33.9	35.897	39	25	0	35	73	195	233
AMIL	XP_029212127.1	0.34	17	75	33.5	27.397	73	48	3	23	91	302	373
AMIL	XP_029198021.1	0.34	11	76	33.9	32.558	43	28	1	45	87	587	628
AMIL	XP_029189345.1	0.34	13	75	33.5	41.176	51	29	1	44	94	36	85
AMIL	XP_029208955.1	0.38	12	75	33.5	32.727	55	30	2	40	88	8	61
AMIL	XP_029185215.1	0.43	11	74	33.1	31.915	47	29	2	48	92	379	424
AMIL	XP_029185213.1	0.43	11	74	33.1	31.915	47	29	2	48	92	385	430
AMIL	XP_029185245.1	0.47	20	74	33.1	33.333	81	50	4	23	103	22	98
AMIL	XP_029184589.1	0.48	13	75	33.5	31.481	54	37	0	38	91	5	58
AMIL	XP_029211403.1	0.50	10	73	32.7	36.585	41	23	2	48	88	165	202
AMIL	XP_029204514.1	0.50	14	74	33.1	27.419	62	40	3	34	91	2	62
AMIL	XP_029200273.1	0.51	12	74	33.1	31.579	57	30	2	40	88	12	67
AMIL	XP_029198199.1	0.51	12	74	33.1	32.727	55	30	2	40	88	564	617
AMIL	XP_029185594.1	0.54	8	73	32.7	39.394	33	19	1	48	80	28	59
AMIL	XP_029186489.1	0.56	18	74	33.1	30.864	81	47	5	14	87	25	103
AMIL	XP_029198200.1	0.59	12	74	33.1	32.727	55	30	2	40	88	530	583
AMIL	XP_029198201.1	0.62	12	74	33.1	32.727	55	30	2	40	88	522	575
AMIL	XP_029209136.1	0.63	18	73	32.7	30.667	75	47	3	20	91	336	408
AMIL	XP_029189390.1	0.65	15	73	32.7	34.426	61	38	2	41	100	20	79
AMIL	XP_029193062.1	0.66	12	73	32.7	38.000	50	20	3	42	89	960	1000
AMIL	XP_029204727.1	0.68	14	73	32.7	29.688	64	38	3	46	103	10	72
AMIL	XP_029204726.1	0.68	14	73	32.7	29.688	64	38	3	46	103	10	72
AMIL	XP_029204725.1	0.68	14	73	32.7	29.688	64	38	3	46	103	10	72
AMIL	XP_029204723.1	0.68	14	73	32.7	29.688	64	38	3	46	103	10	72
AMIL	XP_029182035.1	0.75	19	72	32.3	31.646	79	40	4	42	119	12	77
AMIL	XP_029184924.1	0.84	8	72	32.3	37.500	32	20	0	47	78	19	50
AMIL	XP_029179755.1	0.87	14	72	32.3	27.419	62	40	3	34	91	2	62
AMIL	XP_029182036.1	0.88	19	71	32.0	31.646	79	40	4	42	119	12	77
AMIL	XP_029184923.1	0.89	8	72	32.3	37.500	32	20	0	47	78	61	92
AMIL	XP_029193511.1	0.93	14	72	32.3	32.143	56	33	3	42	97	867	917
AMIL	XP_029182037.1	0.99	19	71	32.0	32.468	77	38	4	44	119	14	77
AMIL	XP_029186120.1	1.1	18	72	32.3	27.027	74	45	2	47	120	388	452
AMIL	XP_029183159.1	1.2	14	71	32.0	30.909	55	36	1	39	93	1060	1112
AMIL	XP_029184917.1	1.2	9	71	32.0	34.211	38	25	0	47	84	19	56
AMIL	XP_029184916.1	1.2	9	71	32.0	34.211	38	25	0	47	84	19	56
AMIL	XP_029207099.1	1.2	12	71	32.0	29.787	47	33	0	48	94	706	752
AMIL	XP_029207098.1	1.2	12	71	32.0	29.787	47	33	0	48	94	706	752
AMIL	XP_029207097.1	1.2	12	71	32.0	29.787	47	33	0	48	94	706	752
AMIL	XP_029207096.1	1.2	12	71	32.0	29.787	47	33	0	48	94	706	752
AMIL	XP_029202182.1	1.2	10	71	32.0	40.476	42	19	2	48	87	111	148
AMIL	XP_029202181.1	1.2	10	71	32.0	40.476	42	19	2	48	87	111	148
AMIL	XP_029208972.1	1.3	12	71	32.0	35.849	53	27	2	45	91	12	63
AMIL	XP_029208971.1	1.3	12	71	32.0	35.849	53	27	2	45	91	12	63
AMIL	XP_029203536.1	1.6	23	70	31.6	25.000	92	69	0	186	277	1242	1333
AMIL	XP_029203527.1	1.6	23	70	31.6	25.000	92	69	0	186	277	1242	1333
AMIL	XP_029203520.1	1.6	23	70	31.6	25.000	92	69	0	186	277	1242	1333
AMIL	XP_029203512.1	1.6	23	70	31.6	25.000	92	69	0	186	277	1242	1333
AMIL	XP_029203506.1	1.6	23	70	31.6	25.000	92	69	0	186	277	1242	1333
AMIL	XP_029203501.1	1.6	23	70	31.6	25.000	92	69	0	186	277	1242	1333
AMIL	XP_029203495.1	1.6	23	70	31.6	25.000	92	69	0	186	277	1242	1333
AMIL	XP_029203489.1	1.6	23	70	31.6	25.000	92	69	0	186	277	1242	1333
AMIL	XP_029203481.1	1.6	23	70	31.6	25.000	92	69	0	186	277	1242	1333
AMIL	XP_029203477.1	1.6	23	70	31.6	25.000	92	69	0	186	277	1242	1333
AMIL	XP_029203473.1	1.6	23	70	31.6	25.000	92	69	0	186	277	1242	1333
AMIL	XP_029203736.1	1.7	11	69	31.2	38.636	44	23	2	30	73	1	40
AMIL	XP_029208968.1	1.7	15	70	31.6	30.882	68	36	3	30	91	1	63
AMIL	XP_029198475.1	1.7	11	70	31.6	32.609	46	30	1	42	87	14	58
AMIL	XP_029204522.1	1.8	16	70	31.6	27.536	69	42	4	28	92	8	72
AMIL	XP_029209292.1	1.8	20	70	31.6	21.687	83	63	2	13	94	701	782
AMIL	XP_029207095.1	1.9	14	70	31.6	30.909	55	36	1	39	93	2284	2336
AMIL	XP_029185684.1	1.9	15	69	31.2	26.154	65	43	2	47	106	238	302
AMIL	XP_029209242.1	1.9	20	69	31.2	21.687	83	63	2	13	94	720	801
AMIL	XP_029209184.1	2.0	20	69	31.2	21.687	83	63	2	13	94	725	806
AMIL	XP_029209129.1	2.0	20	69	31.2	21.687	83	63	2	13	94	725	806
AMIL	XP_029204525.1	2.1	14	69	31.2	25.806	62	41	3	34	91	3	63
AMIL	XP_029204492.1	2.1	14	69	31.2	27.419	62	40	3	34	91	2	62
AMIL	XP_029207543.1	2.2	9	69	31.2	40.541	37	20	1	37	73	24	58
AMIL	XP_029209057.1	2.3	20	69	31.2	21.687	83	63	2	13	94	740	821
AMIL	XP_029208970.1	2.3	12	69	31.2	30.909	55	31	2	40	88	8	61
AMIL	XP_029204493.1	2.6	14	68	30.8	25.806	62	41	3	34	91	2	62
AMIL	XP_029193650.1	2.9	11	68	30.8	31.818	44	29	1	48	91	27	69
AMIL	XP_029200546.1	2.9	11	68	30.8	36.957	46	27	2	48	93	315	358
AMIL	XP_029194581.1	3.1	14	68	30.8	27.419	62	40	3	34	91	2	62
AMIL	XP_029186490.1	3.3	15	67	30.4	31.818	66	32	4	64	123	38	96
AMIL	XP_029179754.1	3.7	14	67	30.4	25.806	62	41	3	34	91	2	62
AMIL	XP_029194580.1	4.0	14	67	30.4	27.419	62	40	3	34	91	2	62
AMIL	XP_029204701.1	4.0	17	67	30.4	28.378	74	45	4	36	103	4	75
AMIL	XP_029204700.1	4.0	17	67	30.4	28.378	74	45	4	36	103	4	75
AMIL	XP_029204699.1	4.0	17	67	30.4	28.378	74	45	4	36	103	4	75
AMIL	XP_029204703.1	4.1	17	66	30.0	28.378	74	45	4	36	103	4	75
AMIL	XP_029204702.1	4.1	17	66	30.0	28.378	74	45	4	36	103	4	75
AMIL	XP_029204495.1	4.1	14	67	30.4	22.581	62	43	2	34	91	2	62
AMIL	XP_029189620.1	4.5	13	67	30.4	22.667	75	33	2	42	92	1	74
AMIL	XP_029196826.1	4.5	9	64	29.3	36.842	38	22	1	54	89	27	64
AMIL	XP_029201266.1	4.7	17	66	30.0	25.000	80	46	4	42	110	10	86
AMIL	XP_029205293.1	5.1	10	66	30.0	35.000	40	22	1	53	92	920	955
AMIL	XP_029200272.1	5.7	12	65	29.6	28.571	56	31	2	40	87	12	66
AMIL	XP_029213679.1	6.1	10	65	29.6	40.000	40	22	2	46	85	16	53
AMIL	XP_029210860.1	6.6	14	65	29.6	25.806	62	41	3	34	91	2	62
AMIL	XP_029186568.1	6.6	23	65	29.6	28.431	102	53	5	30	123	92	181
AMIL	XP_029214051.1	6.8	11	65	29.6	29.412	51	29	2	45	88	6	56
AMIL	XP_029186567.1	7.0	23	65	29.6	28.431	102	53	5	30	123	92	181
AMIL	XP_029188302.1	7.2	12	65	29.6	26.316	57	32	2	41	88	10	65
AMIL	XP_029206858.1	7.9	20	64	29.3	25.882	85	56	2	269	349	302	383
AMIL	XP_029189366.1	7.9	11	64	29.3	34.783	46	29	1	41	86	14	58
AMIL	XP_029190600.1	8.8	17	64	29.3	28.378	74	41	4	30	99	411	476
AMIL	XP_029204520.1	9.2	14	64	29.3	28.571	63	34	4	34	89	2	60
AMIL	XP_029204521.1	9.8	14	64	29.3	29.231	65	35	4	34	91	2	62
