SPAR	m.213393	7.06e-15	25	176	72.4	47.692	65	34	0	17	81	14	78
SPAR	m.31155	3.69e-07	23	118	50.1	40.909	66	33	2	19	80	47	110
SPAR	m.198197	8.91e-04	14	92	40.0	44.737	38	20	1	44	81	34	70
SPAR	m.174656	0.002	10	89	38.9	44.444	27	15	0	51	77	1178	1204
SPAR	m.223854	0.003	13	84	37.0	41.176	34	20	0	43	76	82	115
SPAR	m.33344	0.007	47	84	37.0	29.070	86	39	3	175	259	253	317
SPAR	m.33344	0.017	47	81	35.8	34.211	38	25	0	43	80	96	133
SPAR	m.180610	0.021	19	78	34.7	34.615	52	32	1	32	81	77	128
SPAR	m.61902	0.030	13	80	35.4	36.364	33	21	0	51	83	1342	1374
SPAR	m.169580	0.050	15	78	34.7	32.500	40	26	1	38	76	23	62
SPAR	m.48553	0.069	11	76	33.9	42.857	28	16	0	49	76	236	263
SPAR	m.21557	0.096	12	75	33.5	38.710	31	19	0	51	81	39	69
SPAR	m.8353	0.100	15	75	33.5	35.897	39	24	1	38	76	5	42
SPAR	m.181218	0.15	13	73	32.7	37.143	35	19	2	51	83	4	37
SPAR	m.2511	0.23	18	68	30.8	27.660	47	34	0	34	80	15	61
SPAR	m.65858	0.24	10	72	32.3	50.000	26	13	0	96	121	156	181
SPAR	m.249103	0.85	12	64	29.3	43.750	32	17	1	45	76	23	53
SPAR	m.219830	1.2	16	66	30.0	37.209	43	26	1	42	83	460	502
SPAR	m.134419	1.3	36	65	29.6	29.167	96	55	3	165	260	94	176
SPAR	m.120151	1.7	10	65	29.6	33.333	27	18	0	49	75	198	224
SPAR	m.134392	1.7	29	63	28.9	29.870	77	42	2	184	260	37	101
SPAR	m.195549	1.7	10	65	29.6	37.037	27	17	0	51	77	23	49
SPAR	m.47511	3.1	12	62	28.5	25.806	31	23	0	49	79	163	193
SPAR	m.215011	4.0	14	62	28.5	35.135	37	20	1	48	84	232	264
SPAR	m.171436	4.0	22	62	28.5	27.273	66	36	3	97	154	1139	1200
SPAR	m.211557	4.5	20	61	28.1	30.000	60	36	1	53	106	262	321
SPAR	m.196083	5.9	11	60	27.7	35.484	31	17	1	51	78	262	292
SPAR	m.198553	7.7	22	60	27.7	30.000	60	40	2	14	72	596	654
SPAR	m.203376	8.1	21	60	27.7	29.412	68	34	2	51	106	292	357
SPAR	m.109654	9.0	23	59	27.3	25.758	66	43	1	86	145	340	405
