ASPE	m.112992	7.40e-40	40	358	142	46.763	139	70	2	19	153	10	148
ASPE	m.40543	1.80e-31	75	302	120	33.074	257	151	6	19	271	30	269
ASPE	m.459337	5.92e-09	86	135	56.6	22.408	299	142	10	43	331	80	298
ASPE	m.10699	1.41e-06	24	118	50.1	40.244	82	45	4	45	125	16	94
ASPE	m.214882	1.21e-05	15	109	46.6	36.000	50	32	0	49	98	202	251
ASPE	m.214860	1.62e-05	15	108	46.2	36.000	50	32	0	49	98	202	251
ASPE	m.96283	1.70e-05	20	104	44.7	34.286	70	38	3	41	108	83	146
ASPE	m.214903	1.92e-05	15	108	46.2	36.000	50	32	0	49	98	202	251
ASPE	m.103882	2.63e-05	19	107	45.8	36.508	63	37	3	51	113	38	97
ASPE	m.54068	5.19e-05	22	104	44.7	31.325	83	47	3	42	115	64	145
ASPE	m.8223	5.27e-05	27	104	44.7	35.870	92	52	5	23	113	47	132
ASPE	m.103860	5.35e-05	35	103	44.3	31.111	135	68	7	51	166	38	166
ASPE	m.184260	0.001	33	92	40.0	27.679	112	68	4	22	131	40	140
ASPE	m.118563	0.001	23	93	40.4	30.488	82	50	2	43	118	176	256
ASPE	m.112738	0.002	12	91	39.7	42.222	45	22	2	51	91	192	236
ASPE	m.471588	0.003	16	90	39.3	32.727	55	37	0	47	101	13	67
ASPE	m.88313	0.004	13	89	38.9	41.667	48	24	2	51	95	365	411
ASPE	m.451046	0.005	19	89	38.9	32.812	64	41	2	49	112	937	998
ASPE	m.72310	0.006	29	87	38.1	26.471	102	59	4	57	155	52	140
ASPE	m.89460	0.008	18	87	38.1	27.419	62	42	2	38	96	40	101
ASPE	m.446927	0.009	15	87	38.1	34.615	52	33	1	43	94	15	65
ASPE	m.459041	0.011	20	86	37.7	28.986	69	48	1	46	113	234	302
ASPE	m.44201	0.015	13	85	37.4	37.037	54	24	3	51	94	1129	1182
ASPE	m.15003	0.024	15	82	36.2	35.294	51	31	2	51	101	317	365
ASPE	m.24981	0.025	18	82	36.2	28.378	74	36	3	47	106	182	252
ASPE	m.85149	0.047	14	80	35.4	31.250	48	32	1	51	98	201	247
ASPE	m.76936	0.065	15	79	35.0	32.143	56	33	2	51	102	178	232
ASPE	m.118559	0.070	10	76	33.9	41.176	34	20	0	43	76	88	121
ASPE	m.186789	0.093	13	79	35.0	28.261	46	31	1	49	92	1277	1322
ASPE	m.444232	0.12	13	77	34.3	38.636	44	26	1	51	94	392	434
ASPE	m.462877	0.14	15	77	34.3	29.412	51	35	1	51	101	679	728
ASPE	m.329583	0.20	19	76	33.9	31.818	66	39	3	38	102	61	121
ASPE	m.256440	0.21	22	75	33.5	29.487	78	47	3	51	123	100	174
ASPE	m.460277	0.24	13	74	33.1	44.444	45	21	3	51	94	284	325
ASPE	m.7313	0.28	15	74	33.1	37.037	54	29	3	51	101	289	340
ASPE	m.74109	0.30	15	74	33.1	29.630	54	36	1	51	102	326	379
ASPE	m.58554	0.39	38	72	32.3	22.481	129	96	3	51	176	130	257
ASPE	m.114754	0.40	20	72	32.3	26.087	69	49	1	28	94	191	259
ASPE	m.84327	0.50	20	72	32.3	29.870	77	43	5	28	94	48	123
ASPE	m.453469	0.52	13	71	32.0	36.364	44	26	1	51	92	231	274
ASPE	m.457655	0.54	14	72	32.3	26.087	46	33	1	45	90	474	518
ASPE	m.23908	0.66	15	71	32.0	28.846	52	36	1	44	94	8	59
ASPE	m.87217	0.69	13	71	32.0	29.545	44	30	1	51	94	50	92
ASPE	m.169222	0.76	13	70	31.6	29.167	48	29	2	51	94	113	159
ASPE	m.109852	0.80	15	70	31.6	35.849	53	32	2	47	98	7	58
ASPE	m.50306	1.1	21	69	31.2	26.374	91	45	2	230	298	535	625
ASPE	m.252833	1.6	18	68	30.8	29.167	72	40	3	36	96	130	201
ASPE	m.439295	1.9	13	67	30.4	34.043	47	28	2	51	94	605	651
ASPE	m.110338	2.1	34	67	30.4	26.050	119	81	4	169	282	113	229
ASPE	m.444891	2.2	14	66	30.0	25.000	48	36	0	51	98	193	240
ASPE	m.449639	3.3	16	65	29.6	25.862	58	39	2	50	104	348	404
ASPE	m.74082	3.7	5	65	29.6	68.750	16	5	0	102	117	298	313
ASPE	m.326206	4.5	15	64	29.3	29.825	57	35	2	43	94	252	308
ASPE	m.165870	4.9	25	64	29.3	28.090	89	57	2	249	332	256	342
ASPE	m.13034	5.6	13	63	28.9	29.787	47	29	1	49	91	71	117
ASPE	m.458177	5.9	14	63	28.9	27.586	58	31	2	48	94	128	185
ASPE	m.453412	6.2	13	62	28.5	37.778	45	23	3	49	90	255	297
ASPE	m.13020	7.1	13	62	28.5	29.787	47	29	1	49	91	71	117
ASPE	m.450884	7.2	14	62	28.5	30.435	46	32	0	207	252	13	58
ASPE	m.199401	9.5	30	61	28.1	23.000	100	66	4	203	302	70	158
