AMIL	XP_029180700.1	2.40e-135	96	997	388	61.562	333	112	7	11	333	8	334
AMIL	XP_029187931.1	1.62e-08	21	135	56.6	40.000	75	37	3	45	113	15	87
AMIL	XP_029198740.1	7.76e-08	86	126	53.1	20.205	292	167	8	43	332	8	235
AMIL	XP_029198735.1	9.38e-08	28	125	52.8	29.167	96	64	2	34	126	2	96
AMIL	XP_029200116.1	9.73e-08	88	125	52.8	23.510	302	162	12	37	331	9	248
AMIL	XP_029200124.1	1.10e-07	88	125	52.8	23.510	302	162	12	37	331	9	248
AMIL	XP_029200132.1	1.93e-07	69	123	52.0	25.210	238	132	8	37	269	9	205
AMIL	XP_029187604.1	3.83e-07	43	123	52.0	27.517	149	98	6	25	170	22	163
AMIL	XP_029187998.1	4.05e-07	28	123	52.0	28.182	110	63	4	45	139	22	130
AMIL	XP_029187906.1	6.60e-07	40	120	50.8	26.087	138	89	3	45	179	40	167
AMIL	XP_029187905.1	6.70e-07	40	120	50.8	26.087	138	89	3	45	179	42	169
AMIL	XP_029187603.1	7.19e-07	43	121	51.2	26.667	150	100	6	25	170	22	165
AMIL	XP_029187602.1	7.19e-07	43	121	51.2	26.667	150	100	6	25	170	22	165
AMIL	XP_029187882.1	9.59e-07	24	119	50.4	30.769	91	52	3	45	125	11	100
AMIL	XP_029187880.1	1.24e-06	24	119	50.4	30.435	92	52	3	45	125	11	101
AMIL	XP_029187879.1	1.24e-06	24	119	50.4	30.435	92	52	3	45	125	11	101
AMIL	XP_029191050.1	6.29e-06	13	113	48.1	43.182	44	25	0	51	94	67	110
AMIL	XP_029191049.1	8.50e-06	13	112	47.8	43.182	44	25	0	51	94	67	110
AMIL	XP_029202834.1	1.08e-05	22	112	47.8	37.333	75	43	4	45	119	369	439
AMIL	XP_029191614.1	1.58e-05	15	110	47.0	39.216	51	30	1	51	101	395	444
AMIL	XP_029199167.1	2.49e-05	18	109	46.6	34.375	64	39	2	39	100	183	245
AMIL	XP_029212359.1	4.69e-05	16	105	45.1	40.351	57	29	2	42	94	94	149
AMIL	XP_029181634.1	8.73e-05	18	104	44.7	39.062	64	34	2	45	103	22	85
AMIL	XP_029204468.1	8.77e-05	20	104	44.7	35.821	67	39	4	48	113	15	78
AMIL	XP_029194168.1	9.02e-05	21	104	44.7	34.211	76	35	4	45	114	11	77
AMIL	XP_029185230.1	9.33e-05	24	104	44.7	34.568	81	49	4	26	106	33	109
AMIL	XP_029212837.1	9.44e-05	14	103	44.3	39.623	53	25	2	48	94	276	327
AMIL	XP_029186858.1	9.88e-05	19	103	44.3	35.385	65	39	2	39	103	34	95
AMIL	XP_029186857.1	1.48e-04	29	102	43.9	30.612	98	57	3	39	136	34	120
AMIL	XP_029184434.1	1.53e-04	14	102	43.9	36.170	47	29	1	48	94	58	103
AMIL	XP_029191051.1	1.59e-04	12	102	43.9	45.000	40	20	1	51	90	20	57
AMIL	XP_029186971.1	1.64e-04	18	101	43.5	35.938	64	36	2	45	103	24	87
AMIL	XP_029209560.1	1.65e-04	24	100	43.1	28.235	85	57	2	44	125	11	94
AMIL	XP_029209559.1	1.65e-04	24	100	43.1	28.235	85	57	2	44	125	11	94
AMIL	XP_029192762.1	1.85e-04	13	102	43.9	42.857	42	22	2	51	92	596	635
AMIL	XP_029210477.1	1.86e-04	20	102	43.9	36.111	72	35	4	43	109	6	71
AMIL	XP_029186972.1	2.01e-04	20	101	43.5	35.211	71	41	2	45	110	24	94
AMIL	XP_029185102.1	2.86e-04	19	100	43.1	34.375	64	40	2	26	89	33	94
AMIL	XP_029207268.1	2.93e-04	32	99	42.7	28.000	125	73	5	48	156	25	148
AMIL	XP_029185101.1	3.47e-04	18	99	42.7	38.710	62	35	3	45	106	58	116
AMIL	XP_029198845.1	4.29e-04	22	99	42.7	31.646	79	43	4	44	117	9	81
AMIL	XP_029192766.1	4.67e-04	23	97	42.0	34.177	79	46	4	51	128	133	206
AMIL	XP_029213693.1	4.87e-04	15	98	42.4	38.462	52	30	1	43	92	18	69
AMIL	XP_029200104.1	4.99e-04	21	97	42.0	32.000	75	47	2	45	115	17	91
AMIL	XP_029192768.1	5.19e-04	23	97	42.0	34.177	79	46	4	51	128	129	202
AMIL	XP_029185105.1	5.26e-04	13	97	42.0	40.000	45	26	1	45	89	28	71
AMIL	XP_029192769.1	5.33e-04	23	96	41.6	34.177	79	46	4	51	128	129	202
AMIL	XP_029192765.1	5.38e-04	23	96	41.6	34.177	79	46	4	51	128	133	206
AMIL	XP_029190501.1	5.79e-04	17	98	42.4	37.097	62	34	4	49	106	305	365
AMIL	XP_029192767.1	5.99e-04	23	96	41.6	34.177	79	46	4	51	128	129	202
AMIL	XP_029190502.1	6.30e-04	17	98	42.4	37.097	62	34	4	49	106	305	365
AMIL	XP_029185100.1	7.05e-04	18	97	42.0	38.710	62	35	3	45	106	58	116
AMIL	XP_029207267.1	7.52e-04	32	96	41.6	28.000	125	73	5	48	156	25	148
AMIL	XP_029179724.1	7.60e-04	20	97	42.0	36.111	72	35	4	43	109	6	71
AMIL	XP_029208524.1	7.68e-04	22	97	42.0	32.500	80	38	4	43	116	8	77
AMIL	XP_029190817.1	0.001	13	96	41.6	38.095	42	25	1	49	90	846	886
AMIL	XP_029202008.1	0.001	17	95	41.2	36.842	57	34	2	48	103	25	80
AMIL	XP_029206881.1	0.001	21	95	41.2	36.232	69	42	2	43	111	80	146
AMIL	XP_029196953.1	0.001	23	95	41.2	31.169	77	51	2	43	119	30	104
AMIL	XP_029187622.1	0.001	22	95	41.2	31.169	77	43	3	35	109	6	74
AMIL	XP_029206883.1	0.001	22	95	41.2	32.143	84	40	5	43	117	33	108
AMIL	XP_029206884.1	0.001	22	95	41.2	32.143	84	40	5	43	117	33	108
AMIL	XP_029206886.1	0.001	15	95	41.2	41.071	56	24	3	43	91	8	61
AMIL	XP_029206882.1	0.001	22	95	41.2	32.143	84	40	5	43	117	33	108
AMIL	XP_029179645.1	0.001	17	95	41.2	32.759	58	39	0	43	100	239	296
AMIL	XP_029212236.1	0.001	20	94	40.8	26.471	68	49	1	49	116	713	779
AMIL	XP_029212237.1	0.001	20	94	40.8	26.471	68	49	1	49	116	714	780
AMIL	XP_029212235.1	0.001	20	94	40.8	26.471	68	49	1	49	116	714	780
AMIL	XP_029212234.1	0.001	20	94	40.8	26.471	68	49	1	49	116	714	780
AMIL	XP_029212233.1	0.001	20	94	40.8	26.471	68	49	1	49	116	714	780
AMIL	XP_029212232.1	0.001	20	94	40.8	26.471	68	49	1	49	116	714	780
AMIL	XP_029202009.1	0.002	17	93	40.4	34.426	61	34	2	48	103	25	84
AMIL	XP_029190054.1	0.002	15	93	40.4	38.182	55	29	2	44	94	7	60
AMIL	XP_029181048.1	0.002	22	93	40.4	34.568	81	35	5	43	116	8	77
AMIL	XP_029181048.1	0.020	22	85	37.4	30.769	78	38	4	45	116	742	809
AMIL	XP_029201174.1	0.003	15	93	40.4	36.364	55	28	2	43	91	619	672
AMIL	XP_029201173.1	0.003	15	93	40.4	36.364	55	28	2	43	91	619	672
AMIL	XP_029194206.1	0.003	14	92	40.0	42.553	47	25	2	48	94	397	441
AMIL	XP_029206887.1	0.003	20	91	39.7	35.821	67	41	2	43	109	8	72
AMIL	XP_029206020.1	0.003	14	92	40.0	35.417	48	30	1	45	91	6	53
AMIL	XP_029205978.1	0.003	13	90	39.3	36.364	44	27	1	49	91	10	53
AMIL	XP_029201169.1	0.003	15	92	40.0	36.364	55	28	2	43	91	8	61
AMIL	XP_029201170.1	0.003	15	92	40.0	36.364	55	28	2	43	91	8	61
AMIL	XP_029186973.1	0.003	20	91	39.7	35.211	71	41	2	45	110	22	92
AMIL	XP_029202007.1	0.003	17	91	39.7	34.426	61	34	2	48	103	25	84
AMIL	XP_029213933.1	0.003	21	90	39.3	28.571	77	48	3	47	117	7	82
AMIL	XP_029206019.1	0.004	20	91	39.7	30.000	70	39	3	24	91	55	116
AMIL	XP_029204684.1	0.004	14	88	38.5	36.170	47	28	2	49	94	17	62
AMIL	XP_029182177.1	0.004	21	90	39.3	30.667	75	38	4	43	111	8	74
AMIL	XP_029186064.1	0.005	12	90	39.3	41.860	43	22	2	51	91	1014	1055
AMIL	XP_029202167.1	0.005	13	90	39.3	44.444	45	22	2	49	91	14	57
AMIL	XP_029185245.1	0.007	24	89	38.9	33.333	81	50	4	26	106	22	98
AMIL	XP_029204217.1	0.007	14	88	38.5	35.417	48	29	1	48	93	20	67
AMIL	XP_029179723.1	0.008	20	88	38.5	34.722	72	36	4	43	109	6	71
AMIL	XP_029181042.1	0.008	15	88	38.5	34.545	55	29	2	43	91	8	61
AMIL	XP_029180933.1	0.008	23	85	37.4	29.487	78	51	3	36	113	9	82
AMIL	XP_029189343.1	0.008	14	88	38.5	37.500	48	30	0	51	98	27	74
AMIL	XP_029181046.1	0.009	15	88	38.5	34.545	55	29	2	43	91	8	61
AMIL	XP_029198179.1	0.009	15	88	38.5	34.545	55	29	2	43	91	8	61
AMIL	XP_029181045.1	0.009	15	88	38.5	34.545	55	29	2	43	91	8	61
AMIL	XP_029208536.1	0.010	15	87	38.1	34.545	55	29	2	43	91	8	61
AMIL	XP_029184062.1	0.010	22	87	38.1	32.051	78	48	3	43	117	5	80
AMIL	XP_029181044.1	0.010	20	87	38.1	30.137	73	37	3	43	109	8	72
AMIL	XP_029205194.1	0.011	13	86	37.7	40.909	44	24	2	51	94	243	284
AMIL	XP_029192763.1	0.011	13	87	38.1	37.255	51	26	2	48	92	14	64
AMIL	XP_029212127.1	0.011	33	87	38.1	27.586	116	69	5	19	130	296	400
AMIL	XP_029200840.1	0.011	10	87	38.1	47.059	34	17	1	43	76	43	75
AMIL	XP_029188156.1	0.012	11	86	37.7	39.474	38	23	0	51	88	18	55
AMIL	XP_029188154.1	0.012	11	86	37.7	39.474	38	23	0	51	88	18	55
AMIL	XP_029186066.1	0.012	12	87	38.1	38.095	42	23	2	51	90	1013	1053
AMIL	XP_029186065.1	0.012	12	87	38.1	38.095	42	23	2	51	90	1013	1053
AMIL	XP_029201831.1	0.013	13	87	38.1	45.652	46	23	2	48	91	1716	1761
AMIL	XP_029201830.1	0.013	13	87	38.1	45.652	46	23	2	48	91	1716	1761
AMIL	XP_029201833.1	0.013	13	87	38.1	45.652	46	23	2	48	91	1715	1760
AMIL	XP_029186974.1	0.013	15	86	37.7	34.545	55	31	1	45	94	24	78
AMIL	XP_029201829.1	0.013	13	87	38.1	45.652	46	23	2	48	91	1717	1762
AMIL	XP_029205202.1	0.013	13	85	37.4	40.909	44	24	2	51	94	216	257
AMIL	XP_029201832.1	0.014	13	87	38.1	45.652	46	23	2	48	91	1716	1761
AMIL	XP_029208528.1	0.015	15	86	37.7	34.545	55	29	2	43	91	8	61
AMIL	XP_029198227.1	0.015	22	86	37.7	33.766	77	48	3	43	117	8	83
AMIL	XP_029189387.1	0.015	16	86	37.7	35.849	53	33	1	49	101	12	63
AMIL	XP_029208526.1	0.017	15	86	37.7	34.545	55	29	2	43	91	8	61
AMIL	XP_029184864.1	0.018	15	85	37.4	30.612	49	33	1	48	96	90	137
AMIL	XP_029202169.1	0.020	16	85	37.4	35.714	56	33	2	38	91	4	58
AMIL	XP_029201171.1	0.021	22	85	37.4	30.488	82	44	4	43	117	8	83
AMIL	XP_029208525.1	0.021	10	85	37.4	47.059	34	17	1	43	76	8	40
AMIL	XP_029185593.1	0.021	18	84	37.0	30.645	62	40	2	51	110	28	88
AMIL	XP_029198209.1	0.023	15	84	37.0	34.545	55	29	2	43	91	8	61
AMIL	XP_029194778.1	0.024	14	84	37.0	36.170	47	27	2	50	96	899	942
AMIL	XP_029193018.1	0.025	16	85	37.4	35.185	54	33	1	42	95	2021	2072
AMIL	XP_029206879.1	0.026	15	84	37.0	32.727	55	30	2	43	91	8	61
AMIL	XP_029202165.1	0.029	15	84	37.0	35.714	56	27	3	41	92	10	60
AMIL	XP_029202164.1	0.029	15	84	37.0	35.714	56	27	3	41	92	10	60
AMIL	XP_029192761.1	0.030	14	84	37.0	33.333	54	30	2	45	92	30	83
AMIL	XP_029186067.1	0.030	12	84	37.0	40.476	42	22	2	51	90	987	1027
AMIL	XP_029193019.1	0.030	16	84	37.0	35.185	54	33	1	42	95	1990	2041
AMIL	XP_029208512.1	0.032	15	82	36.2	34.545	55	29	2	43	91	8	61
AMIL	XP_029189345.1	0.035	15	82	36.2	41.176	51	29	1	47	97	36	85
AMIL	XP_029181043.1	0.037	15	83	36.6	32.727	55	30	2	43	91	8	61
AMIL	XP_029208955.1	0.038	21	83	36.6	29.333	75	39	3	43	111	8	74
AMIL	XP_029198217.1	0.038	15	83	36.6	32.727	55	30	2	43	91	760	813
AMIL	XP_029194354.1	0.042	17	80	35.4	35.593	59	34	3	46	102	28	84
AMIL	XP_029209608.1	0.048	14	81	35.8	38.298	47	28	1	48	94	15	60
AMIL	XP_029209607.1	0.048	14	81	35.8	38.298	47	28	1	48	94	15	60
AMIL	XP_029209606.1	0.048	14	81	35.8	38.298	47	28	1	48	94	15	60
AMIL	XP_029206880.1	0.055	20	81	35.8	28.767	73	38	3	43	109	8	72
AMIL	XP_029212513.1	0.056	13	81	35.8	40.909	44	24	2	51	94	393	434
AMIL	XP_029185594.1	0.062	18	80	35.4	30.645	62	40	2	51	110	28	88
AMIL	XP_029198844.1	0.065	15	81	35.8	35.088	57	30	3	43	94	18	72
AMIL	XP_029198843.1	0.065	15	81	35.8	35.088	57	30	3	43	94	18	72
AMIL	XP_029201188.1	0.075	15	80	35.4	31.034	58	33	2	43	94	8	64
AMIL	XP_029188253.1	0.081	12	80	35.4	35.000	40	23	1	37	76	5	41
AMIL	XP_029189390.1	0.084	18	79	35.0	34.426	61	38	2	44	103	20	79
AMIL	XP_029213124.1	0.085	15	80	35.4	34.000	50	31	2	49	98	19	66
AMIL	XP_029207543.1	0.093	20	79	35.0	33.803	71	42	3	33	100	16	84
AMIL	XP_029188254.1	0.096	12	79	35.0	35.000	40	23	1	37	76	5	41
AMIL	XP_029207095.1	0.10	16	79	35.0	33.962	53	33	1	42	94	2284	2334
AMIL	XP_029183159.1	0.13	16	78	34.7	33.962	53	33	1	42	94	1060	1110
AMIL	XP_029193062.1	0.13	17	78	34.7	37.931	58	24	4	45	100	960	1007
AMIL	XP_029200273.1	0.13	15	78	34.7	31.579	57	30	2	43	91	12	67
AMIL	XP_029184917.1	0.14	11	78	34.7	34.211	38	25	0	50	87	19	56
AMIL	XP_029184916.1	0.14	11	78	34.7	34.211	38	25	0	50	87	19	56
AMIL	XP_029204514.1	0.15	18	78	34.7	29.688	64	38	4	36	94	1	62
AMIL	XP_029183068.1	0.15	17	78	34.7	36.207	58	30	2	43	100	789	839
AMIL	XP_029209864.1	0.15	18	77	34.3	35.938	64	38	2	40	101	7	69
AMIL	XP_029200487.1	0.15	15	78	34.7	32.143	56	31	4	44	94	710	763
AMIL	XP_029196963.1	0.16	13	77	34.3	35.714	42	25	2	49	90	269	308
AMIL	XP_029183066.1	0.18	17	77	34.3	36.207	58	30	2	43	100	989	1039
AMIL	XP_029183067.1	0.18	17	77	34.3	36.207	58	30	2	43	100	989	1039
AMIL	XP_029208972.1	0.19	14	77	34.3	33.962	53	28	2	48	94	12	63
AMIL	XP_029208971.1	0.19	14	77	34.3	33.962	53	28	2	48	94	12	63
AMIL	XP_029184376.1	0.19	12	77	34.3	34.783	46	25	2	48	88	568	613
AMIL	XP_029204727.1	0.20	17	76	33.9	29.688	64	38	3	49	106	10	72
AMIL	XP_029204726.1	0.20	17	76	33.9	29.688	64	38	3	49	106	10	72
AMIL	XP_029204725.1	0.20	17	76	33.9	29.688	64	38	3	49	106	10	72
AMIL	XP_029204723.1	0.20	17	76	33.9	29.688	64	38	3	49	106	10	72
AMIL	XP_029184923.1	0.21	11	76	33.9	34.211	38	25	0	50	87	61	98
AMIL	XP_029198026.1	0.22	13	76	33.9	32.558	43	28	1	48	90	564	605
AMIL	XP_029198025.1	0.22	13	76	33.9	32.558	43	28	1	48	90	564	605
AMIL	XP_029198024.1	0.22	13	76	33.9	32.558	43	28	1	48	90	564	605
AMIL	XP_029198023.1	0.22	13	76	33.9	32.558	43	28	1	48	90	564	605
AMIL	XP_029198022.1	0.22	13	76	33.9	32.558	43	28	1	48	90	564	605
AMIL	XP_029184924.1	0.22	11	76	33.9	34.211	38	25	0	50	87	19	56
AMIL	XP_029198021.1	0.22	13	76	33.9	32.558	43	28	1	48	90	587	628
AMIL	XP_029179755.1	0.22	15	76	33.9	32.143	56	31	4	44	94	9	62
AMIL	XP_029208968.1	0.23	14	76	33.9	33.962	53	28	2	48	94	12	63
AMIL	XP_029185684.1	0.26	15	75	33.5	27.778	54	37	1	50	101	238	291
AMIL	XP_029208970.1	0.34	15	75	33.5	30.909	55	31	2	43	91	8	61
AMIL	XP_029203736.1	0.34	22	74	33.1	32.143	84	40	5	43	117	8	83
AMIL	XP_029193511.1	0.36	17	75	33.5	32.143	56	33	3	45	100	867	917
AMIL	XP_029198199.1	0.38	15	74	33.1	32.727	55	30	2	43	91	564	617
AMIL	XP_029214051.1	0.39	18	74	33.1	28.986	69	37	3	48	109	6	69
AMIL	XP_029198200.1	0.40	15	74	33.1	32.727	55	30	2	43	91	530	583
AMIL	XP_029204525.1	0.40	15	74	33.1	30.357	56	32	4	44	94	10	63
AMIL	XP_029198201.1	0.41	15	74	33.1	32.727	55	30	2	43	91	522	575
AMIL	XP_029184589.1	0.48	16	74	33.1	31.481	54	37	0	41	94	5	58
AMIL	XP_029185603.1	0.49	12	74	33.1	35.897	39	25	0	38	76	195	233
AMIL	XP_029185602.1	0.49	12	74	33.1	35.897	39	25	0	38	76	195	233
AMIL	XP_029185601.1	0.49	12	74	33.1	35.897	39	25	0	38	76	195	233
AMIL	XP_029204493.1	0.49	18	73	32.7	28.125	64	39	4	36	94	1	62
AMIL	XP_029189366.1	0.53	14	73	32.7	34.783	46	29	1	44	89	14	58
AMIL	XP_029204492.1	0.54	18	73	32.7	29.688	64	38	4	36	94	1	62
AMIL	XP_029198601.1	0.59	18	73	32.7	32.353	68	38	3	44	104	12	78
AMIL	XP_029198600.1	0.59	18	73	32.7	32.353	68	38	3	44	104	12	78
AMIL	XP_029209142.1	0.60	21	72	32.3	30.667	75	47	3	23	94	287	359
AMIL	XP_029209148.1	0.63	21	72	32.3	30.667	75	47	3	23	94	280	352
AMIL	XP_029194581.1	0.66	15	72	32.3	32.143	56	31	4	44	94	9	62
AMIL	XP_029196826.1	0.70	11	70	31.6	37.500	40	23	1	57	94	27	66
AMIL	XP_029208814.1	0.72	17	71	32.0	32.143	56	33	1	45	100	51	101
AMIL	XP_029211403.1	0.75	12	71	32.0	36.585	41	23	2	51	91	165	202
AMIL	XP_029179754.1	0.82	15	72	32.3	30.357	56	32	4	44	94	9	62
AMIL	XP_029194580.1	0.82	18	72	32.3	29.688	64	38	4	36	94	1	62
AMIL	XP_029207099.1	0.82	14	72	32.3	27.660	47	34	0	51	97	706	752
AMIL	XP_029207098.1	0.82	14	72	32.3	27.660	47	34	0	51	97	706	752
AMIL	XP_029207097.1	0.82	14	72	32.3	27.660	47	34	0	51	97	706	752
AMIL	XP_029207096.1	0.82	14	72	32.3	27.660	47	34	0	51	97	706	752
AMIL	XP_029193650.1	0.86	13	71	32.0	31.818	44	29	1	51	94	27	69
AMIL	XP_029209136.1	0.88	21	71	32.0	30.667	75	47	3	23	94	336	408
AMIL	XP_029204522.1	0.90	15	71	32.0	29.825	57	33	4	44	95	18	72
AMIL	XP_029185213.1	0.96	13	71	32.0	34.043	47	28	2	51	95	385	430
AMIL	XP_029185215.1	0.97	13	71	32.0	34.043	47	28	2	51	95	379	424
AMIL	XP_029202182.1	1.1	8	71	32.0	46.429	28	13	1	51	76	111	138
AMIL	XP_029202181.1	1.1	8	71	32.0	46.429	28	13	1	51	76	111	138
AMIL	XP_029210860.1	1.1	18	70	31.6	28.125	64	39	4	36	94	1	62
AMIL	XP_029186120.1	1.1	16	71	32.0	29.091	55	38	1	50	104	388	441
AMIL	XP_029209242.1	1.2	15	70	31.6	30.000	50	33	2	49	97	753	801
AMIL	XP_029209184.1	1.2	15	70	31.6	30.000	50	33	2	49	97	758	806
AMIL	XP_029209129.1	1.2	15	70	31.6	30.000	50	33	2	49	97	758	806
AMIL	XP_029182036.1	1.3	15	69	31.2	35.294	51	30	2	45	94	12	60
AMIL	XP_029182037.1	1.3	15	69	31.2	35.294	51	30	2	45	94	12	60
AMIL	XP_029209057.1	1.3	15	70	31.6	30.000	50	33	2	49	97	773	821
AMIL	XP_029182035.1	1.3	15	69	31.2	35.294	51	30	2	45	94	12	60
AMIL	XP_029204495.1	1.4	18	70	31.6	26.562	64	40	4	36	94	1	62
AMIL	XP_029209292.1	1.4	15	70	31.6	30.000	50	33	2	49	97	734	782
AMIL	XP_029189620.1	1.4	15	70	31.6	22.667	75	33	2	45	95	1	74
AMIL	XP_029198475.1	1.4	14	70	31.6	32.609	46	30	1	45	90	14	58
AMIL	XP_029200546.1	1.7	16	69	31.2	35.849	53	30	3	51	103	315	363
AMIL	XP_029204521.1	2.0	15	68	30.8	33.898	59	26	5	44	94	9	62
AMIL	XP_029200272.1	2.0	15	68	30.8	27.119	59	34	2	43	93	12	69
AMIL	XP_029191508.1	2.2	15	68	30.8	30.357	56	32	4	44	94	9	62
AMIL	XP_029210861.1	2.2	18	68	30.8	28.125	64	39	4	36	94	1	62
AMIL	XP_029204520.1	2.2	17	68	30.8	29.032	62	37	4	36	92	1	60
AMIL	XP_029201266.1	2.2	21	68	30.8	28.205	78	46	4	45	113	10	86
AMIL	XP_029199182.1	2.3	18	68	30.8	30.769	65	41	2	144	205	296	359
AMIL	XP_029188302.1	2.4	14	68	30.8	26.316	57	32	2	44	91	10	65
AMIL	XP_029204513.1	2.6	15	67	30.4	30.357	56	32	4	44	94	9	62
AMIL	XP_029195674.1	3.2	14	67	30.4	30.357	56	30	2	51	97	1435	1490
AMIL	XP_029191846.1	3.5	14	66	30.0	35.417	48	27	3	47	94	132	175
AMIL	XP_029197212.1	3.9	10	62	28.5	34.286	35	23	0	150	184	66	100
AMIL	XP_029190600.1	4.0	20	66	30.0	35.211	71	32	6	36	102	416	476
AMIL	XP_029186489.1	4.2	24	66	30.0	31.818	88	49	6	10	90	20	103
AMIL	XP_029186490.1	4.4	19	65	29.6	29.412	68	37	3	67	130	38	98
AMIL	XP_029189603.1	4.5	43	64	29.3	24.324	148	94	6	30	172	3	137
AMIL	XP_029198231.1	5.1	14	65	29.6	33.962	53	28	2	48	94	2	53
AMIL	XP_029189344.1	5.3	13	64	29.3	29.545	44	31	0	51	94	25	68
AMIL	XP_029193356.1	5.5	13	64	29.3	30.435	46	30	2	48	92	16	60
AMIL	XP_029197213.1	5.8	10	59	27.3	34.286	35	23	0	150	184	36	70
AMIL	XP_029204524.1	5.9	18	64	29.3	29.688	64	38	4	36	94	1	62
AMIL	XP_029207177.1	7.2	12	62	28.5	30.952	42	27	1	51	90	159	200
AMIL	XP_029192581.1	7.3	14	64	29.3	36.170	47	25	2	51	97	677	718
AMIL	XP_029194436.1	7.4	18	63	28.9	30.645	62	43	0	190	251	323	384
AMIL	XP_029192582.1	7.5	14	64	29.3	36.170	47	25	2	51	97	667	708
AMIL	XP_029194435.1	7.6	18	63	28.9	30.645	62	43	0	190	251	329	390
