TKIT	KII64780.1	5.79e-04	11	92	40.0	38.000	50	24	2	45	88	12	60
TKIT	KII71352.1	0.001	22	88	38.5	26.000	100	61	4	4	91	143	241
TKIT	KII69411.1	0.001	14	87	38.1	30.645	62	39	1	43	100	60	121
TKIT	KII62300.1	0.001	13	88	38.5	32.692	52	34	1	42	93	53	103
TKIT	KII67065.1	0.003	12	84	37.0	35.417	48	30	1	40	87	138	184
TKIT	KII61081.1	0.015	11	79	35.0	35.417	48	26	2	47	91	214	259
TKIT	KII72206.1	0.018	15	79	35.0	32.812	64	37	3	30	88	7	69
TKIT	KII66605.1	0.023	13	79	35.0	33.333	54	33	1	38	88	799	852
TKIT	KII69485.1	0.024	13	79	35.0	31.034	58	35	1	46	98	204	261
TKIT	KII60587.1	0.52	12	65	29.6	31.373	51	33	2	48	97	14	63
TKIT	KII73890.1	3.5	8	59	27.3	24.242	33	25	0	276	308	17	49
TKIT	KII67440.1	7.2	14	55	25.8	35.714	56	29	3	37	91	63	112
