SPIS	XP_022801714.1	3.66e-40	78	357	142	89.855	69	7	0	15	83	14	82
SPIS	XP_022801714.1	1.58e-35	78	325	129	50.000	140	65	3	123	258	196	334
SPIS	XP_022791353.1	2.43e-05	13	106	45.4	51.515	33	16	0	50	82	68	100
SPIS	XP_022785943.1	7.51e-05	59	101	43.5	25.000	180	99	5	43	199	9	175
SPIS	XP_022785942.1	7.51e-05	59	101	43.5	25.000	180	99	5	43	199	9	175
SPIS	XP_022785941.1	7.51e-05	59	101	43.5	25.000	180	99	5	43	199	9	175
SPIS	XP_022785940.1	7.51e-05	59	101	43.5	25.000	180	99	5	43	199	9	175
SPIS	XP_022785938.1	7.51e-05	59	101	43.5	25.000	180	99	5	43	199	9	175
SPIS	XP_022785937.1	7.51e-05	59	101	43.5	25.000	180	99	5	43	199	9	175
SPIS	XP_022785920.1	7.19e-04	59	94	40.8	23.392	171	109	4	43	197	8	172
SPIS	XP_022807668.1	0.002	25	92	40.0	35.385	65	37	3	30	94	39	98
SPIS	XP_022791249.1	0.002	16	90	39.3	37.209	43	25	1	39	81	34	74
SPIS	XP_022785891.1	0.003	15	89	38.9	41.026	39	23	0	45	83	11	49
SPIS	XP_022785946.1	0.004	19	87	38.1	30.000	50	35	0	34	83	2	51
SPIS	XP_022785947.1	0.004	19	87	38.1	30.000	50	35	0	34	83	2	51
SPIS	XP_022785948.1	0.004	19	87	38.1	30.000	50	35	0	34	83	2	51
SPIS	XP_022807468.1	0.004	15	89	38.9	45.000	40	21	1	41	80	716	754
SPIS	XP_022793302.1	0.004	17	87	38.1	43.478	46	25	1	42	87	91	135
SPIS	XP_022808914.1	0.006	21	87	38.1	32.143	56	35	2	25	80	23	75
SPIS	XP_022785919.1	0.007	59	86	37.7	23.464	179	102	6	43	197	8	175
SPIS	XP_022807391.1	0.008	14	86	37.7	37.838	37	23	0	45	81	64	100
SPIS	XP_022785918.1	0.009	16	85	37.4	36.585	41	26	0	43	83	8	48
SPIS	XP_022787777.1	0.011	12	82	36.2	51.613	31	14	1	51	81	14	43
SPIS	XP_022807473.1	0.012	12	82	36.2	51.613	31	14	1	51	81	5	34
SPIS	XP_022807474.1	0.013	12	82	36.2	51.613	31	14	1	51	81	5	34
SPIS	XP_022791110.1	0.013	12	82	36.2	51.613	31	14	1	51	81	14	43
SPIS	XP_022791119.1	0.015	11	84	37.0	50.000	30	14	1	51	80	721	749
SPIS	XP_022787724.1	0.016	11	84	37.0	53.333	30	13	1	51	80	664	692
SPIS	XP_022785912.1	0.018	16	82	36.2	40.476	42	25	0	40	81	5	46
SPIS	XP_022787775.1	0.019	12	81	35.8	51.613	31	14	1	51	81	14	43
SPIS	XP_022806393.1	0.019	10	83	36.6	50.000	26	13	0	51	76	375	400
SPIS	XP_022787776.1	0.020	12	81	35.8	51.613	31	14	1	51	81	14	43
SPIS	XP_022789951.1	0.023	18	82	36.2	38.298	47	29	0	35	81	2	48
SPIS	XP_022779494.1	0.025	15	82	36.2	35.000	40	23	1	37	76	5	41
SPIS	XP_022787728.1	0.035	11	80	35.4	50.000	30	14	1	51	80	158	186
SPIS	XP_022808734.1	0.036	11	80	35.4	43.333	30	16	1	51	80	42	70
SPIS	XP_022807583.1	0.043	16	79	35.0	34.146	41	26	1	36	76	1	40
SPIS	XP_022807612.1	0.043	21	80	35.4	32.143	56	37	1	27	82	810	864
SPIS	XP_022787076.1	0.050	12	80	35.4	43.750	32	17	1	45	76	11	41
SPIS	XP_022787075.1	0.050	12	80	35.4	43.750	32	17	1	45	76	11	41
SPIS	XP_022790748.1	0.064	12	79	35.0	37.500	32	20	0	44	75	195	226
SPIS	XP_022790749.1	0.066	12	79	35.0	37.500	32	20	0	44	75	195	226
SPIS	XP_022790530.1	0.074	14	77	34.3	40.541	37	22	0	45	81	17	53
SPIS	XP_022789057.1	0.078	28	78	34.7	31.081	74	44	2	20	93	4	70
SPIS	XP_022801892.1	0.091	13	77	34.3	38.235	34	21	0	50	83	19	52
SPIS	XP_022801940.1	0.092	17	78	34.7	34.783	46	29	1	43	88	6	50
SPIS	XP_022779831.1	0.093	13	78	34.7	44.118	34	18	1	43	76	8	40
SPIS	XP_022794828.1	0.096	15	77	34.3	32.500	40	26	1	42	81	6	44
SPIS	XP_022791344.1	0.097	13	76	33.9	37.143	35	21	1	42	76	10	43
SPIS	XP_022777917.1	0.10	16	77	34.3	36.957	46	17	3	44	86	9	45
SPIS	XP_022777643.1	0.10	17	77	34.3	36.364	44	27	1	45	88	8	50
SPIS	XP_022801950.1	0.11	17	77	34.3	34.783	46	29	1	43	88	6	50
SPIS	XP_022791441.1	0.12	18	77	34.3	29.167	48	34	0	33	80	29	76
SPIS	XP_022795922.1	0.12	17	77	34.3	35.417	48	26	2	43	86	6	52
SPIS	XP_022791440.1	0.12	18	77	34.3	29.167	48	34	0	33	80	29	76
SPIS	XP_022780059.1	0.13	13	76	33.9	41.176	34	19	1	43	76	8	40
SPIS	XP_022784305.1	0.14	13	76	33.9	41.176	34	19	1	48	81	25	57
SPIS	XP_022800961.1	0.14	13	76	33.9	45.455	33	17	1	44	76	9	40
SPIS	XP_022790511.1	0.14	58	75	33.5	21.538	195	101	6	45	198	17	200
SPIS	XP_022794950.1	0.14	23	76	33.9	32.609	46	30	1	43	88	8	52
SPIS	XP_022794950.1	0.27	23	74	33.1	31.746	63	36	3	44	102	744	803
SPIS	XP_022797663.1	0.16	18	75	33.5	34.043	47	30	1	36	82	7	52
SPIS	XP_022791442.1	0.16	18	75	33.5	29.167	48	34	0	33	80	29	76
SPIS	XP_022785936.1	0.16	14	71	32.0	40.541	37	22	0	45	81	17	53
SPIS	XP_022782320.1	0.18	14	75	33.5	38.889	36	21	1	46	81	12	46
SPIS	XP_022797727.1	0.18	13	75	33.5	42.424	33	18	1	45	77	18	49
SPIS	XP_022785910.1	0.19	14	73	32.7	37.838	37	23	0	45	81	17	53
SPIS	XP_022791085.1	0.19	11	75	33.5	55.172	29	12	1	51	79	534	561
SPIS	XP_022810447.1	0.20	28	75	33.5	31.169	77	49	2	43	116	8	83
SPIS	XP_022784910.1	0.21	13	74	33.1	41.176	34	19	1	51	84	54	86
SPIS	XP_022791084.1	0.22	11	74	33.1	55.172	29	12	1	51	79	534	561
SPIS	XP_022778827.1	0.23	13	74	33.1	41.176	34	19	1	43	76	8	40
SPIS	XP_022805726.1	0.25	19	74	33.1	32.143	56	33	2	37	87	116	171
SPIS	XP_022793699.1	0.25	14	74	33.1	34.211	38	25	0	45	82	18	55
SPIS	XP_022799630.1	0.25	17	74	33.1	29.545	44	27	1	47	90	24	63
SPIS	XP_022796482.1	0.25	14	74	33.1	37.838	37	22	1	45	81	368	403
SPIS	XP_022804797.1	0.26	17	74	33.1	31.111	45	30	1	44	88	3	46
SPIS	XP_022810381.1	0.26	13	74	33.1	41.176	34	19	1	43	76	8	40
SPIS	XP_022807357.1	0.27	16	74	33.1	38.095	42	23	2	36	76	68	107
SPIS	XP_022804796.1	0.27	17	73	32.7	31.111	45	30	1	44	88	3	46
SPIS	XP_022793862.1	0.28	12	74	33.1	43.750	32	17	1	45	76	8	38
SPIS	XP_022810571.1	0.31	17	73	32.7	35.417	48	26	2	43	86	14	60
SPIS	XP_022781743.1	0.31	13	73	32.7	42.424	33	18	1	44	76	9	40
SPIS	XP_022798031.1	0.32	12	73	32.7	40.625	32	18	1	47	78	844	874
SPIS	XP_022785955.1	0.32	13	72	32.3	36.364	33	21	0	45	77	11	43
SPIS	XP_022785954.1	0.32	13	72	32.3	36.364	33	21	0	45	77	12	44
SPIS	XP_022810430.1	0.33	15	73	32.7	30.000	40	27	1	42	81	41	79
SPIS	XP_022804795.1	0.33	16	72	32.3	38.095	42	25	1	48	89	26	66
SPIS	XP_022807380.1	0.34	16	73	32.7	38.095	42	23	2	36	76	34	73
SPIS	XP_022807373.1	0.34	16	73	32.7	38.095	42	23	2	36	76	34	73
SPIS	XP_022792754.1	0.35	17	72	32.3	37.778	45	24	2	50	94	35	75
SPIS	XP_022807364.1	0.35	16	73	32.7	38.095	42	23	2	36	76	54	93
SPIS	XP_022781031.1	0.35	13	73	32.7	38.889	36	20	1	48	81	560	595
SPIS	XP_022790438.1	0.37	15	72	32.3	38.462	39	23	1	45	83	45	82
SPIS	XP_022805401.1	0.38	25	73	32.7	26.154	65	48	0	13	77	59	123
SPIS	XP_022787383.1	0.40	18	72	32.3	37.500	48	25	2	48	95	15	57
SPIS	XP_022807327.1	0.47	20	72	32.3	34.615	52	26	2	45	96	21	64
SPIS	XP_022777788.1	0.47	17	71	32.0	36.170	47	18	3	44	87	9	46
SPIS	XP_022810572.1	0.48	17	72	32.3	33.333	48	27	2	43	86	6	52
SPIS	XP_022790225.1	0.48	14	72	32.3	34.211	38	25	0	43	80	242	279
SPIS	XP_022793825.1	0.50	10	72	32.3	46.429	28	13	1	51	76	99	126
SPIS	XP_022793824.1	0.50	10	72	32.3	46.429	28	13	1	51	76	99	126
SPIS	XP_022793823.1	0.50	10	72	32.3	46.429	28	13	1	51	76	99	126
SPIS	XP_022793822.1	0.50	10	72	32.3	46.429	28	13	1	51	76	99	126
SPIS	XP_022810463.1	0.54	17	71	32.0	36.170	47	18	3	44	87	9	46
SPIS	XP_022787414.1	0.60	12	71	32.0	35.484	31	20	0	51	81	27	57
SPIS	XP_022779706.1	0.63	15	71	32.0	35.897	39	24	1	45	83	14	51
SPIS	XP_022779705.1	0.63	15	71	32.0	35.897	39	24	1	45	83	14	51
SPIS	XP_022779704.1	0.63	15	71	32.0	35.897	39	24	1	45	83	14	51
SPIS	XP_022779703.1	0.63	15	71	32.0	35.897	39	24	1	45	83	14	51
SPIS	XP_022779702.1	0.63	15	71	32.0	35.897	39	24	1	45	83	14	51
SPIS	XP_022779701.1	0.63	15	71	32.0	35.897	39	24	1	45	83	14	51
SPIS	XP_022779700.1	0.63	15	71	32.0	35.897	39	24	1	45	83	14	51
SPIS	XP_022805531.1	0.66	13	71	32.0	38.235	34	20	1	43	76	6	38
SPIS	XP_022803772.1	0.69	13	70	31.6	39.394	33	19	1	44	76	7	38
SPIS	XP_022807303.1	0.69	18	70	31.6	36.170	47	26	2	43	89	6	48
SPIS	XP_022778360.1	0.70	13	69	31.2	41.176	34	19	1	43	76	8	40
SPIS	XP_022790697.1	0.72	15	70	31.6	37.500	40	24	1	43	82	11	49
SPIS	XP_022805332.1	0.78	11	70	31.6	37.931	29	18	0	48	76	23	51
SPIS	XP_022787423.1	0.79	13	70	31.6	39.394	33	20	0	51	83	26	58
SPIS	XP_022804792.1	0.80	17	70	31.6	33.333	45	29	1	44	88	21	64
SPIS	XP_022801955.1	0.83	13	70	31.6	39.394	33	19	1	44	76	7	38
SPIS	XP_022779035.1	0.84	13	69	31.2	35.000	40	20	1	48	81	250	289
SPIS	XP_022779034.1	0.84	13	69	31.2	35.000	40	20	1	48	81	250	289
SPIS	XP_022779033.1	0.84	13	69	31.2	35.000	40	20	1	48	81	250	289
SPIS	XP_022795539.1	0.86	11	70	31.6	42.857	28	15	1	49	76	21	47
SPIS	XP_022796182.1	0.93	28	69	31.2	25.287	87	48	2	178	251	347	429
SPIS	XP_022780916.1	0.95	19	67	30.4	33.333	51	26	3	44	92	9	53
SPIS	XP_022805530.1	0.97	13	69	31.2	38.235	34	20	1	43	76	6	38
SPIS	XP_022808322.1	0.97	13	69	31.2	39.394	33	19	1	44	76	10	41
SPIS	XP_022787424.1	1.1	13	68	30.8	39.394	33	20	0	51	83	26	58
SPIS	XP_022805529.1	1.1	18	69	31.2	36.170	47	26	2	43	89	6	48
SPIS	XP_022805535.1	1.1	13	69	31.2	38.235	34	20	1	43	76	6	38
SPIS	XP_022801657.1	1.1	11	69	31.2	39.286	28	16	1	48	75	4	30
SPIS	XP_022785313.1	1.2	17	69	31.2	31.111	45	30	1	32	76	415	458
SPIS	XP_022782374.1	1.2	13	69	31.2	40.000	35	20	1	49	83	14	47
SPIS	XP_022782549.1	1.2	11	69	31.2	42.857	28	15	1	49	76	84	110
SPIS	XP_022805570.1	1.3	17	68	30.8	34.783	46	29	1	31	76	3	47
SPIS	XP_022805569.1	1.3	17	68	30.8	34.783	46	29	1	31	76	3	47
SPIS	XP_022785489.1	1.3	15	68	30.8	33.333	45	25	1	48	87	583	627
SPIS	XP_022805110.1	1.3	12	68	30.8	32.258	31	21	0	49	79	18	48
SPIS	XP_022782553.1	1.4	11	68	30.8	42.857	28	15	1	49	76	47	73
SPIS	XP_022782550.1	1.4	11	68	30.8	42.857	28	15	1	49	76	84	110
SPIS	XP_022782554.1	1.4	11	68	30.8	42.857	28	15	1	49	76	43	69
SPIS	XP_022782552.1	1.5	11	68	30.8	42.857	28	15	1	49	76	60	86
SPIS	XP_022808413.1	1.5	12	68	30.8	37.500	32	20	0	49	80	16	47
SPIS	XP_022795538.1	1.6	11	67	30.4	46.429	28	14	1	49	76	21	47
SPIS	XP_022795537.1	1.6	11	67	30.4	46.429	28	14	1	49	76	21	47
SPIS	XP_022795536.1	1.6	11	67	30.4	46.429	28	14	1	49	76	21	47
SPIS	XP_022791832.1	1.7	13	67	30.4	27.273	33	24	0	44	76	15	47
SPIS	XP_022794169.1	1.7	16	65	29.6	38.298	47	15	3	44	86	9	45
SPIS	XP_022789392.1	1.7	9	67	30.4	54.167	24	11	0	65	88	580	603
SPIS	XP_022789393.1	1.8	9	67	30.4	54.167	24	11	0	65	88	580	603
SPIS	XP_022807291.1	1.8	18	66	30.0	36.735	49	23	3	43	89	6	48
SPIS	XP_022807472.1	1.8	12	67	30.4	35.294	34	20	1	45	76	11	44
SPIS	XP_022807471.1	1.8	12	67	30.4	35.294	34	20	1	45	76	11	44
SPIS	XP_022800808.1	1.9	18	67	30.4	29.787	47	32	1	36	82	1	46
SPIS	XP_022793467.1	2.1	16	67	30.4	34.884	43	22	2	44	86	9	45
SPIS	XP_022808323.1	2.2	13	66	30.0	39.394	33	19	1	44	76	10	41
SPIS	XP_022807467.1	2.2	11	66	30.0	33.333	30	20	0	51	80	896	925
SPIS	XP_022795127.1	2.3	12	66	30.0	37.500	32	19	1	51	82	805	835
SPIS	XP_022794166.1	2.4	16	66	30.0	34.884	43	22	2	44	86	9	45
SPIS	XP_022810377.1	2.5	13	66	30.0	38.235	34	20	1	43	76	6	38
SPIS	XP_022782319.1	2.5	14	66	30.0	38.889	36	17	2	41	76	10	40
SPIS	XP_022795632.1	2.8	13	66	30.0	33.333	33	21	1	44	76	9	40
SPIS	XP_022805210.1	2.8	14	65	29.6	37.838	37	22	1	45	81	21	56
SPIS	XP_022792942.1	3.2	13	65	29.6	33.333	33	21	1	44	76	9	40
SPIS	XP_022787809.1	3.3	11	65	29.6	35.714	28	18	0	49	76	868	895
SPIS	XP_022785783.1	3.5	37	65	29.6	27.000	100	63	5	49	145	89	181
SPIS	XP_022778281.1	3.5	17	64	29.3	34.783	46	27	2	38	83	28	70
SPIS	XP_022781068.1	3.6	14	65	29.6	29.730	37	25	1	47	83	20	55
SPIS	XP_022800517.1	4.0	14	64	29.3	40.541	37	21	1	47	83	328	363
SPIS	XP_022790731.1	4.0	15	64	29.3	33.333	39	25	1	44	82	9	46
SPIS	XP_022793837.1	4.1	17	63	28.9	31.111	45	30	1	44	88	7	50
SPIS	XP_022800807.1	4.2	13	64	29.3	38.235	34	20	1	43	76	6	38
SPIS	XP_022809455.1	4.3	14	64	29.3	33.333	36	24	0	47	82	23	58
SPIS	XP_022808111.1	4.5	11	62	28.5	37.931	29	18	0	48	76	24	52
SPIS	XP_022809879.1	4.9	16	64	29.3	29.268	41	28	1	36	76	1	40
SPIS	XP_022807286.1	5.1	19	62	28.5	34.000	50	28	2	43	92	6	50
SPIS	XP_022787727.1	5.6	14	63	28.9	30.769	39	25	1	45	81	11	49
SPIS	XP_022803259.1	5.7	10	62	28.5	46.154	26	13	1	51	76	20	44
SPIS	XP_022792078.1	5.8	25	63	28.9	29.851	67	36	3	21	85	109	166
SPIS	XP_022792079.1	5.9	25	63	28.9	29.851	67	36	3	21	85	109	166
SPIS	XP_022788364.1	5.9	44	63	28.9	24.370	119	67	5	47	163	210	307
SPIS	XP_022798089.1	6.0	11	63	28.9	35.714	28	17	1	49	76	64	90
SPIS	XP_022810427.1	6.4	13	63	28.9	33.333	33	21	1	44	76	9	40
SPIS	XP_022778136.1	6.9	27	62	28.5	27.143	70	36	2	159	228	269	323
SPIS	XP_022801554.1	7.5	13	61	28.1	34.211	38	21	1	43	76	16	53
SPIS	XP_022801555.1	7.5	13	61	28.1	34.211	38	21	1	43	76	16	53
SPIS	XP_022796515.1	7.9	17	61	28.1	36.170	47	18	3	44	87	9	46
SPIS	XP_022801558.1	8.0	13	61	28.1	34.211	38	21	1	43	76	16	53
SPIS	XP_022806136.1	8.1	13	62	28.5	32.353	34	22	1	49	82	643	675
SPIS	XP_022806131.1	8.1	13	62	28.5	32.353	34	22	1	49	82	643	675
SPIS	XP_022801556.1	8.1	13	61	28.1	34.211	38	21	1	43	76	16	53
SPIS	XP_022785239.1	8.1	13	62	28.5	27.273	33	24	0	48	80	576	608
SPIS	XP_022800417.1	8.2	12	61	28.1	37.500	32	20	0	51	82	27	58
SPIS	XP_022785592.1	8.3	18	61	28.1	35.417	48	24	3	39	86	18	58
SPIS	XP_022801557.1	8.5	13	61	28.1	34.211	38	21	1	43	76	16	53
SPIS	XP_022806124.1	8.5	13	62	28.5	32.353	34	22	1	49	82	714	746
SPIS	XP_022806119.1	8.5	13	62	28.5	32.353	34	22	1	49	82	714	746
SPIS	XP_022806110.1	8.5	13	62	28.5	32.353	34	22	1	49	82	714	746
SPIS	XP_022806103.1	8.5	13	62	28.5	32.353	34	22	1	49	82	714	746
SPIS	XP_022806096.1	8.8	13	61	28.1	32.353	34	22	1	49	82	723	755
SPIS	XP_022787437.1	8.9	19	61	28.1	30.612	49	26	2	44	92	21	61
SPIS	XP_022803566.1	8.9	21	60	27.7	32.727	55	32	2	48	102	23	72
SPIS	XP_022808123.1	9.1	13	61	28.1	29.412	34	24	0	48	81	24	57
SPIS	XP_022787725.1	9.2	14	61	28.1	30.769	39	25	1	45	81	11	49
SPIS	XP_022808118.1	9.4	13	61	28.1	29.412	34	24	0	48	81	24	57
SPIS	XP_022808117.1	9.5	13	61	28.1	29.412	34	24	0	48	81	24	57
SPIS	XP_022808116.1	9.5	13	61	28.1	29.412	34	24	0	48	81	24	57
