HVUL	XP_012561073.1	8.37e-96	75	740	289	49.020	306	125	4	1	306	2	276
HVUL	XP_002161941.3	8.37e-96	75	740	289	49.020	306	125	4	1	306	2	276
HVUL	XP_002160282.3	2.34e-10	17	150	62.4	40.541	74	39	3	41	110	13	85
HVUL	XP_012554870.1	1.98e-07	14	125	52.8	38.596	57	34	1	48	104	714	769
HVUL	XP_002164501.2	1.00e-06	16	119	50.4	34.375	64	40	2	44	107	86	147
HVUL	XP_002163397.1	6.33e-06	22	109	46.6	27.660	94	62	3	37	125	5	97
HVUL	XP_012555081.1	1.55e-05	20	107	45.8	33.333	87	50	3	31	112	5	88
HVUL	XP_002168887.1	2.70e-05	17	106	45.4	39.706	68	39	2	42	109	13	78
HVUL	XP_002166247.2	8.89e-05	14	100	43.1	37.097	62	31	3	44	99	180	239
HVUL	XP_002155572.2	1.89e-04	19	100	43.1	30.588	85	47	4	41	116	12	93
HVUL	XP_002159773.1	8.16e-04	11	94	40.8	38.636	44	26	1	48	91	357	399
HVUL	XP_012564121.1	0.002	18	92	40.0	24.658	73	54	1	40	112	410	481
HVUL	XP_012555355.1	0.003	17	90	39.3	30.769	78	45	3	44	114	11	86
HVUL	XP_012557229.1	0.003	18	90	39.3	33.766	77	47	3	45	118	424	499
HVUL	XP_012557608.1	0.003	17	88	38.5	31.081	74	47	2	42	112	10	82
HVUL	XP_002157712.2	0.004	21	89	38.9	26.804	97	57	4	7	91	317	411
HVUL	XP_012560458.1	0.004	7	84	37.0	50.000	30	15	0	44	73	54	83
HVUL	XP_012557248.1	0.005	12	88	38.5	38.298	47	28	1	42	88	19	64
HVUL	XP_012554997.1	0.007	17	88	38.5	29.730	74	48	3	23	93	461	533
HVUL	XP_012554996.1	0.007	17	88	38.5	29.730	74	48	3	23	93	461	533
HVUL	XP_012554643.1	0.007	13	87	38.1	34.545	55	34	2	34	87	807	860
HVUL	XP_012554642.1	0.007	13	87	38.1	34.545	55	34	2	34	87	807	860
HVUL	XP_002166546.1	0.008	11	85	37.4	44.444	45	22	2	46	88	16	59
HVUL	XP_012555631.1	0.011	8	84	37.0	53.125	32	15	0	42	73	5	36
HVUL	XP_012555633.1	0.015	8	83	36.6	42.424	33	19	0	41	73	4	36
HVUL	XP_004207372.1	0.015	8	83	36.6	42.424	33	19	0	41	73	4	36
HVUL	XP_012556447.1	0.016	15	85	37.4	31.746	63	39	1	44	102	225	287
HVUL	XP_012558638.1	0.017	11	84	37.0	36.364	44	27	1	46	88	11	54
HVUL	XP_002157228.2	0.018	11	84	37.0	36.364	44	27	1	46	88	11	54
HVUL	XP_012559220.1	0.030	11	80	35.4	34.783	46	27	2	48	93	191	233
HVUL	XP_012558027.1	0.031	10	81	35.8	44.186	43	19	2	46	85	53	93
HVUL	XP_012554262.1	0.033	11	80	35.4	33.333	48	27	2	48	91	71	117
HVUL	XP_012553536.1	0.042	15	81	35.8	35.000	60	37	2	42	101	334	391
HVUL	XP_012553535.1	0.042	15	81	35.8	35.000	60	37	2	42	101	334	391
HVUL	XP_012558026.1	0.043	10	80	35.4	44.186	43	19	2	46	85	53	93
HVUL	XP_012559827.1	0.044	13	80	35.4	36.538	52	32	1	41	91	49	100
HVUL	XP_012566534.1	0.046	18	80	35.4	24.138	87	53	3	47	121	148	233
HVUL	XP_012566801.1	0.075	11	79	35.0	38.298	47	26	2	47	91	54	99
HVUL	XP_012566800.1	0.075	11	79	35.0	38.298	47	26	2	47	91	54	99
HVUL	XP_012566799.1	0.075	11	79	35.0	38.298	47	26	2	47	91	54	99
HVUL	XP_012566798.1	0.075	11	79	35.0	38.298	47	26	2	47	91	54	99
HVUL	XP_012563483.1	0.085	17	78	34.7	28.000	75	49	2	21	91	7	80
HVUL	XP_004207788.2	0.097	15	77	34.3	31.081	74	38	3	47	108	304	376
HVUL	XP_002155270.1	0.10	14	77	34.3	35.088	57	35	2	45	101	16	70
HVUL	XP_002156351.3	0.10	13	77	34.3	36.364	55	34	1	36	89	15	69
HVUL	XP_012563599.1	0.10	10	77	34.3	38.095	42	25	1	48	88	281	322
HVUL	XP_004211375.2	0.11	12	76	33.9	35.417	48	30	1	40	87	18	64
HVUL	XP_004210207.1	0.15	20	74	33.1	27.160	81	52	3	30	110	1	74
HVUL	XP_012562696.1	0.15	13	75	33.5	35.294	51	28	1	45	95	8	53
HVUL	XP_012558028.1	0.17	8	75	33.5	48.485	33	17	0	41	73	51	83
HVUL	XP_004209843.1	0.21	13	74	33.1	31.481	54	36	1	43	96	5	57
HVUL	XP_012563416.1	0.37	46	73	32.7	19.689	193	122	6	73	259	42	207
HVUL	XP_012555473.1	0.60	8	71	32.0	33.333	36	22	1	48	81	400	435
HVUL	XP_012555474.1	0.61	8	71	32.0	33.333	36	22	1	48	81	399	434
HVUL	XP_004205675.1	0.79	7	70	31.6	40.000	30	18	0	44	73	14	43
HVUL	XP_012558713.1	0.96	11	68	30.8	33.333	51	25	3	43	88	118	164
HVUL	XP_012555277.1	1.0	7	69	31.2	36.667	30	19	0	44	73	14	43
HVUL	XP_004208086.1	1.1	11	68	30.8	34.783	46	29	1	42	87	328	372
HVUL	XP_012560979.1	1.2	9	69	31.2	34.146	41	22	1	56	91	30	70
HVUL	XP_012556687.1	1.2	7	68	30.8	43.333	30	17	0	44	73	14	43
HVUL	XP_012566126.1	1.6	8	66	30.0	31.250	32	22	0	47	78	148	179
HVUL	XP_002166121.1	1.9	11	67	30.4	33.333	45	27	2	45	87	12	55
HVUL	XP_002167022.3	2.0	46	67	30.4	20.106	189	132	6	73	259	42	213
HVUL	XP_002162097.2	2.2	11	66	30.0	27.660	47	32	1	47	91	222	268
HVUL	XP_012563945.1	2.6	7	64	29.3	37.037	27	17	0	47	73	149	175
HVUL	XP_002163269.2	2.8	12	65	29.6	34.043	47	24	2	48	94	399	438
HVUL	XP_012555133.1	2.9	10	66	30.0	31.111	45	28	2	48	89	9	53
HVUL	XP_012564934.1	2.9	10	66	30.0	28.889	45	19	2	46	87	152	186
HVUL	XP_004207529.1	3.1	9	65	29.6	34.211	38	25	0	42	79	116	153
HVUL	XP_002162099.1	3.4	18	64	29.3	29.730	74	46	2	24	97	23	90
HVUL	XP_012564632.1	3.5	7	64	29.3	37.037	27	17	0	47	73	98	124
HVUL	XP_012558349.1	3.6	15	64	29.3	28.333	60	30	2	48	107	261	307
HVUL	XP_012556107.1	3.8	9	64	29.3	38.462	39	23	1	64	101	244	282
HVUL	XP_012557026.1	4.9	10	63	28.9	40.909	44	22	2	64	103	77	120
HVUL	XP_012564817.1	5.0	11	63	28.9	36.957	46	27	2	47	92	512	555
HVUL	XP_012555588.1	5.2	16	64	29.3	31.818	66	42	1	168	233	1182	1244
HVUL	XP_002163531.2	7.1	23	62	28.5	27.368	95	42	3	235	326	157	227
HVUL	XP_002165462.1	8.0	13	61	28.1	33.962	53	33	2	48	100	251	301
HVUL	XP_012554507.1	8.3	12	62	28.5	38.462	52	20	4	48	97	943	984
HVUL	XP_012554508.1	8.7	12	62	28.5	38.462	52	20	4	48	97	926	967
HVUL	XP_002169863.1	9.2	21	61	28.1	23.958	96	60	3	1	84	2	96
