HBAL	m.38431	7.28e-17	26	193	79.0	53.623	69	32	0	15	83	61	129
HBAL	m.38436	9.09e-17	26	192	78.6	53.623	69	32	0	15	83	61	129
HBAL	m.3563	8.78e-11	23	144	60.1	48.387	62	28	3	22	82	23	81
HBAL	m.121793	7.14e-08	82	121	51.2	22.917	240	140	7	44	259	61	279
HBAL	m.11095	0.002	11	87	38.1	46.429	28	15	0	51	78	51	78
HBAL	m.19535	0.002	42	87	38.1	27.193	114	74	4	43	154	310	416
HBAL	m.32521	0.003	26	86	37.7	30.882	68	34	2	45	112	32	86
HBAL	m.1340	0.005	14	83	36.6	40.541	37	22	0	47	83	56	92
HBAL	m.67769	0.007	12	83	36.6	50.000	32	15	1	49	80	7	37
HBAL	m.67640	0.015	13	80	35.4	47.059	34	17	1	49	82	315	347
HBAL	m.35016	0.018	13	80	35.4	44.118	34	18	1	49	82	643	675
HBAL	m.140453	0.036	18	76	33.9	37.500	48	28	1	49	96	31	76
HBAL	m.52475	0.095	14	74	33.1	31.579	38	26	0	43	80	180	217
HBAL	m.9505	0.11	10	73	32.7	40.741	27	16	0	49	75	247	273
HBAL	m.83926	0.12	20	72	32.3	35.185	54	32	2	25	76	35	87
HBAL	m.62881	0.30	15	70	31.6	38.462	39	23	1	43	81	6	43
HBAL	m.102446	0.45	15	68	30.8	33.333	39	25	1	45	83	21	58
HBAL	m.83727	1.3	20	63	28.9	33.333	54	33	2	25	76	35	87
HBAL	m.11872	2.7	16	61	28.1	37.209	43	22	2	47	89	94	131
HBAL	m.44863	3.1	14	62	28.5	39.474	38	20	2	92	127	435	471
HBAL	m.128142	4.6	23	60	27.7	24.194	62	45	1	13	74	133	192
HBAL	m.75356	4.7	14	60	27.7	34.211	38	25	0	28	65	217	254
HBAL	m.83898	5.9	19	56	26.2	32.692	52	32	2	25	74	35	85
