DMEL	NP_477509.1	6.52e-38	67	347	138	87.143	70	9	0	14	83	9	78
DMEL	NP_477509.1	6.18e-25	67	255	102	46.903	113	46	2	153	258	326	431
DMEL	NP_523725.2	0.001	14	94	40.8	39.474	38	23	0	44	81	256	293
DMEL	NP_001286369.1	0.001	14	94	40.8	39.474	38	23	0	44	81	256	293
DMEL	NP_001286368.1	0.001	14	94	40.8	39.474	38	23	0	44	81	256	293
DMEL	NP_609668.2	0.004	11	89	38.9	51.724	29	14	0	48	76	15	43
DMEL	NP_001285905.1	0.004	11	89	38.9	51.724	29	14	0	48	76	15	43
DMEL	NP_649596.1	0.017	12	83	36.6	45.455	33	17	1	51	82	266	298
DMEL	NP_731017.1	0.017	12	83	36.6	45.455	33	17	1	51	82	259	291
DMEL	NP_651214.2	0.020	12	83	36.6	46.875	32	16	1	50	81	609	639
DMEL	NP_001287188.1	0.040	12	79	35.0	45.455	33	17	1	51	82	152	184
DMEL	NP_729296.1	0.050	18	80	35.4	35.417	48	30	1	49	96	181	227
DMEL	NP_001246660.1	0.050	18	80	35.4	35.417	48	30	1	49	96	181	227
DMEL	NP_611884.1	0.11	13	78	34.7	36.364	33	21	0	48	80	214	246
DMEL	NP_524933.1	0.21	17	74	33.1	31.111	45	31	0	36	80	1	45
DMEL	NP_001246797.1	0.21	17	74	33.1	31.111	45	31	0	36	80	1	45
DMEL	NP_001246487.1	0.23	14	75	33.5	33.333	36	24	0	45	80	211	246
DMEL	NP_647989.2	0.34	16	73	32.7	34.146	41	26	1	38	78	978	1017
DMEL	NP_001286950.1	0.34	16	73	32.7	34.146	41	26	1	38	78	978	1017
DMEL	NP_609193.1	0.35	12	73	32.7	41.935	31	17	1	48	78	305	334
DMEL	NP_648816.1	0.46	11	72	32.3	44.828	29	16	0	48	76	15	43
DMEL	NP_001261904.1	0.46	11	72	32.3	44.828	29	16	0	48	76	15	43
DMEL	NP_611388.1	0.53	10	72	32.3	38.462	26	16	0	51	76	102	127
DMEL	NP_001261083.1	0.53	10	72	32.3	38.462	26	16	0	51	76	102	127
DMEL	NP_611989.1	0.67	81	70	31.6	23.394	218	134	10	10	223	40	228
DMEL	NP_001286868.1	0.67	81	70	31.6	23.394	218	134	10	10	223	40	228
DMEL	NP_001285689.1	0.70	12	66	30.0	41.935	31	17	1	50	80	56	85
DMEL	NP_511080.2	0.76	16	70	31.6	36.585	41	25	1	45	85	98	137
DMEL	NP_001260933.1	0.82	14	70	31.6	28.947	38	27	0	43	80	27	64
DMEL	NP_523726.2	0.84	14	70	31.6	28.947	38	27	0	43	80	27	64
DMEL	NP_001163134.1	0.84	14	70	31.6	28.947	38	27	0	43	80	27	64
DMEL	NP_609860.2	0.95	13	68	30.8	35.294	34	21	1	51	83	178	211
DMEL	NP_001163003.1	0.95	13	68	30.8	35.294	34	21	1	51	83	178	211
DMEL	NP_477374.1	1.2	22	69	31.2	27.119	59	42	1	35	92	137	195
DMEL	NP_523776.1	1.4	13	68	30.8	36.364	33	21	0	44	76	5	37
DMEL	NP_649554.1	2.0	10	67	30.4	46.429	28	13	1	51	76	155	182
DMEL	NP_647765.1	3.1	14	65	29.6	36.842	38	24	0	49	86	111	148
DMEL	NP_001262289.1	3.1	10	66	30.0	46.429	28	13	1	51	76	155	182
DMEL	NP_001246302.1	3.2	12	61	28.1	40.625	32	18	1	50	80	46	77
DMEL	NP_651088.1	4.4	11	64	29.3	36.667	30	19	0	51	80	346	375
DMEL	NP_728629.1	5.7	13	63	28.9	39.394	33	19	1	48	80	209	240
DMEL	NP_647623.1	5.7	13	63	28.9	39.394	33	19	1	48	80	209	240
DMEL	NP_731623.1	8.6	10	62	28.5	35.714	28	16	1	51	76	1187	1214
DMEL	NP_650112.1	8.6	10	62	28.5	35.714	28	16	1	51	76	1187	1214
DMEL	NP_001247056.1	8.6	10	62	28.5	35.714	28	16	1	51	76	1187	1214
DMEL	NP_001262484.1	9.2	10	62	28.5	35.714	28	16	1	51	76	1187	1214
