MFLU	m.37986	4.11e-35	35	328	130	43.750	144	79	1	14	157	6	147
MFLU	m.16767	4.83e-06	12	108	46.2	44.898	49	26	1	46	94	129	176
MFLU	m.234071	1.01e-05	27	109	46.6	31.818	88	54	3	35	118	81	166
MFLU	m.234071	1.9	27	66	30.0	44.000	25	14	0	283	307	238	262
MFLU	m.229452	2.33e-05	20	108	46.2	36.667	90	49	5	41	123	69	157
MFLU	m.196020	2.50e-05	20	106	45.4	31.325	83	52	4	44	124	175	254
MFLU	m.196209	3.68e-05	20	105	45.1	31.325	83	52	4	44	124	205	284
MFLU	m.196102	5.12e-05	20	104	44.7	31.325	83	52	4	44	124	184	263
MFLU	m.26870	9.91e-05	17	102	43.9	32.857	70	44	3	46	115	28	94
MFLU	m.267409	2.25e-04	19	98	42.4	30.380	79	47	4	48	123	9	82
MFLU	m.260028	2.31e-04	13	99	42.7	40.741	54	30	2	42	94	249	301
MFLU	m.255568	6.56e-04	21	92	40.0	29.348	92	51	3	40	125	22	105
MFLU	m.242957	8.08e-04	14	94	40.8	29.825	57	40	0	35	91	155	211
MFLU	m.256797	0.004	15	90	39.3	34.328	67	34	3	48	106	785	849
MFLU	m.57824	0.004	10	88	38.5	40.476	42	24	1	48	88	29	70
MFLU	m.264724	0.006	17	87	38.1	30.435	69	46	2	35	102	3	70
MFLU	m.227229	0.007	15	83	36.6	37.097	62	37	2	42	103	13	72
MFLU	m.35387	0.008	10	86	37.7	30.952	42	28	1	46	87	706	746
MFLU	m.160600	0.020	46	83	36.6	24.878	205	106	10	30	214	6	182
MFLU	m.62567	0.021	14	82	36.2	40.678	59	32	1	156	211	1	59
MFLU	m.251316	0.037	11	81	35.8	32.609	46	30	1	42	87	19	63
MFLU	m.238787	0.039	12	81	35.8	36.000	50	30	2	45	94	121	168
MFLU	m.19656	0.040	11	80	35.4	40.000	45	25	2	47	91	344	386
MFLU	m.231663	0.058	10	77	34.3	37.500	40	24	1	48	87	70	108
MFLU	m.74667	0.088	16	77	34.3	33.333	63	37	3	63	125	77	134
MFLU	m.74638	0.089	16	77	34.3	33.333	63	37	3	63	125	77	134
MFLU	m.224982	0.091	16	78	34.7	34.848	66	41	2	45	110	322	385
MFLU	m.242699	0.12	11	76	33.9	32.075	53	27	2	48	91	257	309
MFLU	m.229012	0.13	14	76	33.9	31.579	57	36	2	48	102	259	314
MFLU	m.101479	0.18	7	74	33.1	42.857	28	16	0	66	93	33	60
MFLU	m.248578	0.20	6	74	33.1	56.000	25	11	0	64	88	48	72
MFLU	m.49003	0.26	16	72	32.3	34.211	76	35	4	35	100	44	114
MFLU	m.207601	0.35	6	68	30.8	48.000	25	12	1	64	88	40	63
MFLU	m.231340	0.64	11	71	32.0	37.037	54	26	3	46	91	268	321
MFLU	m.36837	0.70	12	69	31.2	31.373	51	32	2	48	96	153	202
MFLU	m.25536	0.76	20	70	31.6	29.762	84	56	2	41	122	19	101
MFLU	m.266098	0.85	8	69	31.2	38.710	31	18	1	48	78	289	318
MFLU	m.22648	1.0	16	69	31.2	25.000	72	45	1	45	107	220	291
MFLU	m.25320	1.1	17	69	31.2	27.143	70	42	3	44	111	15	77
MFLU	m.233649	1.1	16	68	30.8	27.273	66	44	2	46	108	462	526
MFLU	m.271809	1.4	12	67	30.4	32.653	49	33	0	46	94	15	63
MFLU	m.259363	1.5	11	61	28.1	34.091	44	24	3	47	89	22	61
MFLU	m.20467	1.9	16	67	30.4	25.000	64	43	2	47	110	41	99
MFLU	m.230567	2.1	16	66	30.0	32.308	65	39	2	235	299	29	88
MFLU	m.10154	2.3	10	65	29.6	31.111	45	26	2	48	87	56	100
MFLU	m.240225	2.8	13	65	29.6	31.481	54	35	2	48	101	293	344
MFLU	m.79828	2.9	29	65	29.6	24.031	129	79	5	48	163	89	211
MFLU	m.218884	2.9	15	59	27.3	25.000	60	43	2	47	106	16	73
MFLU	m.110381	3.7	10	65	29.6	30.233	43	29	1	48	89	1374	1416
MFLU	m.139560	3.8	23	65	29.6	25.243	103	69	2	159	253	1608	1710
MFLU	m.140772	4.0	17	64	29.3	29.167	72	47	2	88	155	1742	1813
MFLU	m.93367	4.5	21	64	29.3	31.250	96	54	4	172	258	1879	1971
MFLU	m.142036	4.7	22	64	29.3	27.660	94	62	2	160	247	373	466
MFLU	m.106186	6.6	19	63	28.9	32.558	86	38	3	161	236	117	192
MFLU	m.190613	7.4	11	62	28.5	43.182	44	18	2	64	107	47	83
MFLU	m.93387	7.6	21	62	28.5	31.250	96	54	4	172	258	1884	1976
MFLU	m.243462	7.9	15	62	28.5	33.898	59	37	2	34	92	1089	1145
MFLU	m.231204	9.0	13	61	28.1	29.412	51	29	1	34	84	935	978
MFLU	m.252253	9.3	11	60	27.7	31.818	44	27	3	48	91	19	59
MFLU	m.259936	9.4	12	61	28.1	33.333	57	30	3	41	89	4	60
