TKIT	KII62300.1	1.40e-04	14	95	41.2	31.250	48	32	1	45	92	53	99
TKIT	KII69411.1	4.45e-04	18	90	39.3	30.769	65	41	1	43	103	57	121
TKIT	KII67065.1	5.53e-04	17	89	38.9	32.759	58	37	2	33	90	129	184
TKIT	KII64780.1	6.20e-04	13	91	39.7	36.000	50	25	2	48	91	12	60
TKIT	KII71352.1	0.002	12	85	37.4	41.860	43	22	2	51	91	197	238
TKIT	KII72206.1	0.005	13	83	36.6	38.776	49	24	3	48	91	22	69
TKIT	KII66605.1	0.008	15	82	36.2	31.481	54	34	1	41	91	799	852
TKIT	KII61081.1	0.013	13	79	35.0	35.417	48	26	2	50	94	214	259
TKIT	KII69485.1	0.028	16	77	34.3	31.034	58	35	1	49	101	204	261
TKIT	KII60587.1	0.044	12	73	32.7	39.024	41	23	2	51	90	14	53
TKIT	KII71113.1	1.2	22	61	28.1	22.667	75	58	0	262	336	11	85
TKIT	KII65513.1	2.3	20	61	28.1	26.582	79	45	2	28	93	300	378
TKIT	KII64813.1	7.6	24	57	26.6	28.571	84	53	3	235	313	49	130
