CHOL	m.97624	2.84e-28	25	268	107	45.217	115	49	2	6	107	16	129
CHOL	m.902341	4.41e-18	40	208	84.7	32.738	168	105	5	8	169	3	168
CHOL	m.902327	3.50e-17	40	197	80.5	32.738	168	105	5	8	169	3	168
CHOL	m.509456	1.42e-08	19	136	57.0	43.421	76	37	4	40	115	24	93
CHOL	m.86500	3.16e-07	22	123	52.0	34.444	90	55	4	37	125	16	102
CHOL	m.259817	4.34e-07	33	124	52.4	30.065	153	78	7	40	175	254	394
CHOL	m.259611	4.77e-07	33	123	52.0	30.065	153	78	7	40	175	187	327
CHOL	m.97475	1.12e-06	18	117	49.7	36.364	77	43	3	46	118	28	102
CHOL	m.259699	1.28e-06	22	119	50.4	32.039	103	54	4	40	127	254	355
CHOL	m.67402	2.20e-06	26	116	49.3	34.579	107	63	6	22	125	26	128
CHOL	m.97609	4.05e-06	7	110	47.0	60.000	30	12	0	83	112	1	30
CHOL	m.97605	4.19e-06	7	109	46.6	60.000	30	12	0	83	112	1	30
CHOL	m.178673	3.22e-05	15	107	45.8	34.722	72	36	2	37	97	6	77
CHOL	m.241398	0.002	11	92	40.0	42.553	47	23	2	48	91	54	99
CHOL	m.629151	0.010	11	87	38.1	39.583	48	25	2	47	91	612	658
CHOL	m.220762	0.011	10	86	37.7	43.182	44	18	2	48	88	147	186
CHOL	m.288576	0.013	15	82	36.2	35.484	62	38	2	43	103	45	105
CHOL	m.185068	0.014	13	86	37.7	31.373	51	34	1	38	88	191	240
CHOL	m.220750	0.018	11	84	37.0	42.553	47	20	2	48	91	92	134
CHOL	m.774471	0.023	14	84	37.0	35.714	56	34	2	44	98	2	56
CHOL	m.13639	0.029	11	84	37.0	37.500	48	25	2	46	88	894	941
CHOL	m.942717	0.043	10	74	33.1	34.884	43	26	2	48	89	11	52
CHOL	m.333438	0.094	13	76	33.9	32.075	53	34	2	39	91	121	171
CHOL	m.67370	0.11	26	78	34.7	27.132	129	66	6	22	125	26	151
CHOL	m.75274	0.14	16	77	34.3	29.577	71	45	3	25	90	152	222
CHOL	m.271205	0.15	20	77	34.3	25.926	81	51	2	4	84	717	788
CHOL	m.375721	0.19	13	74	33.1	31.481	54	34	2	40	91	61	113
CHOL	m.312953	0.20	12	70	31.6	31.250	48	32	1	40	87	35	81
CHOL	m.391072	0.23	11	76	33.9	37.209	43	26	1	46	88	39	80
CHOL	m.375812	0.32	15	72	32.3	32.812	64	39	3	30	91	53	114
CHOL	m.303899	0.34	10	73	32.7	36.364	44	26	1	48	89	233	276
CHOL	m.309896	0.62	10	70	31.6	37.209	43	22	2	48	88	42	81
CHOL	m.312938	0.64	10	72	32.3	35.000	40	25	1	48	87	801	839
CHOL	m.347513	0.68	18	71	32.0	25.000	76	53	3	14	87	215	288
CHOL	m.75282	0.68	16	71	32.0	29.577	71	45	3	25	90	152	222
CHOL	m.559785	0.74	16	70	31.6	26.027	73	40	3	47	111	145	211
CHOL	m.183456	0.76	13	71	32.0	29.310	58	33	2	47	97	357	413
CHOL	m.587680	0.84	22	71	32.0	25.532	94	49	3	45	135	157	232
CHOL	m.191837	0.98	12	70	31.6	30.000	50	34	1	42	91	2	50
CHOL	m.447872	1.5	15	63	28.9	28.358	67	36	3	29	87	11	73
CHOL	m.17712	1.9	24	69	31.2	28.571	98	51	3	52	149	1593	1671
CHOL	m.165332	2.4	10	67	30.4	34.146	41	23	1	48	88	45	81
CHOL	m.240002	2.6	14	67	30.4	32.759	58	36	2	34	91	97	151
CHOL	m.824564	3.2	9	66	30.0	38.889	36	22	0	279	314	371	406
CHOL	m.899988	3.9	5	66	30.0	52.381	21	10	0	149	169	348	368
CHOL	m.724286	5.4	8	64	29.3	48.387	31	15	1	57	87	385	414
CHOL	m.292479	7.8	7	63	28.9	40.000	30	18	0	48	77	122	151
CHOL	m.149446	8.4	7	62	28.5	41.935	31	15	1	64	91	99	129
CHOL	m.292486	8.6	7	63	28.9	40.000	30	18	0	48	77	122	151
