MBRE	XP_001744915.1	2.29e-27	27	253	102	51.648	91	44	0	51	141	1	91
MBRE	XP_001748213.1	1.28e-09	66	138	57.8	24.779	226	112	5	49	271	167	337
MBRE	XP_001749812.1	9.48e-08	16	123	52.0	42.857	56	28	3	41	94	4	57
MBRE	XP_001745442.1	4.38e-06	15	110	47.0	40.741	54	28	1	43	92	26	79
MBRE	XP_001748827.1	4.76e-05	15	102	43.9	34.615	52	33	1	43	94	1057	1107
MBRE	XP_001749668.1	5.65e-05	13	102	43.9	40.426	47	24	2	51	94	1001	1046
MBRE	XP_001750277.1	0.001	10	89	38.9	38.235	34	21	0	43	76	5	38
MBRE	XP_001746034.1	0.001	15	90	39.3	33.962	53	33	2	49	100	22	73
MBRE	XP_001744891.1	0.002	17	89	38.9	34.426	61	35	3	51	108	882	940
MBRE	XP_001744497.1	0.002	14	88	38.5	39.583	48	28	1	51	98	358	404
MBRE	XP_001745984.1	0.003	26	86	37.7	28.409	88	56	4	37	124	7	87
MBRE	XP_001747884.1	0.010	20	83	36.6	32.353	68	42	3	29	95	76	140
MBRE	XP_001749063.1	0.012	29	83	36.6	25.490	102	68	3	36	131	3769	3868
MBRE	XP_001742444.1	0.025	13	79	35.0	40.000	45	26	1	49	93	34	77
MBRE	XP_001745620.1	0.061	14	76	33.9	38.000	50	28	2	44	91	656	704
MBRE	XP_001742636.1	0.11	13	72	32.3	35.714	42	25	2	49	90	163	202
MBRE	XP_001746838.1	0.13	11	74	33.1	29.730	37	26	0	47	83	27	63
MBRE	XP_001744783.1	0.18	18	71	32.0	34.848	66	32	4	51	110	148	208
MBRE	XP_001744385.1	0.26	17	71	32.0	32.203	59	32	3	41	96	280	333
MBRE	XP_001745549.1	0.30	16	70	31.6	29.508	61	36	2	50	104	344	403
MBRE	XP_001743570.1	0.35	14	63	28.9	35.417	48	28	2	49	94	10	56
MBRE	XP_001747107.1	0.53	14	69	31.2	29.787	47	32	1	49	95	29	74
MBRE	XP_001746192.1	0.54	22	67	30.4	28.409	88	47	4	20	94	33	117
MBRE	XP_001749213.1	0.56	23	68	30.8	28.571	77	54	1	51	126	27	103
MBRE	XP_001746197.1	0.62	26	67	30.4	31.522	92	56	5	31	119	2	89
MBRE	XP_001744130.1	0.76	13	67	30.4	29.412	51	26	2	50	93	40	87
MBRE	XP_001746132.1	1.0	13	66	30.0	38.095	42	24	2	67	108	41	80
MBRE	XP_001742341.1	1.1	24	66	30.0	26.966	89	57	3	57	137	737	825
MBRE	XP_001744458.1	1.4	19	64	29.3	31.507	73	30	4	51	113	33	95
MBRE	XP_001749383.1	3.0	14	62	28.5	30.000	60	28	2	76	121	56	115
MBRE	XP_001748573.1	4.4	10	61	28.1	31.429	35	16	1	71	105	7	33
MBRE	XP_001747281.1	5.4	40	60	27.7	26.950	141	76	6	189	324	532	650
MBRE	XP_001743122.1	6.2	7	60	27.7	40.000	25	15	0	103	127	2323	2347
