SCAR	maker-SC_scaffold140550-augustus-gene-0.25-mRNA-1	6.55e-05	15	100	43.1	45.000	40	21	1	43	82	33	71
SCAR	augustus_masked-SC_scaffold30438-processed-gene-0.1-mRNA-1	8.08e-05	19	99	42.7	40.816	49	26	1	32	80	33	78
SCAR	snap_masked-SC_scaffold119918-processed-gene-0.7-mRNA-1	1.55e-04	17	97	42.0	42.222	45	23	1	32	76	33	74
SCAR	maker-SC_scaffold61107-snap-gene-0.4-mRNA-1	2.32e-04	13	95	41.2	48.571	35	17	1	47	81	433	466
SCAR	maker-SC_scaffold2202-augustus-gene-0.85-mRNA-1	2.95e-04	24	91	39.7	36.508	63	35	2	38	100	7	64
SCAR	augustus_masked-SC_scaffold119918-processed-gene-0.1-mRNA-1	5.44e-04	28	87	38.1	30.263	76	51	1	7	80	3	78
SCAR	snap_masked-SC_scaffold143697-processed-gene-0.2-mRNA-1	6.54e-04	19	92	40.0	40.385	52	30	1	29	79	17	68
SCAR	augustus_masked-SC_scaffold14797-processed-gene-0.2-mRNA-1	0.001	16	90	39.3	43.902	41	21	1	40	80	8	46
SCAR	augustus_masked-SC_scaffold2881-processed-gene-0.4-mRNA-1	0.002	22	88	38.5	38.333	60	34	2	45	102	17	75
SCAR	maker-SC_scaffold7052-augustus-gene-0.8-mRNA-1	0.002	16	82	36.2	34.884	43	28	0	40	82	28	70
SCAR	maker-SC_scaffold1297-augustus-gene-0.4-mRNA-1	0.003	15	86	37.7	43.902	41	21	1	43	81	27	67
SCAR	maker-SC_scaffold6454-snap-gene-0.106-mRNA-1	0.003	15	86	37.7	46.154	39	20	1	43	81	10	47
SCAR	augustus_masked-SC_scaffold1098-processed-gene-0.22-mRNA-1	0.003	18	85	37.4	38.298	47	27	1	37	83	12	56
SCAR	maker-SC_scaffold145696-snap-gene-0.26-mRNA-1	0.003	15	86	37.7	46.154	39	20	1	43	81	10	47
SCAR	augustus_masked-SC_scaffold14603-processed-gene-0.0-mRNA-1	0.005	19	85	37.4	44.000	50	26	1	27	76	3	50
SCAR	maker-SC_scaffold5986-snap-gene-0.5-mRNA-1	0.005	11	82	36.2	50.000	30	15	0	49	78	45	74
SCAR	maker-SC_scaffold3638-snap-gene-0.21-mRNA-1	0.006	18	78	34.7	36.170	47	29	1	43	89	26	71
SCAR	augustus_masked-SC_scaffold51282-processed-gene-0.0-mRNA-1	0.007	26	77	34.3	26.087	69	46	2	28	96	9	72
SCAR	maker-SC_scaffold7577-snap-gene-0.22-mRNA-1	0.008	23	82	36.2	31.746	63	41	1	34	94	42	104
SCAR	maker-SC_scaffold3594-snap-gene-0.63-mRNA-1	0.012	23	82	36.2	36.508	63	35	3	22	83	26	84
SCAR	maker-SC_scaffold45533-augustus-gene-0.15-mRNA-1	0.014	18	81	35.8	38.298	47	27	1	37	83	40	84
SCAR	augustus_masked-SC_scaffold96194-processed-gene-0.0-mRNA-1	0.020	15	77	34.3	35.897	39	25	0	43	81	80	118
SCAR	maker-SC_scaffold47627-snap-gene-0.6-mRNA-1	0.021	27	79	35.0	29.487	78	45	3	25	94	29	104
SCAR	snap_masked-SC_scaffold112075-processed-gene-0.1-mRNA-1	0.023	18	76	33.9	40.426	47	26	1	37	83	37	81
SCAR	maker-SC_scaffold36990-snap-gene-0.10-mRNA-1	0.025	30	77	34.3	31.646	79	50	3	17	95	71	145
SCAR	snap_masked-SC_scaffold136697-processed-gene-0.16-mRNA-1	0.030	14	72	32.3	37.838	37	22	1	41	77	11	46
SCAR	maker-SC_scaffold2062-snap-gene-0.5-mRNA-1	0.035	17	78	34.7	40.000	45	24	1	37	81	17	58
SCAR	snap_masked-SC_scaffold120659-processed-gene-0.0-mRNA-1	0.040	14	70	31.6	35.897	39	23	2	49	86	19	56
SCAR	augustus_masked-SC_scaffold41754-processed-gene-0.0-mRNA-1	0.042	15	77	34.3	37.500	40	24	1	37	76	9	47
SCAR	maker-SC_scaffold130653-snap-gene-0.51-mRNA-1	0.043	15	72	32.3	40.000	40	24	0	44	83	14	53
SCAR	augustus_masked-SC_scaffold8450-processed-gene-0.0-mRNA-1	0.045	19	76	33.9	35.849	53	32	1	43	93	21	73
SCAR	maker-SC_scaffold116372-augustus-gene-0.4-mRNA-1	0.048	18	72	32.3	36.170	47	29	1	43	89	51	96
SCAR	snap_masked-SC_scaffold32313-processed-gene-0.0-mRNA-1	0.049	14	70	31.6	37.838	37	22	1	41	77	11	46
SCAR	snap_masked-SC_scaffold111256-processed-gene-0.4-mRNA-1	0.058	14	69	31.2	35.897	39	23	2	49	86	19	56
SCAR	snap_masked-SC_scaffold141964-processed-gene-0.2-mRNA-1	0.058	14	70	31.6	35.135	37	23	1	41	77	11	46
SCAR	snap_masked-SC_scaffold2202-processed-gene-0.54-mRNA-1	0.060	12	75	33.5	45.161	31	16	1	51	81	24	53
SCAR	maker-SC_scaffold4685-augustus-gene-0.11-mRNA-1	0.063	21	76	33.9	37.500	56	29	4	22	76	14	64
SCAR	maker-SC_scaffold115477-snap-gene-0.9-mRNA-1	0.070	25	74	33.1	32.308	65	40	3	17	81	110	170
SCAR	maker-SC_scaffold123823-snap-gene-0.187-mRNA-1	0.077	15	75	33.5	38.462	39	23	1	48	86	38	75
SCAR	maker-SC_scaffold5903-snap-gene-0.11-mRNA-1	0.084	17	74	33.1	34.615	52	24	2	44	89	214	261
SCAR	maker-SC_scaffold96481-snap-gene-0.13-mRNA-1	0.084	26	72	32.3	23.529	68	51	1	43	110	13	79
SCAR	maker-SC_scaffold146083-snap-gene-0.34-mRNA-1	0.084	10	74	33.1	46.429	28	13	1	51	76	156	183
SCAR	maker-SC_scaffold26073-snap-gene-0.4-mRNA-1	0.12	25	73	32.7	28.788	66	37	3	28	93	7	62
SCAR	augustus_masked-SC_scaffold99475-processed-gene-0.0-mRNA-1	0.13	14	73	32.7	42.105	38	21	1	39	76	21	57
SCAR	augustus_masked-SC_scaffold4817-processed-gene-0.7-mRNA-1	0.14	16	72	32.3	35.714	42	27	0	35	76	2	43
SCAR	augustus_masked-SC_scaffold4817-processed-gene-0.5-mRNA-1	0.14	16	72	32.3	35.714	42	27	0	35	76	2	43
SCAR	maker-SC_scaffold7460-augustus-gene-0.10-mRNA-1	0.14	15	73	32.7	38.636	44	22	2	42	81	6	48
SCAR	maker-SC_scaffold51959-augustus-gene-0.100-mRNA-1	0.15	11	72	32.3	50.000	28	13	1	51	78	92	118
SCAR	maker-SC_scaffold603-augustus-gene-0.45-mRNA-1	0.15	15	72	32.3	35.897	39	24	1	43	81	11	48
SCAR	snap_masked-SC_scaffold140741-processed-gene-0.14-mRNA-1	0.16	19	68	30.8	34.615	52	32	2	53	103	2	52
SCAR	augustus_masked-SC_scaffold121769-processed-gene-0.0-mRNA-1	0.17	20	72	32.3	38.462	52	28	2	25	76	21	68
SCAR	maker-SC_scaffold142721-snap-gene-0.4-mRNA-1	0.17	10	68	30.8	42.857	28	14	1	51	76	37	64
SCAR	maker-SC_scaffold44698-snap-gene-0.10-mRNA-1	0.19	20	72	32.3	38.889	54	30	2	45	96	226	278
SCAR	maker-SC_scaffold44698-snap-gene-0.10-mRNA-1	0.59	20	68	30.8	40.625	32	18	1	45	76	136	166
SCAR	snap_masked-SC_scaffold115273-processed-gene-0.11-mRNA-1	0.23	25	70	31.6	28.788	66	37	3	28	93	7	62
SCAR	snap_masked-SC_scaffold82018-processed-gene-0.1-mRNA-1	0.23	11	71	32.0	44.828	29	16	0	48	76	87	115
SCAR	snap_masked-SC_scaffold5445-processed-gene-0.0-mRNA-1	0.24	14	69	31.2	42.105	38	18	2	51	88	24	57
SCAR	maker-SC_scaffold2185-augustus-gene-0.72-mRNA-1	0.25	11	69	31.2	50.000	28	13	1	51	78	21	47
SCAR	snap_masked-SC_scaffold66841-processed-gene-0.2-mRNA-1	0.26	13	69	31.2	38.235	34	20	1	44	77	36	68
SCAR	snap_masked-SC_scaffold66841-processed-gene-0.2-mRNA-1	0.46	13	67	30.4	38.235	34	20	1	44	77	114	146
SCAR	augustus_masked-SC_scaffold130653-processed-gene-0.7-mRNA-1	0.27	15	70	31.6	41.026	39	23	0	45	83	15	53
SCAR	maker-SC_scaffold33290-snap-gene-0.22-mRNA-1	0.28	13	71	32.0	37.143	35	20	1	42	76	133	165
SCAR	snap_masked-SC_scaffold10428-processed-gene-0.27-mRNA-1	0.28	15	71	32.0	32.500	40	25	1	37	76	47	84
SCAR	snap_masked-SC_scaffold5713-processed-gene-0.6-mRNA-1	0.31	20	64	29.3	37.736	53	27	3	45	96	1	48
SCAR	maker-SC_scaffold138655-snap-gene-0.14-mRNA-1	0.31	16	70	31.6	31.707	41	28	0	48	88	9	49
SCAR	augustus_masked-SC_scaffold1168-processed-gene-0.2-mRNA-1	0.34	16	70	31.6	35.714	42	24	1	35	76	8	46
SCAR	snap_masked-SC_scaffold5724-processed-gene-0.12-mRNA-1	0.34	12	66	30.0	36.364	33	20	1	51	82	57	89
SCAR	maker-SC_scaffold8-augustus-gene-0.31-mRNA-1	0.35	13	70	31.6	35.294	34	21	1	43	76	443	475
SCAR	maker-SC_scaffold7933-snap-gene-0.16-mRNA-1	0.36	22	70	31.6	32.759	58	35	2	39	96	12	65
SCAR	augustus_masked-SC_scaffold130653-processed-gene-0.6-mRNA-1	0.38	15	69	31.2	41.026	39	23	0	45	83	15	53
SCAR	maker-SC_scaffold142891-snap-gene-0.113-mRNA-1	0.40	10	69	31.2	42.308	26	15	0	51	76	52	77
SCAR	augustus_masked-SC_scaffold75569-processed-gene-0.9-mRNA-1	0.41	14	69	31.2	37.838	37	21	2	51	86	21	56
SCAR	maker-SC_scaffold23299-augustus-gene-0.48-mRNA-1	0.41	12	69	31.2	40.625	32	18	1	45	76	152	182
SCAR	augustus_masked-SC_scaffold2863-processed-gene-0.9-mRNA-1	0.42	16	69	31.2	29.268	41	29	0	45	85	43	83
SCAR	snap_masked-SC_scaffold126422-processed-gene-0.0-mRNA-1	0.43	12	65	29.6	41.935	31	17	1	51	81	24	53
SCAR	maker-SC_scaffold99985-augustus-gene-0.12-mRNA-1	0.44	15	69	31.2	35.897	39	21	1	38	76	20	54
SCAR	augustus_masked-SC_scaffold145648-processed-gene-0.2-mRNA-1	0.45	22	69	31.2	27.119	59	35	2	31	89	2	52
SCAR	augustus_masked-SC_scaffold116024-processed-gene-0.0-mRNA-1	0.45	16	67	30.4	31.707	41	26	1	36	76	46	84
SCAR	augustus_masked-SC_scaffold130653-processed-gene-0.9-mRNA-1	0.47	13	69	31.2	42.424	33	19	0	51	83	21	53
SCAR	augustus_masked-SC_scaffold126346-processed-gene-0.0-mRNA-1	0.48	13	69	31.2	42.857	35	19	1	51	85	329	362
SCAR	augustus_masked-SC_scaffold60345-processed-gene-0.0-mRNA-1	0.51	16	68	30.8	34.884	43	24	1	41	83	18	56
SCAR	augustus_masked-SC_scaffold15105-processed-gene-0.0-mRNA-1	0.51	12	69	31.2	40.625	32	18	1	45	76	13	43
SCAR	snap_masked-SC_scaffold1757-processed-gene-0.24-mRNA-1	0.53	13	68	30.8	37.143	35	22	0	49	83	23	57
SCAR	snap_masked-SC_scaffold2024-processed-gene-0.10-mRNA-1	0.56	12	67	30.4	37.500	32	19	1	45	76	8	38
SCAR	augustus_masked-SC_scaffold35339-processed-gene-0.4-mRNA-1	0.59	15	67	30.4	42.500	40	20	1	37	76	72	108
SCAR	snap_masked-SC_scaffold94340-processed-gene-0.2-mRNA-1	0.59	25	68	30.8	29.231	65	36	3	29	93	8	62
SCAR	augustus_masked-SC_scaffold65058-processed-gene-0.1-mRNA-1	0.66	16	67	30.4	31.707	41	26	1	36	76	46	84
SCAR	augustus_masked-SC_scaffold20410-processed-gene-0.3-mRNA-1	0.67	20	67	30.4	32.692	52	32	1	25	76	20	68
SCAR	snap_masked-SC_scaffold67566-processed-gene-0.1-mRNA-1	0.68	12	63	28.9	43.750	32	17	1	51	82	22	52
SCAR	snap_masked-SC_scaffold62289-processed-gene-0.1-mRNA-1	0.71	14	67	30.4	35.897	39	23	2	49	86	19	56
SCAR	maker-SC_scaffold11176-snap-gene-0.3-mRNA-1	0.76	10	62	28.5	32.143	28	17	1	51	76	12	39
SCAR	snap_masked-SC_scaffold13016-processed-gene-0.5-mRNA-1	0.80	16	67	30.4	33.333	45	26	2	43	84	13	56
SCAR	augustus_masked-SC_scaffold5881-processed-gene-0.5-mRNA-1	0.86	13	67	30.4	32.353	34	22	1	43	76	13	45
SCAR	maker-SC_scaffold126302-snap-gene-0.5-mRNA-1	0.86	22	66	30.0	28.788	66	38	2	44	100	195	260
SCAR	snap_masked-SC_scaffold768-processed-gene-0.10-mRNA-1	0.87	21	65	29.6	29.091	55	36	2	43	97	11	62
SCAR	maker-SC_scaffold4718-augustus-gene-0.66-mRNA-1	0.88	16	66	30.0	33.333	42	27	1	45	86	243	283
SCAR	snap_masked-SC_scaffold117063-processed-gene-0.1-mRNA-1	0.88	19	66	30.0	31.034	58	29	3	27	76	33	87
SCAR	maker-SC_scaffold3972-snap-gene-0.70-mRNA-1	0.89	14	66	30.0	33.333	36	23	1	49	84	22	56
SCAR	maker-SC_scaffold38775-snap-gene-0.5-mRNA-1	0.92	19	66	30.0	32.692	52	31	2	28	76	23	73
SCAR	augustus_masked-SC_scaffold111601-processed-gene-0.0-mRNA-1	0.96	16	65	29.6	31.707	41	26	1	36	76	46	84
SCAR	maker-SC_scaffold9379-snap-gene-0.13-mRNA-1	0.97	13	66	30.0	33.333	33	22	0	48	80	53	85
SCAR	augustus_masked-SC_scaffold13656-processed-gene-0.0-mRNA-1	0.99	14	66	30.0	37.838	37	23	0	47	83	45	81
SCAR	snap_masked-SC_scaffold142939-processed-gene-0.1-mRNA-1	1.0	16	62	28.5	33.333	45	26	2	43	84	13	56
SCAR	maker-SC_scaffold1925-snap-gene-0.15-mRNA-1	1.0	20	66	30.0	30.189	53	35	1	24	76	32	82
SCAR	augustus_masked-SC_scaffold19608-processed-gene-0.0-mRNA-1	1.0	16	66	30.0	37.209	43	24	1	34	76	34	73
SCAR	maker-SC_scaffold32205-snap-gene-0.4-mRNA-1	1.1	16	65	29.6	33.333	42	27	1	45	86	337	377
SCAR	augustus_masked-SC_scaffold140852-processed-gene-0.20-mRNA-1	1.2	16	65	29.6	37.209	43	24	1	34	76	36	75
SCAR	snap_masked-SC_scaffold142607-processed-gene-0.1-mRNA-1	1.2	18	64	29.3	34.694	49	31	1	29	76	28	76
SCAR	maker-SC_scaffold32573-augustus-gene-0.8-mRNA-1	1.2	15	65	29.6	35.897	39	21	1	38	76	13	47
SCAR	maker-SC_scaffold61258-snap-gene-0.20-mRNA-1	1.3	13	65	29.6	31.429	35	23	1	43	77	13	46
SCAR	maker-SC_scaffold12026-augustus-gene-0.99-mRNA-1	1.3	37	65	29.6	25.773	97	65	3	34	130	251	340
SCAR	augustus_masked-SC_scaffold60278-processed-gene-0.2-mRNA-1	1.4	15	64	29.3	35.897	39	21	1	38	76	13	47
SCAR	snap_masked-SC_scaffold12712-processed-gene-0.0-mRNA-1	1.5	14	63	28.9	35.135	37	23	1	40	76	16	51
SCAR	snap_masked-SC_scaffold115837-processed-gene-0.0-mRNA-1	1.5	16	64	29.3	34.146	41	25	1	36	76	43	81
SCAR	maker-SC_scaffold52248-snap-gene-0.15-mRNA-1	1.5	19	63	28.9	33.333	51	33	1	30	80	33	82
SCAR	maker-SC_scaffold6824-snap-gene-0.67-mRNA-1	1.5	25	64	29.3	28.169	71	44	3	36	102	5	72
SCAR	maker-SC_scaffold145639-snap-gene-0.697-mRNA-1	1.6	14	64	29.3	33.333	36	24	0	48	83	95	130
SCAR	maker-SC_scaffold146905-snap-gene-0.740-mRNA-1	1.8	40	63	28.9	25.893	112	64	3	87	191	84	183
SCAR	augustus_masked-SC_scaffold82236-processed-gene-0.0-mRNA-1	1.8	13	63	28.9	35.294	34	21	1	43	76	13	45
SCAR	maker-SC_scaffold426-augustus-gene-0.85-mRNA-1	1.8	13	64	29.3	35.294	34	21	1	43	76	1202	1234
SCAR	maker-SC_scaffold426-augustus-gene-0.85-mRNA-1	2.1	13	64	29.3	35.294	34	21	1	43	76	763	795
SCAR	augustus_masked-SC_scaffold113490-processed-gene-0.2-mRNA-1	1.8	11	62	28.5	48.276	29	15	0	48	76	37	65
SCAR	augustus_masked-SC_scaffold535-processed-gene-0.4-mRNA-1	1.9	13	64	29.3	37.143	35	20	1	42	76	139	171
SCAR	snap_masked-SC_scaffold1690-processed-gene-0.38-mRNA-1	1.9	12	64	29.3	40.625	32	18	1	45	76	49	79
SCAR	maker-SC_scaffold2306-snap-gene-0.162-mRNA-1	1.9	14	64	29.3	34.211	38	25	0	39	76	174	211
SCAR	augustus_masked-SC_scaffold1232-processed-gene-0.5-mRNA-1	2.0	18	64	29.3	31.915	47	31	1	30	76	42	87
SCAR	maker-SC_scaffold35339-snap-gene-0.39-mRNA-1	2.1	20	63	28.9	32.692	52	32	1	25	76	20	68
SCAR	maker-SC_scaffold7149-snap-gene-0.117-mRNA-1	2.1	13	64	29.3	35.294	34	21	1	43	76	13	45
SCAR	maker-SC_scaffold53502-snap-gene-0.16-mRNA-1	2.3	13	62	28.5	35.294	34	21	1	43	76	137	169
SCAR	augustus_masked-SC_scaffold9926-processed-gene-0.0-mRNA-1	2.3	19	63	28.9	30.189	53	32	2	47	95	16	67
SCAR	maker-SC_scaffold3087-snap-gene-0.9-mRNA-1	2.4	15	63	28.9	33.333	39	24	1	38	76	133	169
SCAR	snap_masked-SC_scaffold168-processed-gene-0.4-mRNA-1	2.6	12	62	28.5	46.875	32	16	1	45	76	13	43
SCAR	maker-SC_scaffold107909-snap-gene-0.14-mRNA-1	2.7	16	62	28.5	34.146	41	26	1	48	88	9	48
SCAR	augustus_masked-SC_scaffold41860-processed-gene-0.0-mRNA-1	2.7	12	63	28.9	37.500	32	19	1	45	76	10	40
SCAR	maker-SC_scaffold95239-augustus-gene-0.7-mRNA-1	2.8	19	62	28.5	30.000	50	35	0	27	76	22	71
SCAR	maker-SC_scaffold16424-augustus-gene-0.44-mRNA-1	2.9	34	61	28.1	22.826	92	62	4	54	144	64	147
SCAR	maker-SC_scaffold1089-snap-gene-0.36-mRNA-1	2.9	15	62	28.5	37.500	40	24	1	37	76	380	418
SCAR	snap_masked-SC_scaffold7843-processed-gene-0.1-mRNA-1	2.9	11	63	28.9	33.333	33	19	1	47	76	1626	1658
SCAR	snap_masked-SC_scaffold136081-processed-gene-0.1-mRNA-1	3.1	18	60	27.7	32.653	49	32	1	29	76	28	76
SCAR	augustus_masked-SC_scaffold123823-processed-gene-0.29-mRNA-1	3.4	11	62	28.5	41.379	29	16	1	48	76	42	69
SCAR	maker-SC_scaffold129117-snap-gene-0.4-mRNA-1	3.4	36	62	28.5	28.000	100	59	3	122	215	389	481
SCAR	augustus_masked-SC_scaffold50422-processed-gene-0.0-mRNA-1	3.5	18	59	27.3	29.787	47	33	0	48	94	60	106
SCAR	snap_masked-SC_scaffold58384-processed-gene-0.1-mRNA-1	3.6	9	61	28.1	39.394	33	10	1	235	257	419	451
SCAR	maker-SC_scaffold50854-snap-gene-0.5-mRNA-1	4.2	12	61	28.1	40.625	32	19	0	133	164	573	604
SCAR	maker-SC_scaffold4555-snap-gene-0.14-mRNA-1	4.2	10	61	28.1	42.308	26	15	0	51	76	73	98
SCAR	augustus_masked-SC_scaffold124357-processed-gene-0.0-mRNA-1	4.3	16	61	28.1	31.707	41	27	1	36	76	5	44
SCAR	maker-SC_scaffold1690-snap-gene-0.103-mRNA-1	4.3	12	61	28.1	40.625	32	18	1	45	76	45	75
SCAR	maker-SC_scaffold1751-augustus-gene-0.18-mRNA-1	4.5	21	60	27.7	25.000	56	36	1	183	238	101	150
SCAR	augustus_masked-SC_scaffold74460-processed-gene-0.1-mRNA-1	4.5	15	61	28.1	32.500	40	25	1	37	76	19	56
SCAR	maker-SC_scaffold140446-augustus-gene-0.12-mRNA-1	4.5	16	60	27.7	30.000	50	27	2	146	188	140	188
SCAR	snap_masked-SC_scaffold3686-processed-gene-0.11-mRNA-1	4.5	17	60	27.7	30.435	46	31	1	31	76	116	160
SCAR	maker-SC_scaffold117747-snap-gene-0.8-mRNA-1	4.7	20	60	27.7	34.615	52	30	1	81	132	8	55
SCAR	augustus_masked-SC_scaffold124141-processed-gene-0.1-mRNA-1	5.3	16	59	27.3	35.714	42	27	0	209	250	20	61
SCAR	augustus_masked-SC_scaffold70226-processed-gene-0.1-mRNA-1	5.3	16	59	27.3	35.714	42	27	0	209	250	20	61
SCAR	snap_masked-SC_scaffold21226-processed-gene-0.0-mRNA-1	5.9	16	56	26.2	31.707	41	27	1	48	88	9	48
SCAR	augustus_masked-SC_scaffold94865-processed-gene-0.0-mRNA-1	6.1	16	60	27.7	31.707	41	27	1	48	88	9	48
SCAR	maker-SC_scaffold138655-augustus-gene-0.12-mRNA-1	6.2	15	56	26.2	32.500	40	26	1	49	88	10	48
SCAR	maker-SC_scaffold24722-snap-gene-0.9-mRNA-1	6.5	14	57	26.6	34.211	38	24	1	43	80	17	53
SCAR	augustus_masked-SC_scaffold52322-processed-gene-0.39-mRNA-1	6.5	15	59	27.3	37.500	40	24	1	37	76	11	49
SCAR	augustus_masked-SC_scaffold46576-processed-gene-0.1-mRNA-1	6.6	15	59	27.3	37.500	40	24	1	37	76	11	49
SCAR	maker-SC_scaffold941-augustus-gene-0.4-mRNA-1	7.2	12	59	27.3	42.424	33	18	1	184	215	219	251
SCAR	augustus_masked-SC_scaffold85972-processed-gene-0.1-mRNA-1	7.2	18	57	26.6	31.373	51	30	2	29	76	30	78
SCAR	augustus_masked-SC_scaffold2372-processed-gene-0.1-mRNA-1	7.2	11	59	27.3	37.931	29	18	0	48	76	23	51
SCAR	maker-SC_scaffold5615-snap-gene-0.4-mRNA-1	7.2	31	58	26.9	26.744	86	59	2	176	258	11	95
SCAR	maker-SC_scaffold59493-augustus-gene-0.18-mRNA-1	7.4	13	58	26.9	32.353	34	22	1	43	76	43	75
SCAR	snap_masked-SC_scaffold17168-processed-gene-0.1-mRNA-1	7.6	11	59	27.3	37.931	29	18	0	48	76	42	70
SCAR	augustus_masked-SC_scaffold56319-processed-gene-0.0-mRNA-1	7.8	10	59	27.3	42.308	26	15	0	51	76	22	47
SCAR	augustus_masked-SC_scaffold3719-processed-gene-0.8-mRNA-1	7.8	11	58	26.9	37.931	29	18	0	48	76	19	47
SCAR	maker-SC_scaffold114003-snap-gene-0.26-mRNA-1	7.9	10	58	26.9	42.308	26	15	0	51	76	52	77
SCAR	maker-SC_scaffold4417-snap-gene-0.52-mRNA-1	8.9	16	58	26.9	30.233	43	29	1	51	93	203	244
SCAR	augustus_masked-SC_scaffold5606-processed-gene-0.3-mRNA-1	9.3	31	58	26.9	29.412	85	48	3	22	103	82	157
SCAR	augustus_masked-SC_scaffold34789-processed-gene-0.0-mRNA-1	9.8	14	58	26.9	36.111	36	23	0	51	86	22	57
