PDAM	XP_027038049.1	1.58e-139	94	1024	399	61.801	322	116	4	15	330	14	334
PDAM	XP_027043192.1	1.87e-10	66	145	60.5	27.155	232	112	11	49	269	21	206
PDAM	XP_027043193.1	2.32e-09	78	136	57.0	24.088	274	148	11	43	305	15	239
PDAM	XP_027043209.1	1.00e-08	69	131	55.1	24.051	237	128	7	40	271	5	194
PDAM	XP_027052159.1	8.88e-08	24	127	53.5	32.258	93	51	3	43	124	9	100
PDAM	XP_027052158.1	8.88e-08	24	127	53.5	32.258	93	51	3	43	124	9	100
PDAM	XP_027052157.1	8.88e-08	24	127	53.5	32.258	93	51	3	43	124	9	100
PDAM	XP_027052155.1	8.88e-08	24	127	53.5	32.258	93	51	3	43	124	9	100
PDAM	XP_027052154.1	8.88e-08	24	127	53.5	32.258	93	51	3	43	124	9	100
PDAM	XP_027044389.1	2.75e-07	21	124	52.4	38.667	75	38	3	45	113	15	87
PDAM	XP_027051971.1	3.38e-07	16	121	51.2	40.741	54	32	0	50	103	69	122
PDAM	XP_027052169.1	3.47e-07	79	121	51.2	21.269	268	151	7	45	309	11	221
PDAM	XP_027043207.1	4.63e-07	28	118	50.1	27.083	96	66	2	34	126	2	96
PDAM	XP_027043208.1	6.98e-07	28	117	49.7	27.083	96	66	2	34	126	2	96
PDAM	XP_027052174.1	9.26e-07	25	117	49.7	30.208	96	55	3	40	124	5	99
PDAM	XP_027059415.1	1.76e-06	22	117	49.7	37.662	77	40	4	45	119	368	438
PDAM	XP_027059416.1	1.83e-06	22	116	49.3	37.662	77	40	4	45	119	334	404
PDAM	XP_027045780.1	5.95e-06	26	112	47.8	28.090	89	60	3	25	113	23	107
PDAM	XP_027052175.1	7.34e-06	22	110	47.0	31.579	76	48	2	43	115	8	82
PDAM	XP_027060249.1	9.79e-06	15	110	47.0	39.216	51	30	1	51	101	375	424
PDAM	XP_027039091.1	1.94e-05	14	107	45.8	44.231	52	22	2	49	94	247	297
PDAM	XP_027058383.1	2.98e-05	19	106	45.4	33.846	65	40	2	39	103	34	95
PDAM	XP_027053177.1	3.19e-05	23	107	45.8	31.579	76	43	1	25	100	233	299
PDAM	XP_027053176.1	3.21e-05	23	107	45.8	31.579	76	43	1	25	100	233	299
PDAM	XP_027049113.1	3.34e-05	16	104	44.7	40.351	57	29	2	42	94	91	146
PDAM	XP_027050035.1	4.06e-05	16	103	44.3	35.185	54	33	2	42	94	10	62
PDAM	XP_027048548.1	5.09e-05	17	105	45.1	36.667	60	33	2	44	99	9	67
PDAM	XP_027049610.1	9.49e-05	21	100	43.1	29.333	75	49	2	44	115	11	84
PDAM	XP_027049837.1	1.01e-04	20	102	43.9	35.294	68	42	2	43	110	30	95
PDAM	XP_027047180.1	1.43e-04	66	101	43.5	22.634	243	149	7	27	248	815	1039
PDAM	XP_027040936.1	1.49e-04	13	97	42.0	50.000	42	19	2	51	92	14	53
PDAM	XP_027040937.1	1.78e-04	13	96	41.6	50.000	42	19	2	51	92	14	53
PDAM	XP_027040938.1	1.78e-04	13	97	42.0	50.000	42	19	2	51	92	5	44
PDAM	XP_027046515.1	1.93e-04	13	100	43.1	37.778	45	27	1	47	91	20	63
PDAM	XP_027058233.1	3.56e-04	20	98	42.4	27.941	68	48	1	49	116	680	746
PDAM	XP_027058230.1	3.76e-04	20	98	42.4	27.941	68	48	1	49	116	721	787
PDAM	XP_027058232.1	3.92e-04	20	98	42.4	27.941	68	48	1	49	116	714	780
PDAM	XP_027058231.1	3.92e-04	20	98	42.4	27.941	68	48	1	49	116	714	780
PDAM	XP_027058229.1	4.02e-04	20	98	42.4	27.941	68	48	1	49	116	739	805
PDAM	XP_027038558.1	5.68e-04	15	96	41.6	39.623	53	28	2	43	92	16	67
PDAM	XP_027059433.1	5.92e-04	13	96	41.6	36.364	44	27	1	47	90	844	886
PDAM	XP_027050747.1	9.00e-04	15	95	41.2	37.500	56	30	2	43	94	6	60
PDAM	XP_027044844.1	0.001	13	94	40.8	41.304	46	24	2	51	94	955	999
PDAM	XP_027043191.1	0.001	23	91	39.7	30.864	81	52	2	45	121	17	97
PDAM	XP_027050746.1	0.002	22	92	40.0	30.769	78	43	4	42	114	5	76
PDAM	XP_027048420.1	0.002	17	92	40.0	35.484	62	35	4	49	106	236	296
PDAM	XP_027055594.1	0.002	17	91	39.7	36.207	58	36	1	44	101	16	72
PDAM	XP_027055592.1	0.002	17	91	39.7	36.207	58	36	1	44	101	16	72
PDAM	XP_027055591.1	0.002	17	91	39.7	36.207	58	36	1	44	101	16	72
PDAM	XP_027048421.1	0.002	17	92	40.0	35.484	62	35	4	49	106	50	110
PDAM	XP_027048422.1	0.002	17	92	40.0	35.484	62	35	4	49	106	43	103
PDAM	XP_027043190.1	0.002	23	90	39.3	30.864	81	52	2	45	121	17	97
PDAM	XP_027055763.1	0.003	15	90	39.3	39.216	51	30	1	44	94	11	60
PDAM	XP_027049714.1	0.003	14	91	39.7	34.783	46	29	1	43	88	10	54
PDAM	XP_027046290.1	0.003	21	90	39.3	30.667	75	42	3	45	114	11	80
PDAM	XP_027037292.1	0.003	17	90	39.3	39.655	58	31	3	48	103	17	72
PDAM	XP_027059740.1	0.003	15	90	39.3	34.000	50	32	1	47	96	37	85
PDAM	XP_027041522.1	0.003	15	90	39.3	32.143	56	33	2	43	94	6	60
PDAM	XP_027050749.1	0.003	15	90	39.3	33.929	56	32	2	43	94	6	60
PDAM	XP_027052772.1	0.003	13	90	39.3	34.783	46	27	1	51	93	16	61
PDAM	XP_027051303.1	0.004	30	89	38.9	27.885	104	64	4	45	144	25	121
PDAM	XP_027050756.1	0.004	18	88	38.5	33.871	62	35	3	38	96	7	65
PDAM	XP_027058263.1	0.004	15	89	38.9	32.143	56	33	2	43	94	6	60
PDAM	XP_027047153.1	0.005	14	88	38.5	31.373	51	31	1	47	93	22	72
PDAM	XP_027041996.1	0.005	15	88	38.5	33.333	54	31	2	45	94	8	60
PDAM	XP_027036281.1	0.006	17	84	37.0	33.929	56	36	1	48	103	24	78
PDAM	XP_027050662.1	0.006	18	88	38.5	32.787	61	39	1	42	102	2266	2324
PDAM	XP_027057730.1	0.007	13	87	38.1	36.364	44	27	1	45	88	64	106
PDAM	XP_027037290.1	0.008	13	87	38.1	35.714	42	27	0	48	89	48	89
PDAM	XP_027050717.1	0.008	47	86	37.7	24.528	159	80	5	51	209	18	136
PDAM	XP_027050612.1	0.008	17	87	38.1	33.929	56	35	1	42	97	2429	2482
PDAM	XP_027047457.1	0.008	10	87	38.1	50.000	34	16	1	43	76	8	40
PDAM	XP_027041583.1	0.009	15	86	37.7	32.143	56	33	2	43	94	29	83
PDAM	XP_027042290.1	0.009	16	85	37.4	35.185	54	32	2	51	104	181	231
PDAM	XP_027050743.1	0.010	15	84	37.0	32.143	56	33	2	43	94	6	60
PDAM	XP_027048013.1	0.011	19	86	37.7	30.137	73	40	3	37	101	5	74
PDAM	XP_027057879.1	0.011	13	86	37.7	45.652	46	20	3	49	91	14	57
PDAM	XP_027050750.1	0.011	21	85	37.4	28.947	76	45	3	43	114	6	76
PDAM	XP_027037295.1	0.012	14	86	37.7	35.417	48	31	0	51	98	428	475
PDAM	XP_027036280.1	0.013	24	84	37.0	31.646	79	49	2	25	103	5	78
PDAM	XP_027053827.1	0.013	15	85	37.4	30.909	55	33	2	44	94	9	62
PDAM	XP_027039327.1	0.014	15	85	37.4	33.929	56	32	2	43	94	6	60
PDAM	XP_027042291.1	0.014	16	83	36.6	35.185	54	32	2	51	104	177	227
PDAM	XP_027060120.1	0.014	11	80	35.4	34.211	38	25	0	50	87	53	90
PDAM	XP_027047777.1	0.015	15	84	37.0	30.189	53	35	2	50	101	492	543
PDAM	XP_027047776.1	0.015	15	84	37.0	30.189	53	35	2	50	101	492	543
PDAM	XP_027047778.1	0.015	15	84	37.0	30.189	53	35	2	50	101	489	540
PDAM	XP_027047775.1	0.017	15	84	37.0	30.189	53	35	2	50	101	617	668
PDAM	XP_027047774.1	0.017	15	84	37.0	30.189	53	35	2	50	101	617	668
PDAM	XP_027047442.1	0.017	14	84	37.0	35.185	54	28	2	44	91	9	61
PDAM	XP_027040294.1	0.017	37	84	37.0	29.104	134	73	7	44	166	15	137
PDAM	XP_027050951.1	0.019	15	82	36.2	39.216	51	29	2	43	93	200	248
PDAM	XP_027043850.1	0.019	15	84	37.0	33.962	53	30	2	43	91	8	59
PDAM	XP_027039928.1	0.019	18	81	35.8	39.344	61	33	3	45	103	45	103
PDAM	XP_027040514.1	0.020	15	83	36.6	30.189	53	35	1	50	100	237	289
PDAM	XP_027039307.1	0.022	15	83	36.6	32.143	56	33	2	43	94	6	60
PDAM	XP_027047773.1	0.022	15	83	36.6	30.189	53	35	2	50	101	666	717
PDAM	XP_027044659.1	0.023	15	83	36.6	37.500	56	28	3	43	93	12	65
PDAM	XP_027047458.1	0.024	14	83	36.6	35.185	54	28	2	44	91	9	61
PDAM	XP_027045457.1	0.026	15	82	36.2	32.143	56	33	2	43	94	6	60
PDAM	XP_027056332.1	0.026	17	81	35.8	37.705	61	32	2	48	103	25	84
PDAM	XP_027045586.1	0.027	13	82	36.2	34.091	44	29	0	51	94	336	379
PDAM	XP_027057854.1	0.030	15	82	36.2	33.929	56	28	3	41	92	10	60
PDAM	XP_027051932.1	0.031	16	82	36.2	34.545	55	34	1	42	96	1302	1354
PDAM	XP_027058084.1	0.033	14	82	36.2	43.750	48	22	4	45	90	12	56
PDAM	XP_027051669.1	0.035	24	82	36.2	27.586	87	52	4	36	117	1	81
PDAM	XP_027053420.1	0.035	15	82	36.2	35.714	56	31	3	43	94	6	60
PDAM	XP_027051934.1	0.037	16	82	36.2	34.545	55	34	1	42	96	1270	1322
PDAM	XP_027046292.1	0.040	11	78	34.7	39.474	38	22	1	66	103	13	49
PDAM	XP_027055610.1	0.041	16	80	35.4	35.849	53	33	1	49	101	23	74
PDAM	XP_027041532.1	0.045	15	81	35.8	32.075	53	31	2	43	91	6	57
PDAM	XP_027060601.1	0.045	17	81	35.8	30.000	60	37	2	36	91	1	59
PDAM	XP_027041360.1	0.046	28	80	35.4	26.263	99	65	3	47	139	327	423
PDAM	XP_027047607.1	0.048	18	81	35.8	31.746	63	40	2	31	91	1829	1890
PDAM	XP_027050757.1	0.056	15	79	35.0	34.545	55	31	2	44	94	7	60
PDAM	XP_027046295.1	0.062	21	80	35.4	32.000	75	41	4	45	114	12	81
PDAM	XP_027046295.1	0.077	21	79	35.0	30.667	75	42	4	45	114	1012	1081
PDAM	XP_027057855.1	0.063	14	79	35.0	35.417	48	28	2	46	91	12	58
PDAM	XP_027054728.1	0.064	17	80	35.4	32.143	56	36	1	42	97	1645	1698
PDAM	XP_027045081.1	0.069	11	78	34.7	43.590	39	20	2	51	88	30	67
PDAM	XP_027041636.1	0.075	15	79	35.0	32.075	53	31	2	43	91	6	57
PDAM	XP_027043926.1	0.077	14	79	35.0	32.692	52	30	2	44	91	9	59
PDAM	XP_027047278.1	0.078	13	79	35.0	38.636	44	24	2	51	92	103	145
PDAM	XP_027038337.1	0.090	25	75	33.5	25.000	84	62	1	13	96	59	141
PDAM	XP_027037679.1	0.098	20	78	34.7	31.944	72	38	4	43	109	6	71
PDAM	XP_027048227.1	0.11	15	78	34.7	30.000	50	35	0	51	100	1136	1185
PDAM	XP_027048228.1	0.11	15	78	34.7	30.000	50	35	0	51	100	1125	1174
PDAM	XP_027057345.1	0.11	15	77	34.3	35.714	56	27	3	43	91	8	61
PDAM	XP_027040521.1	0.13	14	77	34.3	32.692	52	30	2	44	91	10	60
PDAM	XP_027040519.1	0.14	20	76	33.9	34.286	70	36	4	44	109	10	73
PDAM	XP_027057622.1	0.15	16	76	33.9	34.545	55	32	3	36	89	68	119
PDAM	XP_027045574.1	0.18	13	75	33.5	31.111	45	31	0	51	95	362	406
PDAM	XP_027046673.1	0.18	15	76	33.9	28.767	73	27	3	48	96	4	75
PDAM	XP_027057639.1	0.19	16	75	33.5	34.545	55	32	3	36	89	34	85
PDAM	XP_027057631.1	0.19	16	75	33.5	34.545	55	32	3	36	89	34	85
PDAM	XP_027047441.1	0.19	10	75	33.5	45.455	33	17	1	44	76	29	60
PDAM	XP_027047456.1	0.21	10	75	33.5	45.455	33	17	1	44	76	29	60
PDAM	XP_027057147.1	0.21	15	75	33.5	29.091	55	34	2	44	94	9	62
PDAM	XP_027035845.1	0.22	15	75	33.5	30.909	55	33	2	44	94	7	60
PDAM	XP_027057344.1	0.23	15	75	33.5	30.909	55	31	2	43	91	8	61
PDAM	XP_027052420.1	0.25	14	74	33.1	28.261	46	32	1	45	90	14	58
PDAM	XP_027045410.1	0.25	13	74	33.1	30.233	43	29	1	48	90	576	617
PDAM	XP_027045409.1	0.25	13	74	33.1	30.233	43	29	1	48	90	576	617
PDAM	XP_027045408.1	0.25	13	74	33.1	30.233	43	29	1	48	90	576	617
PDAM	XP_027045407.1	0.25	13	74	33.1	30.233	43	29	1	48	90	581	622
PDAM	XP_027043889.1	0.27	13	74	33.1	32.558	43	27	2	50	91	699	740
PDAM	XP_027059271.1	0.29	15	72	32.3	33.333	54	31	2	44	93	9	61
PDAM	XP_027043356.1	0.31	17	73	32.7	33.929	56	32	1	45	100	29	79
PDAM	XP_027048220.1	0.31	17	74	33.1	32.759	58	32	2	43	100	985	1035
PDAM	XP_027059504.1	0.34	16	73	32.7	27.273	55	39	1	50	104	384	437
PDAM	XP_027035844.1	0.35	15	73	32.7	29.091	55	34	2	44	94	7	60
PDAM	XP_027045730.1	0.38	15	73	32.7	29.412	51	34	1	45	93	19	69
PDAM	XP_027056168.1	0.41	15	73	32.7	31.373	51	35	0	44	94	8	58
PDAM	XP_027055627.1	0.42	16	72	32.3	32.075	53	35	1	49	101	23	74
PDAM	XP_027052883.1	0.44	17	73	32.7	34.483	58	26	4	45	100	960	1007
PDAM	XP_027060582.1	0.45	14	72	32.3	29.412	51	31	2	45	91	10	59
PDAM	XP_027040060.1	0.52	10	72	32.3	40.625	32	18	1	45	76	14	44
PDAM	XP_027053418.1	0.55	15	72	32.3	28.571	56	35	2	43	94	6	60
PDAM	XP_027051935.1	0.57	16	71	32.0	34.545	55	34	1	42	96	261	313
PDAM	XP_027046589.1	0.63	12	71	32.0	34.783	46	25	2	48	88	541	586
PDAM	XP_027048230.1	0.63	14	71	32.0	32.609	46	31	0	51	96	623	668
PDAM	XP_027045172.1	0.65	15	71	32.0	32.075	53	34	1	48	98	23	75
PDAM	XP_027043491.1	0.89	14	70	31.6	32.653	49	31	2	45	92	11	58
PDAM	XP_027056696.1	0.93	14	69	31.2	28.261	46	33	0	50	95	235	280
PDAM	XP_027060211.1	0.97	8	67	30.4	40.741	27	16	0	50	76	19	45
PDAM	XP_027040875.1	1.1	16	69	31.2	35.294	68	28	4	39	92	194	259
PDAM	XP_027060580.1	1.1	17	69	31.2	26.667	60	39	2	36	91	1	59
PDAM	XP_027058704.1	1.2	21	69	31.2	26.250	80	48	4	21	90	31	109
PDAM	XP_027058703.1	1.2	21	69	31.2	26.250	80	48	4	21	90	31	109
PDAM	XP_027059293.1	1.2	12	69	31.2	35.000	40	25	1	45	84	14	52
PDAM	XP_027060210.1	1.3	8	66	30.0	40.741	27	16	0	50	76	19	45
PDAM	XP_027060209.1	1.3	8	66	30.0	40.741	27	16	0	50	76	19	45
PDAM	XP_027045161.1	1.5	11	68	30.8	30.556	36	25	0	49	84	18	53
PDAM	XP_027041448.1	1.7	8	63	28.9	42.857	28	15	1	49	76	27	53
PDAM	XP_027057604.1	1.9	11	67	30.4	32.432	37	25	0	44	80	11	47
PDAM	XP_027049182.1	2.0	15	67	30.4	31.481	54	34	2	51	102	27	79
PDAM	XP_027048472.1	2.1	15	66	30.0	26.000	50	36	1	43	92	11	59
PDAM	XP_027044176.1	2.1	12	67	30.4	28.000	50	27	1	51	91	1320	1369
PDAM	XP_027060513.1	2.3	16	66	30.0	30.645	62	35	3	37	90	117	178
PDAM	XP_027044183.1	2.4	12	67	30.4	28.000	50	27	1	51	91	1320	1369
PDAM	XP_027048471.1	2.5	15	66	30.0	26.000	50	36	1	43	92	11	59
PDAM	XP_027044615.1	2.6	28	66	30.0	29.787	94	59	4	194	287	95	181
PDAM	XP_027044614.1	2.6	28	66	30.0	29.787	94	59	4	194	287	95	181
PDAM	XP_027048470.1	2.9	15	65	29.6	26.000	50	36	1	43	92	11	59
PDAM	XP_027041593.1	3.0	15	64	29.3	30.769	52	33	2	51	100	160	210
PDAM	XP_027048226.1	3.7	12	65	29.6	30.000	40	28	0	51	90	780	819
PDAM	XP_027057163.1	4.7	13	63	28.9	32.609	46	30	1	50	94	311	356
PDAM	XP_027045694.1	4.9	24	63	28.9	32.099	81	46	6	24	102	411	484
PDAM	XP_027051666.1	5.9	14	63	28.9	30.769	52	31	3	43	90	6	56
PDAM	XP_027039186.1	6.6	16	63	28.9	33.962	53	31	3	51	103	308	356
PDAM	XP_027041482.1	7.0	18	62	28.5	27.692	65	40	3	44	103	22	84
PDAM	XP_027054983.1	7.8	20	62	28.5	28.788	66	47	0	262	327	84	149
PDAM	XP_027060193.1	8.3	15	62	28.5	28.000	50	35	1	38	87	9	57
PDAM	XP_027054982.1	8.4	20	62	28.5	28.788	66	47	0	262	327	84	149
PDAM	XP_027054981.1	8.4	20	62	28.5	28.788	66	47	0	262	327	84	149
PDAM	XP_027057390.1	9.1	15	61	28.1	30.357	56	32	2	66	117	293	345
