ATHA	NP_001323369.1	3.44e-24	25	253	102	50.000	84	42	0	38	121	1	84
ATHA	NP_001323367.1	3.44e-24	25	253	102	50.000	84	42	0	38	121	1	84
ATHA	NP_001318915.1	3.92e-24	26	255	102	48.276	87	45	0	38	124	92	178
ATHA	NP_171873.2	4.34e-24	26	255	102	48.276	87	45	0	38	124	90	176
ATHA	NP_001184901.1	4.41e-24	26	255	102	48.276	87	45	0	38	124	92	178
ATHA	NP_001331587.1	5.31e-24	23	252	101	53.247	77	36	0	45	121	8	84
ATHA	NP_199241.2	7.80e-24	32	254	102	44.144	111	57	2	25	130	109	219
ATHA	NP_001323368.1	2.30e-18	17	209	85.1	60.714	56	22	0	66	121	2	57
ATHA	NP_001154760.1	3.20e-09	32	140	58.5	33.884	121	58	5	25	130	109	222
ATHA	NP_172162.3	1.21e-07	23	127	53.5	37.500	80	47	2	38	114	3	82
ATHA	NP_180854.1	1.41e-07	20	127	53.5	39.706	68	38	3	45	112	46	110
ATHA	NP_001321540.1	1.46e-07	23	126	53.1	37.500	80	47	2	38	114	3	82
ATHA	NP_001323802.1	6.64e-07	24	120	50.8	34.146	82	51	2	49	127	18	99
ATHA	NP_565702.1	6.93e-07	24	121	51.2	34.146	82	51	2	49	127	18	99
ATHA	NP_001323803.1	6.93e-07	24	121	51.2	34.146	82	51	2	49	127	18	99
ATHA	NP_187376.1	1.64e-06	18	113	48.1	43.548	62	33	2	40	101	116	175
ATHA	NP_001327588.1	1.64e-06	18	113	48.1	43.548	62	33	2	40	101	116	175
ATHA	NP_001078119.1	1.64e-06	18	113	48.1	43.548	62	33	2	40	101	116	175
ATHA	NP_193839.4	3.62e-06	20	116	49.3	40.299	67	36	4	48	114	13	75
ATHA	NP_974908.1	4.07e-06	16	111	47.4	45.283	53	27	2	49	101	146	196
ATHA	NP_851156.1	4.07e-06	16	111	47.4	45.283	53	27	2	49	101	146	196
ATHA	NP_568701.1	4.07e-06	16	111	47.4	45.283	53	27	2	49	101	146	196
ATHA	NP_001332108.1	4.07e-06	16	111	47.4	45.283	53	27	2	49	101	146	196
ATHA	NP_001332107.1	4.07e-06	16	111	47.4	45.283	53	27	2	49	101	146	196
ATHA	NP_001318762.1	4.07e-06	16	111	47.4	45.283	53	27	2	49	101	146	196
ATHA	NP_850306.1	8.00e-06	30	113	48.1	34.615	104	59	4	8	107	32	130
ATHA	NP_197667.1	3.25e-05	16	108	46.2	41.818	55	29	3	51	104	794	846
ATHA	NP_200879.1	8.72e-05	13	104	44.7	42.553	47	23	1	51	93	72	118
ATHA	NP_001327765.1	1.27e-04	20	103	44.3	37.681	69	40	2	49	114	14	82
ATHA	NP_188946.2	1.31e-04	20	102	43.9	37.681	69	40	2	49	114	14	82
ATHA	NP_196132.3	1.36e-04	13	103	44.3	40.909	44	25	1	51	94	635	677
ATHA	NP_191038.2	1.54e-04	13	102	43.9	40.426	47	24	1	51	93	74	120
ATHA	NP_001326108.1	1.89e-04	13	102	43.9	40.426	47	24	1	51	93	123	169
ATHA	NP_001326107.1	1.89e-04	13	102	43.9	40.426	47	24	1	51	93	124	170
ATHA	NP_001030861.1	1.98e-04	13	101	43.5	40.426	47	24	1	51	93	75	121
ATHA	NP_974433.2	2.09e-04	13	101	43.5	40.426	47	24	1	51	93	74	120
ATHA	NP_001319035.1	3.27e-04	31	99	42.7	28.571	105	60	5	51	154	196	286
ATHA	NP_849688.1	3.72e-04	31	99	42.7	28.571	105	60	5	51	154	196	286
ATHA	NP_849687.1	3.72e-04	31	99	42.7	28.571	105	60	5	51	154	196	286
ATHA	NP_564060.1	3.72e-04	31	99	42.7	28.571	105	60	5	51	154	196	286
ATHA	NP_172283.1	6.07e-04	13	97	42.0	38.298	47	25	1	51	93	69	115
ATHA	NP_195818.1	6.13e-04	17	97	42.0	33.898	59	36	2	38	94	337	394
ATHA	NP_189369.1	6.87e-04	16	97	42.0	37.037	54	33	1	45	98	718	770
ATHA	NP_199166.1	7.54e-04	13	97	42.0	42.222	45	24	2	51	94	1040	1083
ATHA	NP_174766.2	0.001	26	94	40.8	30.693	101	57	3	51	139	129	228
ATHA	NP_001321104.1	0.002	23	94	40.8	28.395	81	52	2	15	90	788	867
ATHA	NP_179128.1	0.002	13	93	40.4	40.816	49	22	2	50	91	122	170
ATHA	NP_001154428.1	0.002	23	93	40.4	28.395	81	52	2	15	90	290	369
ATHA	NP_564680.4	0.002	23	94	40.8	28.395	81	52	2	15	90	807	886
ATHA	NP_974454.1	0.003	14	92	40.0	41.667	48	26	2	51	97	139	185
ATHA	NP_974453.1	0.003	14	92	40.0	41.667	48	26	2	51	97	139	185
ATHA	NP_191362.2	0.003	14	92	40.0	41.667	48	26	2	51	97	139	185
ATHA	NP_001190122.1	0.003	14	92	40.0	41.667	48	26	2	51	97	139	185
ATHA	NP_001328497.1	0.004	25	90	39.3	28.916	83	54	3	31	113	92	169
ATHA	NP_001328496.1	0.004	25	90	39.3	28.916	83	54	3	31	113	92	169
ATHA	NP_001328495.1	0.004	25	90	39.3	28.916	83	54	3	31	113	92	169
ATHA	NP_192599.2	0.004	25	90	39.3	28.916	83	54	3	31	113	92	169
ATHA	NP_001078357.1	0.004	25	90	39.3	28.916	83	54	3	31	113	92	169
ATHA	NP_175188.3	0.005	18	90	39.3	32.836	67	36	3	30	91	121	183
ATHA	NP_001320313.1	0.005	18	89	38.9	32.836	67	36	3	30	91	121	183
ATHA	NP_001328494.1	0.005	25	89	38.9	28.916	83	54	3	31	113	92	169
ATHA	NP_001077687.1	0.007	18	88	38.5	32.836	67	36	3	30	91	108	170
ATHA	NP_180947.1	0.007	15	85	37.4	35.185	54	31	2	42	92	82	134
ATHA	NP_181765.1	0.010	16	86	37.7	35.088	57	33	2	51	104	108	163
ATHA	NP_187951.1	0.010	21	86	37.7	31.081	74	48	2	31	102	205	277
ATHA	NP_001326174.1	0.010	21	86	37.7	31.081	74	48	2	31	102	205	277
ATHA	NP_001189879.1	0.010	21	86	37.7	31.081	74	48	2	31	102	205	277
ATHA	NP_001030687.1	0.010	21	86	37.7	31.081	74	48	2	31	102	205	277
ATHA	NP_974448.1	0.011	14	86	37.7	40.000	50	27	2	47	94	182	230
ATHA	NP_567039.1	0.011	14	86	37.7	40.000	50	27	2	47	94	182	230
ATHA	NP_001030874.1	0.011	14	86	37.7	40.000	50	27	2	47	94	182	230
ATHA	NP_564078.1	0.015	14	84	37.0	36.000	50	29	2	51	98	23	71
ATHA	NP_193085.1	0.015	13	84	37.0	37.500	48	24	2	51	92	22	69
ATHA	NP_182022.2	0.020	13	85	37.4	40.476	42	24	1	49	90	824	864
ATHA	NP_001326197.1	0.026	19	84	37.0	33.333	72	38	3	37	100	231	300
ATHA	NP_001326196.1	0.026	19	84	37.0	33.333	72	38	3	37	100	231	300
ATHA	NP_001326195.1	0.026	19	84	37.0	33.333	72	38	3	37	100	231	300
ATHA	NP_001326193.1	0.026	19	84	37.0	33.333	72	38	3	37	100	231	300
ATHA	NP_200310.1	0.026	13	82	36.2	44.681	47	23	2	49	93	172	217
ATHA	NP_001326198.1	0.027	19	84	37.0	33.333	72	38	3	37	100	231	300
ATHA	NP_189307.2	0.028	19	84	37.0	33.333	72	38	3	37	100	231	300
ATHA	NP_001326194.1	0.030	19	83	36.6	33.333	72	38	3	37	100	231	300
ATHA	NP_001326192.1	0.030	19	83	36.6	33.333	72	38	3	37	100	231	300
ATHA	NP_199477.1	0.038	23	81	35.8	34.524	84	38	4	49	126	112	184
ATHA	NP_563717.1	0.046	13	82	36.2	38.298	47	26	2	51	95	589	634
ATHA	NP_173311.1	0.046	21	80	35.4	28.169	71	48	2	26	94	150	219
ATHA	NP_568910.1	0.047	18	81	35.8	33.333	63	39	2	45	105	193	254
ATHA	NP_001331469.1	0.054	18	81	35.8	33.333	63	39	2	45	105	298	359
ATHA	NP_189408.1	0.054	13	81	35.8	41.304	46	24	2	35	77	104	149
ATHA	NP_180545.2	0.066	13	80	35.4	34.043	47	28	2	50	94	243	288
ATHA	NP_001078725.1	0.074	10	80	35.4	42.424	33	18	1	45	76	228	260
ATHA	NP_191112.1	0.076	16	79	35.0	34.545	55	33	2	41	93	201	254
ATHA	NP_001185233.1	0.079	23	80	35.4	24.468	94	53	2	15	90	792	885
ATHA	NP_001190484.1	0.081	10	80	35.4	42.424	33	18	1	45	76	286	318
ATHA	NP_199554.2	0.082	10	80	35.4	42.424	33	18	1	45	76	289	321
ATHA	NP_001330705.1	0.084	10	80	35.4	42.424	33	18	1	45	76	302	334
ATHA	NP_176239.1	0.086	17	79	35.0	30.000	60	38	3	38	94	210	268
ATHA	NP_187218.1	0.11	26	79	35.0	27.957	93	60	5	50	136	412	503
ATHA	NP_001325508.1	0.11	26	79	35.0	27.957	93	60	5	50	136	412	503
ATHA	NP_001325507.1	0.11	26	79	35.0	27.957	93	60	5	50	136	412	503
ATHA	NP_001185234.1	0.12	23	78	34.7	24.468	94	53	2	15	90	290	383
ATHA	NP_001318575.1	0.12	8	79	35.0	40.741	27	16	0	66	92	150	176
ATHA	NP_188049.1	0.12	16	76	33.9	37.288	59	32	3	49	103	86	143
ATHA	NP_974274.1	0.13	21	76	33.9	29.577	71	47	2	31	99	101	170
ATHA	NP_181609.4	0.14	13	78	34.7	32.000	50	26	2	51	92	1344	1393
ATHA	NP_001325178.1	0.14	13	78	34.7	32.000	50	26	2	51	92	1344	1393
ATHA	NP_001318395.1	0.14	13	78	34.7	32.000	50	26	2	51	92	1344	1393
ATHA	NP_001330703.1	0.15	10	78	34.7	42.424	33	18	1	45	76	289	321
ATHA	NP_001330704.1	0.15	10	78	34.7	42.424	33	18	1	45	76	302	334
ATHA	NP_565206.1	0.17	19	77	34.3	32.836	67	34	3	36	100	342	399
ATHA	NP_176092.2	0.17	21	77	34.3	28.571	70	48	2	44	113	139	206
ATHA	NP_001319260.1	0.17	21	77	34.3	28.571	70	48	2	44	113	139	206
ATHA	NP_001323608.1	0.17	17	76	33.9	34.921	63	33	4	51	106	118	179
ATHA	NP_564172.1	0.18	13	75	33.5	32.653	49	28	2	50	94	9	56
ATHA	NP_974045.1	0.18	21	77	34.3	28.571	70	48	2	44	113	139	206
ATHA	NP_001190129.1	0.22	12	75	33.5	34.884	43	25	2	51	91	172	213
ATHA	NP_181044.1	0.22	17	75	33.5	34.921	63	33	4	51	106	96	157
ATHA	NP_568264.1	0.24	12	75	33.5	42.857	42	20	2	51	90	43	82
ATHA	NP_199134.1	0.26	13	74	33.1	38.298	47	26	1	51	94	156	202
ATHA	NP_001326028.1	0.26	12	75	33.5	34.884	43	25	2	51	91	172	213
ATHA	NP_198841.1	0.27	12	75	33.5	43.902	41	22	1	67	107	162	201
ATHA	NP_187176.2	0.29	12	74	33.1	28.000	50	27	1	51	91	22	71
ATHA	NP_001326029.1	0.36	12	73	32.7	34.884	43	25	2	51	91	164	205
ATHA	NP_191431.1	0.39	12	73	32.7	34.884	43	25	2	51	91	144	185
ATHA	NP_171773.1	0.39	8	75	33.5	40.741	27	16	0	66	92	177	203
ATHA	NP_177343.2	0.41	14	74	33.1	29.167	48	32	1	47	92	228	275
ATHA	NP_193545.1	0.43	10	72	32.3	42.424	33	18	1	67	99	176	207
ATHA	NP_191581.1	0.45	15	73	32.7	36.538	52	29	2	51	99	117	167
ATHA	NP_199155.1	0.46	16	73	32.7	32.143	56	34	2	51	103	138	192
ATHA	NP_172962.1	0.48	14	71	32.0	39.583	48	27	1	51	96	86	133
ATHA	NP_565037.1	0.52	21	71	32.0	28.571	77	31	3	67	135	25	85
ATHA	NP_566498.1	0.54	15	73	32.7	32.143	56	32	3	51	101	428	482
ATHA	NP_001189897.1	0.54	15	73	32.7	32.143	56	32	3	51	101	428	482
ATHA	NP_567206.1	0.55	9	73	32.7	40.000	30	18	0	48	77	1558	1587
ATHA	NP_199572.1	0.56	18	70	31.6	32.308	65	40	2	47	108	103	166
ATHA	NP_196210.1	0.56	14	70	31.6	36.364	55	26	2	48	94	89	142
ATHA	NP_568096.1	0.69	13	72	32.3	30.952	42	27	2	50	91	364	403
ATHA	NP_001322042.1	0.69	15	72	32.3	29.091	55	34	2	47	96	296	350
ATHA	NP_001319153.1	0.70	26	71	32.0	26.667	90	58	2	24	111	212	295
ATHA	NP_001119003.1	0.74	25	71	32.0	26.596	94	58	4	51	134	155	247
ATHA	NP_001322041.1	0.76	15	71	32.0	29.091	55	34	2	47	96	214	268
ATHA	NP_001322039.1	0.76	15	71	32.0	29.091	55	34	2	47	96	214	268
ATHA	NP_001190515.1	0.78	49	72	32.3	24.699	166	100	8	51	213	337	480
ATHA	NP_001190751.1	0.84	9	72	32.3	36.667	30	18	1	48	76	285	314
ATHA	NP_001190750.1	0.84	9	72	32.3	36.667	30	18	1	48	76	285	314
ATHA	NP_200582.3	0.85	15	71	32.0	29.032	62	31	2	51	100	321	381
ATHA	NP_193471.2	0.85	9	72	32.3	36.667	30	18	1	48	76	285	314
ATHA	NP_001328573.1	0.85	9	72	32.3	36.667	30	18	1	48	76	285	314
ATHA	NP_001323324.1	0.95	17	71	32.0	31.250	64	36	3	45	101	673	735
ATHA	NP_180709.3	0.95	16	71	32.0	33.929	56	36	1	36	90	122	177
ATHA	NP_001329841.1	1.0	25	70	31.6	26.596	94	58	4	51	134	181	273
ATHA	NP_188242.1	1.0	26	70	31.6	23.256	86	66	0	146	231	67	152
ATHA	NP_568374.1	1.0	12	70	31.6	40.476	42	21	2	51	90	46	85
ATHA	NP_001332224.1	1.0	12	70	31.6	40.476	42	21	2	51	90	46	85
ATHA	NP_171931.1	1.1	16	70	31.6	32.143	56	34	2	51	103	134	188
ATHA	NP_564568.1	1.1	17	71	32.0	31.250	64	36	3	45	101	673	735
ATHA	NP_001323326.1	1.1	17	71	32.0	31.250	64	36	3	45	101	673	735
ATHA	NP_001323325.1	1.1	17	71	32.0	31.250	64	36	3	45	101	673	735
ATHA	NP_001319898.1	1.2	13	71	32.0	31.818	44	29	1	51	94	31	73
ATHA	NP_001329515.1	1.2	13	70	31.6	31.818	44	29	1	51	94	31	73
ATHA	NP_189503.1	1.3	13	68	30.8	34.043	47	28	1	51	94	160	206
ATHA	NP_001327761.1	1.3	29	70	31.6	24.528	106	64	4	3	101	711	807
ATHA	NP_001327759.1	1.3	29	70	31.6	24.528	106	64	4	3	101	711	807
ATHA	NP_001327756.1	1.3	29	70	31.6	24.528	106	64	4	3	101	711	807
ATHA	NP_173681.1	1.3	13	70	31.6	29.545	44	29	1	51	92	232	275
ATHA	NP_196599.2	1.3	9	70	31.6	36.667	30	19	0	48	77	1561	1590
ATHA	NP_001318169.1	1.3	13	67	30.4	34.043	47	29	1	51	95	74	120
ATHA	NP_001190339.1	1.4	12	68	30.8	40.476	42	21	2	51	90	31	70
ATHA	NP_001324416.1	1.4	16	69	31.2	33.929	56	36	1	36	90	122	177
ATHA	NP_564016.1	1.4	17	69	31.2	29.508	61	36	3	35	91	49	106
ATHA	NP_001320762.1	1.5	18	66	30.0	33.333	63	32	3	43	104	6	59
ATHA	NP_001320761.1	1.5	18	66	30.0	33.333	63	32	3	43	104	6	59
ATHA	NP_001320543.1	1.5	17	69	31.2	29.508	61	36	3	35	91	49	106
ATHA	NP_001324417.1	1.6	16	69	31.2	33.929	56	36	1	36	90	50	105
ATHA	NP_001328572.1	1.6	9	69	31.2	36.667	30	18	1	48	76	285	314
ATHA	NP_001328571.1	1.6	9	69	31.2	36.667	30	18	1	48	76	285	314
ATHA	NP_849552.1	1.6	46	69	31.2	25.786	159	87	8	51	205	337	468
ATHA	NP_194253.2	1.6	46	69	31.2	25.786	159	87	8	51	205	337	468
ATHA	NP_001328533.1	1.6	46	69	31.2	25.786	159	87	8	51	205	337	468
ATHA	NP_567118.1	1.6	17	68	30.8	33.333	57	34	2	44	100	56	108
ATHA	NP_188635.1	1.7	29	69	31.2	24.528	106	64	4	3	101	711	807
ATHA	NP_001327760.1	1.7	29	69	31.2	24.528	106	64	4	3	101	711	807
ATHA	NP_001319598.1	1.7	29	69	31.2	24.528	106	64	4	3	101	711	807
ATHA	NP_195645.1	1.8	13	69	31.2	30.612	49	28	1	51	93	39	87
ATHA	NP_176889.1	1.9	15	68	30.8	29.091	55	34	2	47	96	296	350
ATHA	NP_001322040.1	1.9	15	68	30.8	29.091	55	34	2	47	96	296	350
ATHA	NP_567525.1	2.0	14	66	30.0	36.735	49	28	1	51	96	102	150
ATHA	NP_201279.1	2.1	13	69	31.2	30.000	50	29	1	51	94	39	88
ATHA	NP_973633.2	2.1	14	68	30.8	30.612	49	31	3	47	94	392	438
ATHA	NP_973631.1	2.1	14	68	30.8	30.612	49	31	3	47	94	386	432
ATHA	NP_565884.2	2.1	14	68	30.8	30.612	49	31	3	47	94	386	432
ATHA	NP_199667.1	2.1	20	68	30.8	33.333	69	43	2	74	140	348	415
ATHA	NP_195527.1	2.2	15	65	29.6	34.615	52	31	2	48	96	59	110
ATHA	NP_565253.2	2.3	13	66	30.0	34.043	47	29	1	51	95	100	146
ATHA	NP_001117398.1	2.3	15	67	30.4	34.615	52	30	2	46	94	149	199
ATHA	NP_001322044.1	2.4	15	67	30.4	29.091	55	34	2	47	96	214	268
ATHA	NP_001322043.1	2.4	15	67	30.4	29.091	55	34	2	47	96	214	268
ATHA	NP_001332226.1	2.4	12	67	30.4	40.476	42	21	2	51	90	47	86
ATHA	NP_001332225.1	2.4	12	67	30.4	40.476	42	21	2	51	90	47	86
ATHA	NP_188282.1	2.5	13	68	30.8	33.333	42	27	1	47	88	391	431
ATHA	NP_001330141.1	2.6	20	67	30.4	33.333	69	43	2	74	140	348	415
ATHA	NP_176309.2	2.7	13	68	30.8	31.915	47	29	2	50	94	985	1030
ATHA	NP_199549.2	2.8	21	67	30.4	27.143	70	46	1	165	234	8	72
ATHA	NP_568760.1	2.8	15	67	30.4	34.615	52	30	2	51	99	337	387
ATHA	NP_001117525.1	2.8	12	67	30.4	33.333	39	25	1	50	88	827	864
ATHA	NP_001327757.1	2.9	27	67	30.4	23.404	94	61	3	3	94	420	504
ATHA	NP_001327758.1	2.9	27	67	30.4	23.404	94	61	3	3	94	445	529
ATHA	NP_001324450.1	3.2	13	65	29.6	34.043	47	29	1	51	95	123	169
ATHA	NP_001331656.1	3.2	21	67	30.4	27.143	70	46	1	165	234	8	72
ATHA	NP_001184958.1	3.3	12	67	30.4	35.897	39	24	1	50	88	961	998
ATHA	NP_001320184.1	3.3	12	67	30.4	35.897	39	24	1	50	88	962	999
ATHA	NP_001331654.1	3.5	21	66	30.0	27.143	70	46	1	165	234	8	72
ATHA	NP_172577.2	3.6	12	67	30.4	35.897	39	24	1	50	88	918	955
ATHA	NP_176225.1	3.6	16	66	30.0	36.364	55	33	2	43	96	275	328
ATHA	NP_001320182.1	4.0	12	66	30.0	35.897	39	24	1	50	88	819	856
ATHA	NP_567846.1	4.0	18	66	30.0	34.921	63	37	2	51	110	134	195
ATHA	NP_001320183.1	4.3	12	66	30.0	35.897	39	24	1	50	88	775	812
ATHA	NP_001331655.1	4.4	21	65	29.6	27.143	70	46	1	165	234	8	72
ATHA	NP_194517.1	4.4	17	65	29.6	28.070	57	37	1	44	100	57	109
ATHA	NP_186955.1	4.4	8	66	30.0	37.037	27	16	1	66	92	152	177
ATHA	NP_001321213.1	4.5	27	65	29.6	40.625	32	18	1	45	76	526	556
ATHA	NP_001321213.1	5.1	27	65	29.6	22.222	81	60	2	57	135	163	242
ATHA	NP_176091.2	4.6	27	65	29.6	40.625	32	18	1	45	76	522	552
ATHA	NP_176091.2	5.5	27	65	29.6	22.222	81	60	2	57	135	163	242
ATHA	NP_189904.1	4.7	13	64	29.3	31.111	45	28	1	35	76	43	87
ATHA	NP_973632.1	4.9	14	65	29.6	30.612	49	31	3	47	94	291	337
ATHA	NP_181357.2	5.0	14	65	29.6	28.846	52	24	3	50	95	352	396
ATHA	NP_180450.2	5.1	13	65	29.6	32.143	56	25	3	50	94	318	371
ATHA	NP_001324023.1	5.2	14	65	29.6	28.846	52	24	3	50	95	349	393
ATHA	NP_196381.1	5.6	8	64	29.3	39.286	28	15	1	51	76	157	184
ATHA	NP_001118406.1	5.6	13	64	29.3	32.143	56	25	3	50	94	304	357
ATHA	NP_196807.2	6.0	25	64	29.3	31.395	86	55	2	17	101	211	293
ATHA	NP_200123.2	6.1	12	64	29.3	45.455	44	20	3	51	91	330	372
ATHA	NP_196549.1	6.1	13	65	29.6	28.571	49	29	1	51	93	39	87
ATHA	NP_174800.2	6.2	26	64	29.3	25.556	90	59	2	24	111	212	295
ATHA	NP_001325749.1	7.4	17	64	29.3	31.579	57	38	1	203	258	1024	1080
ATHA	NP_182278.1	7.6	13	62	28.5	34.043	47	27	2	51	94	108	153
ATHA	NP_200833.1	7.8	13	63	28.9	27.778	54	30	3	51	95	301	354
ATHA	NP_001325750.1	7.9	17	64	29.3	31.579	57	38	1	203	258	832	888
ATHA	NP_001320469.1	7.9	20	63	28.9	28.571	70	46	2	266	331	250	319
ATHA	NP_198771.1	8.2	11	63	28.9	39.535	43	19	2	45	81	489	530
ATHA	NP_192753.1	8.3	24	62	28.5	30.120	83	49	3	67	147	130	205
ATHA	NP_001325748.1	8.6	17	63	28.9	31.579	57	38	1	203	258	1050	1106
ATHA	NP_001319661.1	9.1	17	63	28.9	31.579	57	38	1	203	258	1024	1080
ATHA	NP_199342.2	9.2	16	63	28.9	29.825	57	33	2	51	105	490	541
ATHA	NP_001118467.1	9.7	14	62	28.5	27.451	51	26	2	50	95	274	318
ATHA	NP_190140.1	9.9	16	62	28.5	36.066	61	30	4	22	76	71	128
