SROS	XP_004995828.1	5.52e-38	42	340	135	47.183	142	74	1	19	160	11	151
SROS	XP_004995496.1	3.59e-35	41	326	130	45.652	138	74	1	18	155	4	140
SROS	XP_004989461.1	1.32e-09	44	140	58.5	30.769	104	68	2	28	128	314	416
SROS	XP_004989461.1	0.98	44	67	30.4	38.298	47	26	1	247	293	497	540
SROS	XP_004989731.1	4.98e-06	13	112	47.8	46.667	45	21	2	50	94	4874	4915
SROS	XP_004997949.1	7.79e-06	14	109	46.6	39.130	46	27	1	51	96	135	179
SROS	XP_004989812.1	2.42e-05	13	106	45.4	44.444	45	22	2	50	94	4558	4599
SROS	XP_004990757.1	2.53e-05	16	106	45.4	43.396	53	26	2	49	101	343	391
SROS	XP_004991042.1	2.74e-05	13	106	45.4	44.444	45	22	2	50	94	4302	4343
SROS	XP_004990562.1	1.73e-04	15	98	42.4	34.000	50	32	1	45	94	581	629
SROS	XP_004989948.1	2.41e-04	17	95	41.2	39.286	56	31	3	47	102	80	132
SROS	XP_004997812.1	5.00e-04	27	95	41.2	30.108	93	58	4	47	136	690	778
SROS	XP_004996950.1	5.97e-04	25	94	40.8	34.091	88	53	4	45	129	310	395
SROS	XP_004998238.1	7.81e-04	19	93	40.4	35.821	67	39	3	49	113	15	79
SROS	XP_004998000.1	0.002	14	90	39.3	39.130	46	23	1	51	96	351	391
SROS	XP_004989339.1	0.003	15	88	38.5	35.185	54	31	2	53	103	420	472
SROS	XP_004998507.1	0.003	21	88	38.5	30.263	76	48	3	44	115	46	120
SROS	XP_004992291.1	0.003	17	88	38.5	32.143	56	37	1	37	92	9	63
SROS	XP_004998535.1	0.011	18	84	37.0	32.812	64	35	3	44	105	83	140
SROS	XP_004989936.1	0.018	18	82	36.2	33.871	62	37	3	50	109	361	420
SROS	XP_004993216.1	0.049	13	78	34.7	30.612	49	28	2	48	91	875	922
SROS	XP_004994505.1	0.050	14	73	32.7	35.185	54	29	1	45	92	9	62
SROS	XP_004998268.1	0.070	14	77	34.3	31.250	48	30	2	48	94	65	110
SROS	XP_004989982.1	0.076	15	76	33.9	33.962	53	31	2	45	94	399	450
SROS	XP_004994120.1	0.083	15	77	34.3	32.000	50	33	1	43	91	1379	1428
SROS	XP_004996392.1	0.084	13	70	31.6	34.884	43	27	1	51	92	35	77
SROS	XP_004996157.1	0.092	13	75	33.5	33.333	45	28	2	49	93	276	318
SROS	XP_004991521.1	0.10	20	75	33.5	33.333	66	42	2	45	110	3	66
SROS	XP_004993132.1	0.13	16	75	33.5	28.169	71	30	3	50	103	1537	1603
SROS	XP_004996237.1	0.14	29	73	32.7	30.303	99	62	6	44	139	23	117
SROS	XP_004994262.1	0.16	27	74	33.1	29.412	102	54	6	9	100	539	632
SROS	XP_004988240.1	0.34	20	71	32.0	30.986	71	43	3	44	110	309	377
SROS	XP_004997917.1	0.45	15	70	31.6	35.294	51	29	2	40	88	554	602
SROS	XP_004995309.1	0.60	8	70	31.6	35.714	28	18	0	49	76	31	58
SROS	XP_004997126.1	0.60	22	68	30.8	23.288	73	45	3	51	123	149	210
SROS	XP_004997945.1	0.73	15	68	30.8	30.508	59	33	3	43	94	459	516
SROS	XP_004997145.1	0.74	22	67	30.4	23.288	73	45	3	51	123	144	205
SROS	XP_004993610.1	0.99	33	67	30.4	23.016	126	81	3	51	161	301	425
SROS	XP_004994900.1	1.1	28	67	30.4	29.412	102	62	4	7	99	126	226
SROS	XP_004994398.1	1.1	24	67	30.4	28.409	88	54	3	13	91	1542	1629
SROS	XP_004994041.1	1.4	9	66	30.0	43.333	30	17	0	71	100	81	110
SROS	XP_004991282.1	1.4	14	66	30.0	35.417	48	30	1	48	94	27	74
SROS	XP_004994962.1	1.9	41	65	29.6	24.823	141	93	6	28	165	400	530
SROS	XP_004998478.1	3.4	26	63	28.9	25.000	104	59	2	2	87	20	122
SROS	XP_004998821.1	5.4	15	61	28.1	26.415	53	37	1	101	151	171	223
SROS	XP_004988387.1	5.5	24	62	28.5	27.907	86	56	2	157	236	153	238
SROS	XP_004997151.1	6.9	5	61	28.1	50.000	16	8	0	61	76	87	102
SROS	XP_004995527.1	7.7	15	60	27.7	34.000	50	33	0	243	292	326	375
SROS	XP_004996675.1	7.9	21	60	27.7	26.506	83	48	4	39	110	1731	1811
SROS	XP_004998601.1	9.7	7	60	27.7	44.000	25	10	1	67	91	1664	1684
