SDIP.australia	m.789755	9.44e-45	44	388	154	46.259	147	79	0	13	159	1	147
SDIP.australia	m.284112	2.22e-40	75	363	144	32.453	265	155	6	15	267	34	286
SDIP.australia	m.92734	4.56e-09	84	135	56.6	22.917	288	142	11	49	331	75	287
SDIP.australia	m.712501	1.75e-05	25	108	46.2	36.471	85	46	5	32	116	113	189
SDIP.australia	m.112311	3.36e-04	18	97	42.0	38.333	60	36	1	44	102	244	303
SDIP.australia	m.531635	6.59e-04	20	95	41.2	33.333	75	39	4	46	113	348	418
SDIP.australia	m.531623	8.26e-04	20	94	40.8	33.333	75	39	4	46	113	348	418
SDIP.australia	m.36484	0.002	12	91	39.7	43.902	41	21	2	51	91	49	87
SDIP.australia	m.179681	0.004	15	88	38.5	35.294	51	31	2	51	101	302	350
SDIP.australia	m.88827	0.004	28	86	37.7	30.303	99	61	4	1	94	54	149
SDIP.australia	m.37888	0.006	13	87	38.1	45.238	42	21	1	51	92	588	627
SDIP.australia	m.143270	0.007	13	86	37.7	40.909	44	24	1	51	92	269	312
SDIP.australia	m.38693	0.016	14	83	36.6	31.481	54	31	1	43	90	13	66
SDIP.australia	m.443671	0.016	13	84	37.0	33.333	48	28	1	51	94	656	703
SDIP.australia	m.402166	0.017	15	83	36.6	39.623	53	28	2	45	94	14	65
SDIP.australia	m.36474	0.018	13	83	36.6	40.909	44	24	2	51	94	49	90
SDIP.australia	m.177104	0.020	14	83	36.6	34.783	46	29	1	49	94	626	670
SDIP.australia	m.615022	0.031	17	81	35.8	29.825	57	37	2	38	94	9	62
SDIP.australia	m.21567	0.038	12	80	35.4	40.426	47	19	2	51	91	247	290
SDIP.australia	m.421533	0.052	14	79	35.0	36.364	55	27	2	48	94	251	305
SDIP.australia	m.374347	0.072	18	78	34.7	30.000	70	38	3	51	110	296	364
SDIP.australia	m.159064	0.080	13	77	34.3	38.000	50	24	2	49	92	167	215
SDIP.australia	m.132943	0.083	16	77	34.3	35.714	56	31	3	51	104	183	235
SDIP.australia	m.175042	0.10	14	76	33.9	35.417	48	28	2	51	96	162	208
SDIP.australia	m.82778	0.11	23	77	34.3	33.333	81	49	4	51	128	361	439
SDIP.australia	m.21508	0.22	12	74	33.1	40.426	47	19	2	51	91	247	290
SDIP.australia	m.309197	0.23	13	74	33.1	39.130	46	25	2	51	94	359	403
SDIP.australia	m.430855	0.23	15	74	33.1	30.357	56	34	2	51	102	223	277
SDIP.australia	m.16860	0.30	46	73	32.7	23.567	157	96	6	49	202	21	156
SDIP.australia	m.375838	0.35	13	73	32.7	36.170	47	27	2	51	94	587	633
SDIP.australia	m.293949	0.37	27	71	32.0	27.368	95	58	5	45	136	147	233
SDIP.australia	m.294021	0.38	27	72	32.3	27.368	95	58	5	45	136	229	315
SDIP.australia	m.277660	0.42	15	72	32.3	36.364	55	30	3	46	97	276	328
SDIP.australia	m.200174	0.50	19	71	32.0	29.688	64	40	2	32	94	10	69
SDIP.australia	m.585677	1.00	14	69	31.2	27.083	48	34	1	45	92	782	828
SDIP.australia	m.163506	1.1	15	68	30.8	35.714	56	28	3	48	96	476	530
SDIP.australia	m.21554	1.3	9	68	30.8	41.667	36	15	1	51	80	247	282
SDIP.australia	m.265909	2.1	14	66	30.0	29.167	48	32	1	45	92	164	209
SDIP.australia	m.1033977	2.5	16	66	30.0	28.070	57	38	2	41	95	452	507
SDIP.australia	m.661486	3.0	37	65	29.6	25.781	128	89	3	34	157	356	481
SDIP.australia	m.333535	3.5	20	64	29.3	30.000	80	42	3	25	91	66	144
SDIP.australia	m.121177	3.5	38	64	29.3	27.907	129	84	5	180	308	323	442
SDIP.australia	m.333489	3.9	20	64	29.3	30.000	80	42	3	25	91	66	144
SDIP.australia	m.1222925	4.0	14	58	26.9	31.250	48	31	1	249	296	5	50
SDIP.australia	m.95812	4.4	13	63	28.9	33.333	42	27	1	50	91	114	154
SDIP.australia	m.904778	4.7	7	56	26.2	44.444	27	12	1	72	95	17	43
SDIP.australia	m.864308	4.8	10	63	28.9	47.059	34	16	1	56	89	462	493
SDIP.australia	m.321691	8.6	20	56	26.2	28.947	76	37	3	28	94	6	73
SDIP.australia	m.76660	9.8	13	60	27.7	35.556	45	24	3	49	90	270	312
