TSPH	RDD44654.1	2.16e-48	91	409	162	33.739	329	121	9	18	258	8	327
TSPH	RDD38109.1	0.004	12	85	37.4	50.000	32	15	1	47	78	816	846
TSPH	RDD40539.1	0.008	14	81	35.8	42.105	38	22	0	43	80	21	58
TSPH	RDD40811.1	0.014	14	80	35.4	43.243	37	20	1	47	83	22	57
TSPH	RDD42799.1	0.016	10	81	35.8	53.846	26	11	1	51	76	24	48
TSPH	RDD43059.1	0.024	14	72	32.3	36.111	36	23	0	47	82	7	42
TSPH	RDD42702.1	0.041	17	75	33.5	31.111	45	31	0	40	84	7	51
TSPH	RDD45665.1	0.087	16	74	33.1	34.146	41	27	0	51	91	1271	1311
TSPH	RDD46147.1	0.13	17	72	32.3	40.426	47	26	2	42	87	77	122
TSPH	RDD40548.1	0.41	28	69	31.2	29.114	79	52	1	40	114	730	808
TSPH	RDD40012.1	0.60	12	67	30.4	40.625	32	18	1	45	76	361	391
TSPH	RDD43416.1	0.72	25	67	30.4	27.692	65	43	3	25	89	24	84
TSPH	RDD46249.1	1.0	15	65	29.6	32.500	40	26	1	37	76	235	273
TSPH	RDD42076.1	1.3	16	65	29.6	31.250	48	28	1	34	76	265	312
TSPH	RDD37163.1	4.1	13	59	27.3	36.842	38	19	2	49	81	126	163
TSPH	RDD40713.1	5.2	12	59	27.3	37.500	32	20	0	51	82	22	53
TSPH	RDD38447.1	6.4	13	59	27.3	39.394	33	19	1	48	80	225	256
TSPH	RDD41428.1	6.7	17	59	27.3	36.364	44	25	2	33	76	16	56
TSPH	RDD47286.1	7.1	20	59	27.3	29.032	62	32	3	29	80	7	66
TSPH	RDD37461.1	7.4	20	58	26.9	32.075	53	34	2	41	92	120	171
TSPH	RDD41371.1	8.8	17	57	26.6	31.915	47	27	2	218	263	92	134
