TADH	XP_002108615.1	4.69e-78	36	603	236	73.973	146	38	0	15	160	1	146
TADH	XP_002117642.1	1.63e-06	22	105	45.1	32.632	95	58	4	21	111	3	95
TADH	XP_002114733.1	9.65e-06	12	104	44.7	44.444	54	24	3	46	94	118	170
TADH	XP_002114614.1	3.42e-05	19	101	43.5	34.568	81	49	2	46	123	14	93
TADH	XP_002109891.1	2.37e-04	21	97	42.0	30.682	88	56	4	23	109	25	108
TADH	XP_002111243.1	6.01e-04	20	90	39.3	26.506	83	57	2	33	112	3	84
TADH	XP_002117834.1	0.002	11	89	38.9	43.478	46	24	2	45	90	225	268
TADH	XP_002114795.1	0.002	19	87	38.1	26.829	82	56	2	40	118	6	86
TADH	XP_002113932.1	0.008	7	84	37.0	46.429	28	15	0	64	91	25	52
TADH	XP_002110348.1	0.010	14	82	36.2	37.288	59	32	3	36	91	181	237
TADH	XP_002109608.1	0.023	12	81	35.8	32.759	58	31	1	41	90	1186	1243
TADH	XP_002114236.1	0.032	11	78	34.7	35.417	48	26	2	48	91	87	133
TADH	XP_002115187.1	0.038	11	77	34.3	35.556	45	27	2	47	91	176	218
TADH	XP_002113939.1	0.058	14	76	33.9	29.688	64	38	2	34	91	235	297
TADH	XP_002108239.1	0.13	19	74	33.1	25.490	102	53	4	48	126	280	381
TADH	XP_002115875.1	0.19	10	67	30.4	39.130	46	24	2	48	89	34	79
TADH	XP_002109650.1	0.37	13	70	31.6	37.500	56	33	2	44	97	105	160
TADH	XP_002116960.1	0.92	13	65	29.6	27.273	55	37	2	47	99	27	80
TADH	XP_002113584.1	1.4	13	64	29.3	23.881	67	36	2	65	116	23	89
TADH	XP_002117466.1	1.5	10	65	29.6	32.500	40	26	1	48	87	566	604
TADH	XP_002107666.1	1.5	11	64	29.3	29.787	47	31	1	47	91	221	267
TADH	XP_002113156.1	2.1	11	64	29.3	29.787	47	30	1	46	89	1	47
TADH	XP_002112826.1	5.1	6	61	28.1	44.000	25	14	0	310	334	877	901
TADH	XP_002113634.1	5.8	10	60	27.7	40.000	40	23	1	48	86	22	61
TADH	XP_002116583.1	6.1	8	59	27.3	32.353	34	20	1	58	88	25	58
TADH	XP_002107658.1	8.6	10	59	27.3	36.585	41	24	2	46	86	10	48
TADH	XP_002115433.1	9.2	11	59	27.3	26.923	52	31	2	48	93	25	75
