HNAN	m.27466	2.84e-16	25	188	77.0	49.231	65	33	0	17	81	8	72
HNAN	m.251238	4.63e-07	14	118	50.1	52.778	36	17	0	45	80	58	93
HNAN	m.229346	0.005	18	86	37.7	32.727	55	29	1	30	76	186	240
HNAN	m.12380	0.006	12	86	37.7	50.000	32	15	1	45	76	43	73
HNAN	m.416959	0.016	82	82	36.2	20.225	267	122	9	43	259	96	321
HNAN	m.127928	0.017	13	82	36.2	45.455	33	17	1	51	83	36	67
HNAN	m.123719	0.025	12	80	35.4	45.161	31	15	1	46	76	198	226
HNAN	m.37854	0.047	15	79	35.0	35.000	40	25	1	38	76	7	46
HNAN	m.415120	0.048	38	79	35.0	22.018	109	69	3	51	151	1135	1235
HNAN	m.165991	0.17	16	74	33.1	38.636	44	21	2	40	80	235	275
HNAN	m.57810	0.37	10	72	32.3	38.462	26	16	0	51	76	621	646
HNAN	m.118395	0.38	11	71	32.0	41.379	29	16	1	51	78	500	528
HNAN	m.34331	0.41	11	71	32.0	35.714	28	18	0	49	76	433	460
HNAN	m.43996	0.48	13	70	31.6	34.286	35	23	0	49	83	208	242
HNAN	m.44007	0.49	11	70	31.6	39.286	28	17	0	49	76	208	235
HNAN	m.381931	0.57	14	70	31.6	47.222	36	17	2	41	76	100	133
HNAN	m.123368	0.84	13	68	30.8	36.364	33	20	1	45	77	28	59
HNAN	m.347680	1.6	13	66	30.0	29.412	34	24	0	49	82	1268	1301
HNAN	m.29432	2.0	15	65	29.6	30.000	40	25	1	38	77	158	194
HNAN	m.232331	2.0	17	65	29.6	30.435	46	28	2	34	79	202	243
HNAN	m.350045	2.0	20	65	29.6	34.615	52	33	1	80	131	863	913
HNAN	m.119367	2.1	13	65	29.6	36.364	33	20	1	44	76	42	73
HNAN	m.148410	2.9	12	62	28.5	36.364	33	19	1	51	81	95	127
HNAN	m.362858	3.1	13	64	29.3	30.556	36	22	1	44	76	4	39
HNAN	m.42998	3.2	12	64	29.3	29.032	31	22	0	45	75	38	68
HNAN	m.153160	3.4	13	64	29.3	36.364	33	21	0	51	83	639	671
HNAN	m.363269	3.8	13	63	28.9	30.556	36	22	1	44	76	4	39
HNAN	m.242783	4.7	13	62	28.5	34.286	35	22	1	51	84	32	66
HNAN	m.206277	5.1	14	62	28.5	31.579	38	26	0	26	63	72	109
HNAN	m.96831	5.8	17	62	28.5	23.913	46	30	1	23	68	629	669
HNAN	m.104543	5.8	58	62	28.5	23.377	154	96	5	43	194	425	558
HNAN	m.216135	6.2	30	62	28.5	25.641	78	55	1	31	108	816	890
HNAN	m.22821	6.9	22	61	28.1	33.871	62	35	2	22	79	965	1024
HNAN	m.424536	7.8	34	61	28.1	26.923	104	53	4	19	107	257	352
HNAN	m.120653	7.9	10	60	27.7	38.462	26	16	0	51	76	196	221
HNAN	m.306057	8.3	16	60	27.7	28.571	49	27	1	36	76	100	148
HNAN	m.58719	8.3	22	60	27.7	27.586	58	42	0	181	238	312	369
HNAN	m.159487	8.5	10	60	27.7	37.037	27	17	0	51	77	19	45
HNAN	m.5563	9.7	5	54	25.4	58.333	12	5	0	66	77	16	27
