SHEL	m.133750	4.15e-38	35	352	140	49.655	145	69	3	14	157	7	148
SHEL	m.238182	8.11e-21	27	224	90.9	40.909	110	60	2	16	125	9	113
SHEL	m.132988	1.81e-08	34	132	55.5	36.585	82	46	3	46	123	193	272
SHEL	m.132988	0.51	34	71	32.0	32.394	71	34	3	258	319	301	366
SHEL	m.136785	1.65e-07	12	115	48.9	37.500	48	29	1	42	89	16	62
SHEL	m.4448	4.76e-07	25	121	51.2	34.259	108	62	5	10	110	22	127
SHEL	m.168586	4.21e-06	18	110	47.0	37.333	75	43	4	37	111	13	83
SHEL	m.136779	8.78e-06	12	105	45.1	37.500	48	29	1	42	89	16	62
SHEL	m.151611	6.55e-05	20	102	43.9	30.000	80	54	2	48	127	10	87
SHEL	m.7554	7.89e-05	11	102	43.9	50.000	48	20	3	43	88	18	63
SHEL	m.225100	2.61e-04	11	98	42.4	42.553	47	25	1	44	88	67	113
SHEL	m.23797	3.31e-04	21	98	42.4	30.000	90	52	3	44	130	17	98
SHEL	m.42802	4.22e-04	22	95	41.2	25.263	95	64	2	42	130	10	103
SHEL	m.71249	0.002	14	88	38.5	37.500	56	33	2	44	99	42	95
SHEL	m.47764	0.012	21	84	37.0	29.412	85	48	2	45	129	3	75
SHEL	m.239079	0.013	18	84	37.0	29.730	74	51	1	42	114	153	226
SHEL	m.34798	0.013	10	85	37.4	36.364	44	25	2	48	88	319	362
SHEL	m.13153	0.013	12	84	37.0	27.273	55	33	1	42	89	2	56
SHEL	m.46944	0.013	13	85	37.4	37.736	53	30	2	41	91	68	119
SHEL	m.234919	0.026	14	81	35.8	35.088	57	35	2	47	103	327	381
SHEL	m.41033	0.029	10	81	35.8	35.714	42	26	1	48	89	22	62
SHEL	m.26162	0.033	11	79	35.0	36.364	44	22	2	47	90	127	164
SHEL	m.80263	0.046	16	80	35.4	24.658	73	48	1	45	110	230	302
SHEL	m.30231	0.058	14	79	35.0	37.931	58	34	2	41	98	297	352
SHEL	m.12270	0.072	11	78	34.7	38.298	47	27	2	46	91	29	74
SHEL	m.130667	0.097	10	77	34.3	30.952	42	28	1	46	87	674	714
SHEL	m.11647	0.13	16	71	32.0	32.308	65	43	1	98	161	10	74
SHEL	m.227854	0.17	7	74	33.1	39.286	28	17	0	66	93	27	54
SHEL	m.26451	0.23	14	72	32.3	30.000	60	37	3	46	101	140	198
SHEL	m.18233	0.26	17	74	33.1	34.211	76	44	2	191	260	33	108
SHEL	m.201593	0.27	10	73	32.7	40.000	45	23	2	46	87	221	264
SHEL	m.22627	0.55	16	70	31.6	25.714	70	47	2	46	110	215	284
SHEL	m.196289	0.58	12	71	32.0	32.203	59	30	4	48	96	4	62
SHEL	m.47752	0.76	21	68	30.8	29.412	85	48	2	45	129	3	75
SHEL	m.98566	0.79	12	70	31.6	35.849	53	31	1	39	88	741	793
SHEL	m.40059	1.1	18	69	31.2	35.065	77	43	2	186	260	1893	1964
SHEL	m.65098	1.2	11	67	30.4	36.957	46	26	2	48	91	69	113
SHEL	m.61084	1.6	17	67	30.4	33.333	69	41	2	171	239	865	928
SHEL	m.234813	1.8	14	66	30.0	26.027	73	38	3	43	100	261	332
SHEL	m.243362	1.8	7	66	30.0	33.333	30	20	0	44	73	14	43
SHEL	m.6051	2.2	10	65	29.6	30.952	42	27	2	46	87	254	293
SHEL	m.228928	2.3	8	65	29.6	45.455	33	16	1	226	256	43	75
SHEL	m.247838	2.5	14	65	29.6	36.842	57	34	1	191	245	456	512
SHEL	m.108734	4.0	25	63	28.9	25.490	102	68	1	3	104	109	202
SHEL	m.127176	7.8	10	61	28.1	29.545	44	27	2	48	87	157	200
SHEL	m.155455	8.3	8	61	28.1	44.118	34	19	0	109	142	98	131
SHEL	m.8649	9.3	10	61	28.1	39.024	41	23	1	116	156	462	500
