OVAF	XP_020631010.1	6.33e-40	69	356	141	85.333	75	9	1	11	83	8	82
OVAF	XP_020631010.1	8.73e-34	69	314	125	57.273	110	45	2	153	261	235	343
OVAF	XP_020627179.1	4.79e-06	13	112	47.8	60.000	35	13	1	47	81	668	701
OVAF	XP_020627177.1	1.28e-05	13	109	46.6	57.143	35	14	1	47	81	751	784
OVAF	XP_020627178.1	1.33e-05	13	108	46.2	57.143	35	14	1	47	81	751	784
OVAF	XP_020627169.1	1.44e-05	13	108	46.2	58.824	34	13	1	47	80	754	786
OVAF	XP_020603292.1	4.98e-05	12	103	44.3	50.000	32	16	0	51	82	106	137
OVAF	XP_020603243.1	2.11e-04	10	98	42.4	50.000	26	13	0	51	76	69	94
OVAF	XP_020627843.1	7.29e-04	18	93	40.4	38.298	47	28	1	37	83	11	56
OVAF	XP_020620787.1	8.57e-04	25	93	40.4	34.848	66	38	3	29	94	38	98
OVAF	XP_020620402.1	0.001	25	93	40.4	34.848	66	38	3	29	94	39	99
OVAF	XP_020631366.1	0.002	16	90	39.3	37.209	43	25	1	39	81	34	74
OVAF	XP_020620969.1	0.002	19	91	39.7	38.776	49	26	2	32	80	5	49
OVAF	XP_020629029.1	0.002	16	90	39.3	33.333	42	28	0	51	92	72	113
OVAF	XP_020621002.1	0.002	16	90	39.3	36.585	41	26	0	43	83	43	83
OVAF	XP_020610081.1	0.002	19	88	38.5	30.000	50	35	0	34	83	2	51
OVAF	XP_020621005.1	0.003	16	89	38.9	36.585	41	26	0	43	83	9	49
OVAF	XP_020621004.1	0.003	16	89	38.9	36.585	41	26	0	43	83	9	49
OVAF	XP_020621003.1	0.003	16	89	38.9	36.585	41	26	0	43	83	9	49
OVAF	XP_020603791.1	0.003	17	89	38.9	39.130	46	27	1	43	88	6	50
OVAF	XP_020621009.1	0.004	15	87	38.1	38.462	39	24	0	45	83	11	49
OVAF	XP_020616917.1	0.004	11	86	37.7	56.667	30	12	1	51	80	15	43
OVAF	XP_020616918.1	0.004	11	86	37.7	56.667	30	12	1	51	80	14	42
OVAF	XP_020610031.1	0.004	19	82	36.2	30.612	49	34	0	34	82	2	50
OVAF	XP_020632653.1	0.005	17	86	37.7	43.478	46	25	1	42	87	115	159
OVAF	XP_020601079.1	0.006	13	82	36.2	42.857	35	19	1	46	80	42	75
OVAF	XP_020622844.1	0.007	11	86	37.7	36.667	30	19	0	48	77	26	55
OVAF	XP_020622847.1	0.008	11	85	37.4	36.667	30	19	0	48	77	26	55
OVAF	XP_020622843.1	0.008	11	86	37.7	36.667	30	19	0	48	77	26	55
OVAF	XP_020622846.1	0.008	11	86	37.7	36.667	30	19	0	48	77	26	55
OVAF	XP_020619689.1	0.009	15	85	37.4	42.500	40	23	0	43	82	16	55
OVAF	XP_020610080.1	0.010	26	83	36.6	40.476	42	25	0	40	81	5	46
OVAF	XP_020610080.1	1.4	26	66	30.0	46.154	26	14	0	174	199	169	194
OVAF	XP_020614718.1	0.013	16	85	37.4	39.024	41	24	1	42	82	658	697
OVAF	XP_020614718.1	7.5	16	62	28.5	33.333	42	21	2	44	82	9	46
OVAF	XP_020621016.1	0.014	15	78	34.7	37.500	40	25	0	43	82	8	47
OVAF	XP_020628997.1	0.015	20	83	36.6	35.849	53	32	1	29	81	66	116
OVAF	XP_020628841.1	0.017	12	83	36.6	43.750	32	17	1	45	76	11	41
OVAF	XP_020628840.1	0.017	12	83	36.6	43.750	32	17	1	45	76	11	41
OVAF	XP_020622469.1	0.022	10	82	36.2	50.000	26	13	0	51	76	375	400
OVAF	XP_020610051.1	0.024	15	81	35.8	41.026	39	23	0	45	83	17	55
OVAF	XP_020613329.1	0.027	13	81	35.8	41.176	34	20	0	50	83	19	52
OVAF	XP_020610050.1	0.028	69	80	35.4	43.243	37	21	0	45	81	45	81
OVAF	XP_020610050.1	0.28	69	72	32.3	22.148	149	82	7	114	259	155	272
OVAF	XP_020602827.1	0.029	15	81	35.8	37.500	40	22	1	37	76	5	41
OVAF	XP_020610048.1	0.033	66	80	35.4	43.243	37	21	0	45	81	45	81
OVAF	XP_020610048.1	0.63	66	70	31.6	21.898	137	75	6	114	249	155	260
OVAF	XP_020609090.1	0.035	16	81	35.8	39.535	43	20	2	44	86	9	45
OVAF	XP_020614777.1	0.041	16	79	35.0	38.095	42	25	1	42	83	7	47
OVAF	XP_020615066.1	0.052	14	77	34.3	35.135	37	23	1	40	76	8	43
OVAF	XP_020613480.1	0.054	14	75	33.5	41.667	36	20	1	45	80	27	61
OVAF	XP_020613479.1	0.054	14	75	33.5	41.667	36	20	1	45	80	27	61
OVAF	XP_020630283.1	0.057	17	79	35.0	39.130	46	27	1	43	88	6	50
OVAF	XP_020603136.1	0.058	20	79	35.0	33.333	57	33	2	43	95	6	61
OVAF	XP_020613852.1	0.062	12	78	34.7	37.500	32	20	0	44	75	194	225
OVAF	XP_020606139.1	0.070	13	78	34.7	41.176	34	19	1	43	76	8	40
OVAF	XP_020630282.1	0.078	17	78	34.7	39.130	46	27	1	43	88	6	50
OVAF	XP_020613310.1	0.094	13	76	33.9	37.143	35	22	0	50	84	19	53
OVAF	XP_020602884.1	0.10	32	77	34.3	29.070	86	45	4	44	127	9	80
OVAF	XP_020610510.1	0.10	13	77	34.3	37.143	35	22	0	43	77	91	125
OVAF	XP_020625929.1	0.11	17	77	34.3	40.000	45	23	2	45	89	31	71
OVAF	XP_020622415.1	0.12	14	76	33.9	38.889	36	22	0	51	86	18	53
OVAF	XP_020611227.1	0.12	14	76	33.9	34.211	38	25	0	43	80	30	67
OVAF	XP_020605412.1	0.13	24	76	33.9	32.812	64	42	1	19	82	804	866
OVAF	XP_020603325.1	0.13	15	72	32.3	33.333	39	25	1	50	88	27	64
OVAF	XP_020611228.1	0.13	14	76	33.9	34.211	38	25	0	43	80	30	67
OVAF	XP_020602086.1	0.13	13	76	33.9	42.424	33	18	1	45	77	12	43
OVAF	XP_020630259.1	0.15	17	76	33.9	34.783	46	29	1	43	88	6	50
OVAF	XP_020618377.1	0.15	13	76	33.9	44.118	34	18	1	43	76	8	40
OVAF	XP_020629910.1	0.16	15	75	33.5	35.897	39	24	1	44	82	9	46
OVAF	XP_020618698.1	0.17	13	75	33.5	45.455	33	17	1	48	80	384	415
OVAF	XP_020603938.1	0.18	14	75	33.5	44.444	36	15	2	41	76	10	40
OVAF	XP_020611984.1	0.19	13	75	33.5	38.235	34	20	1	43	76	50	82
OVAF	XP_020603758.1	0.21	14	74	33.1	41.667	36	20	1	46	81	12	46
OVAF	XP_020613030.1	0.22	13	73	32.7	39.394	33	20	0	44	76	11	43
OVAF	XP_020603253.1	0.23	12	74	33.1	37.500	32	19	1	50	81	27	57
OVAF	XP_020624247.1	0.24	12	74	33.1	40.625	32	18	1	47	78	841	871
OVAF	XP_020624246.1	0.24	12	74	33.1	40.625	32	18	1	47	78	843	873
OVAF	XP_020615106.1	0.24	16	74	33.1	26.190	42	30	1	40	81	4	44
OVAF	XP_020624121.1	0.27	13	74	33.1	36.111	36	21	1	48	81	544	579
OVAF	XP_020626822.1	0.27	13	74	33.1	45.714	35	16	2	44	76	106	139
OVAF	XP_020602885.1	0.28	18	73	32.7	33.333	48	26	2	44	91	9	50
OVAF	XP_020613332.1	0.29	20	73	32.7	30.909	55	34	2	35	86	3	56
OVAF	XP_020625573.1	0.30	14	73	32.7	34.211	38	25	0	43	80	248	285
OVAF	XP_020625571.1	0.31	14	73	32.7	34.211	38	25	0	43	80	248	285
OVAF	XP_020608213.1	0.31	13	69	31.2	35.294	34	22	0	44	77	11	44
OVAF	XP_020604279.1	0.32	16	73	32.7	40.476	42	20	2	45	86	367	403
OVAF	XP_020603617.1	0.34	17	71	32.0	39.130	46	27	1	43	88	6	50
OVAF	XP_020605721.1	0.34	13	73	32.7	41.176	34	19	1	43	76	31	63
OVAF	XP_020616470.1	0.37	13	72	32.3	36.364	33	21	0	44	76	9	41
OVAF	XP_020610078.1	0.38	14	71	32.0	37.838	37	23	0	45	81	17	53
OVAF	XP_020611508.1	0.42	12	71	32.0	37.500	32	20	0	45	76	20	51
OVAF	XP_020611229.1	0.43	12	72	32.3	37.500	32	20	0	49	80	11	42
OVAF	XP_020603119.1	0.45	30	71	32.0	32.500	80	40	4	45	122	11	78
OVAF	XP_020606861.1	0.46	14	71	32.0	42.105	38	21	1	49	86	16	52
OVAF	XP_020619909.1	0.50	15	67	30.4	41.026	39	22	1	45	83	19	56
OVAF	XP_020612174.1	0.52	17	67	30.4	35.556	45	28	1	44	88	20	63
OVAF	XP_020608982.1	0.56	14	71	32.0	39.474	38	22	1	44	81	9	45
OVAF	XP_020612118.1	0.58	20	70	31.6	34.615	52	31	2	37	88	17	65
OVAF	XP_020619157.1	0.63	13	70	31.6	35.000	40	20	1	48	81	247	286
OVAF	XP_020603840.1	0.70	13	70	31.6	44.737	38	14	2	49	83	14	47
OVAF	XP_020601683.1	0.71	19	70	31.6	26.000	50	32	1	44	93	12	56
OVAF	XP_020631355.1	0.77	17	70	31.6	32.692	52	29	2	36	81	675	726
OVAF	XP_020621850.1	0.84	12	69	31.2	40.625	32	18	1	51	82	366	396
OVAF	XP_020621858.1	0.94	12	69	31.2	40.625	32	18	1	51	82	325	355
OVAF	XP_020603685.1	0.99	14	69	31.2	39.474	38	22	1	44	81	20	56
OVAF	XP_020629889.1	1.0	15	69	31.2	33.333	39	25	1	44	82	9	46
OVAF	XP_020605872.1	1.1	13	68	30.8	38.235	34	20	1	43	76	9	41
OVAF	XP_020605851.1	1.2	18	68	30.8	29.787	47	32	1	36	82	1	46
OVAF	XP_020601510.1	1.2	11	68	30.8	42.857	28	15	1	49	76	67	93
OVAF	XP_020601511.1	1.3	11	68	30.8	42.857	28	15	1	49	76	47	73
OVAF	XP_020601513.1	1.3	11	68	30.8	42.857	28	15	1	49	76	43	69
OVAF	XP_020601512.1	1.4	11	68	30.8	42.857	28	15	1	49	76	67	93
OVAF	XP_020632013.1	1.4	13	67	30.4	38.235	34	20	1	43	76	12	44
OVAF	XP_020610079.1	1.5	10	66	30.0	46.154	26	14	0	174	199	183	208
OVAF	XP_020604927.1	1.5	11	67	30.4	30.000	30	21	0	47	76	54	83
OVAF	XP_020628991.1	1.6	12	67	30.4	37.500	32	20	0	49	80	16	47
OVAF	XP_020605341.1	1.8	12	67	30.4	34.375	32	21	0	45	76	6	37
OVAF	XP_020616454.1	2.1	13	66	30.0	27.273	33	24	0	44	76	11	43
OVAF	XP_020600453.1	2.1	15	66	30.0	34.091	44	24	2	49	87	127	170
OVAF	XP_020600452.1	2.3	15	66	30.0	34.091	44	24	2	49	87	127	170
OVAF	XP_020616911.1	2.4	14	66	30.0	30.769	39	25	1	45	81	73	111
OVAF	XP_020627052.1	2.4	13	66	30.0	39.394	33	19	1	44	76	10	41
OVAF	XP_020624036.1	2.9	25	65	29.6	27.397	73	43	5	10	76	20	88
OVAF	XP_020612191.1	3.0	16	65	29.6	38.095	42	24	2	45	85	21	61
OVAF	XP_020602959.1	3.6	17	64	29.3	33.333	45	25	2	32	76	17	56
OVAF	XP_020606758.1	3.9	16	63	28.9	35.714	42	26	1	45	86	17	57
OVAF	XP_020603845.1	4.0	13	62	28.5	44.737	38	14	2	49	83	14	47
OVAF	XP_020606759.1	4.0	16	63	28.9	38.095	42	25	1	45	86	103	143
OVAF	XP_020606759.1	6.9	16	61	28.1	37.838	37	22	1	45	81	15	50
OVAF	XP_020602960.1	4.0	17	63	28.9	33.333	45	25	2	32	76	17	56
OVAF	XP_020612135.1	4.0	12	63	28.9	40.625	32	19	0	51	82	27	58
OVAF	XP_020612160.1	4.3	14	61	28.1	36.842	38	23	1	44	81	22	58
OVAF	XP_020611870.1	4.4	20	64	29.3	34.615	52	34	0	190	241	104	155
OVAF	XP_020618663.1	4.7	14	63	28.9	39.024	41	18	2	51	88	14	50
OVAF	XP_020627173.1	5.6	11	63	28.9	32.143	28	19	0	48	75	720	747
OVAF	XP_020629863.1	5.7	15	62	28.5	33.333	39	25	1	44	82	9	46
OVAF	XP_020609847.1	5.8	15	63	28.9	30.769	39	26	1	44	82	9	46
OVAF	XP_020625543.1	5.9	17	63	28.9	28.889	45	31	1	44	88	399	442
OVAF	XP_020606760.1	6.3	12	62	28.5	40.625	32	18	1	45	76	24	54
OVAF	XP_020603674.1	6.4	14	60	27.7	34.211	38	24	1	44	81	20	56
OVAF	XP_020619935.1	6.5	15	62	28.5	38.462	39	23	1	45	83	19	56
OVAF	XP_020629479.1	6.9	13	62	28.5	32.353	34	22	1	49	82	712	744
OVAF	XP_020632041.1	6.9	16	62	28.5	30.233	43	29	1	34	76	38	79
OVAF	XP_020609113.1	7.0	13	62	28.5	33.333	33	21	1	44	76	28	59
OVAF	XP_020600855.1	7.6	9	61	28.1	50.000	26	12	1	51	75	143	168
OVAF	XP_020601644.1	7.9	13	62	28.5	39.394	33	20	0	13	45	856	888
OVAF	XP_020613407.1	8.2	20	58	26.9	33.333	57	35	1	114	167	21	77
OVAF	XP_020607582.1	8.2	20	58	26.9	33.333	57	35	1	114	167	21	77
OVAF	XP_020607551.1	8.2	20	58	26.9	33.333	57	35	1	114	167	21	77
OVAF	XP_020607550.1	8.2	20	58	26.9	33.333	57	35	1	114	167	21	77
OVAF	XP_020630387.1	8.3	14	61	28.1	31.579	38	26	0	8	45	640	677
OVAF	XP_020631299.1	8.8	17	61	28.1	30.769	52	30	2	36	81	16	67
OVAF	XP_020613569.1	8.9	26	61	28.1	29.577	71	39	2	21	89	27	88
OVAF	XP_020600484.1	9.1	10	60	27.7	34.615	26	17	0	51	76	20	45
OVAF	XP_020600483.1	9.1	10	60	27.7	34.615	26	17	0	51	76	20	45
OVAF	XP_020600479.1	9.1	10	60	27.7	34.615	26	17	0	51	76	20	45
OVAF	XP_020603675.1	9.4	14	58	26.9	34.211	38	24	1	44	81	20	56
OVAF	XP_020613571.1	9.4	26	61	28.1	29.577	71	39	2	21	89	2	63
OVAF	XP_020612176.1	9.4	14	61	28.1	36.842	38	23	1	44	81	22	58
OVAF	XP_020629565.1	9.4	20	58	26.9	31.481	54	35	1	30	81	49	102
OVAF	XP_020632239.1	9.9	13	61	28.1	33.333	33	21	1	44	76	9	40
OVAF	XP_020618088.1	10.0	33	60	27.7	28.866	97	57	4	5	91	13	107
