CPEX	m.77554	7.42e-41	74	371	147	32.787	305	169	7	1	301	8	280
CPEX	m.8261	1.82e-08	13	125	52.8	48.077	52	25	2	46	97	27	76
CPEX	m.46169	1.17e-07	19	123	52.0	34.146	82	48	3	35	112	44	123
CPEX	m.134464	4.27e-05	12	105	45.1	37.500	48	29	1	40	87	711	757
CPEX	m.119415	4.35e-05	15	105	45.1	34.375	64	39	1	40	100	252	315
CPEX	m.155125	4.69e-05	18	104	44.7	31.507	73	49	1	44	116	38	109
CPEX	m.155106	5.11e-05	18	103	44.3	31.507	73	49	1	44	116	38	109
CPEX	m.134473	5.12e-05	12	104	44.7	37.500	48	29	1	40	87	737	783
CPEX	m.225153	8.51e-05	11	102	43.9	47.826	46	22	2	46	91	33	76
CPEX	m.266910	2.84e-04	11	97	42.0	40.909	44	25	1	48	91	303	345
CPEX	m.19565	2.93e-04	13	98	42.4	35.088	57	32	2	48	100	522	577
CPEX	m.34442	0.002	14	91	39.7	29.310	58	40	1	30	87	1	57
CPEX	m.51872	0.006	12	85	37.4	38.462	52	29	2	39	88	27	77
CPEX	m.169502	0.007	11	86	37.7	34.043	47	29	2	48	93	33	78
CPEX	m.12497	0.008	12	84	37.0	37.255	51	28	2	42	88	18	68
CPEX	m.91225	0.015	15	83	36.6	33.871	62	38	3	46	107	51	109
CPEX	m.155291	0.017	13	81	35.8	31.373	51	33	2	38	88	69	117
CPEX	m.244661	0.019	14	82	36.2	31.579	57	36	2	44	99	29	83
CPEX	m.249060	0.022	11	79	35.0	38.636	44	25	2	45	88	7	48
CPEX	m.27020	0.041	11	79	35.0	35.556	45	27	1	43	85	230	274
CPEX	m.165399	0.050	22	79	35.0	27.835	97	55	5	20	107	343	433
CPEX	m.124712	0.082	12	78	34.7	33.333	48	31	1	45	91	499	546
CPEX	m.123177	0.11	12	76	33.9	36.000	50	31	1	42	91	15	63
CPEX	m.277382	0.21	9	74	33.1	39.024	41	21	2	48	85	1142	1181
CPEX	m.172613	0.36	10	71	32.0	36.585	41	23	1	48	88	88	125
CPEX	m.16160	0.49	11	70	31.6	30.435	46	29	1	48	90	1	46
CPEX	m.224854	0.70	10	70	31.6	28.571	42	29	1	44	85	27	67
CPEX	m.31806	0.79	16	68	30.8	26.562	64	47	0	38	101	61	124
CPEX	m.91747	0.82	11	68	30.8	34.783	46	27	2	48	91	169	213
CPEX	m.37577	0.90	16	68	30.8	33.333	63	39	3	48	110	29	88
CPEX	m.152419	0.99	14	68	30.8	32.203	59	32	3	38	93	281	334
CPEX	m.176203	1.1	10	68	30.8	28.571	42	30	0	46	87	15	56
CPEX	m.9510	1.5	11	66	30.0	34.091	44	27	2	48	91	16	57
CPEX	m.49918	1.6	12	66	30.0	27.778	54	32	1	42	88	229	282
CPEX	m.133508	1.9	12	66	30.0	36.538	52	30	2	43	92	14	64
CPEX	m.32714	2.0	13	65	29.6	34.615	52	29	2	48	99	330	376
CPEX	m.40849	2.3	12	65	29.6	32.000	50	32	1	24	73	171	218
CPEX	m.150933	2.6	15	63	28.9	32.308	65	39	2	137	196	136	200
CPEX	m.211544	3.1	11	63	28.9	36.170	47	28	1	170	214	50	96
CPEX	m.299415	3.7	18	59	27.3	28.000	75	44	3	46	119	11	76
CPEX	m.67645	3.7	11	63	28.9	32.609	46	30	1	48	93	57	101
CPEX	m.267664	4.3	12	63	28.9	34.694	49	30	2	47	95	1092	1138
CPEX	m.272127	4.3	12	59	27.3	38.000	50	29	2	48	95	54	103
CPEX	m.11616	4.3	11	61	28.1	42.553	47	23	2	131	175	109	153
CPEX	m.133493	4.8	11	62	28.5	40.000	45	24	2	48	90	19	62
CPEX	m.173963	6.5	10	60	27.7	37.209	43	24	2	48	88	6	47
CPEX	m.254270	6.9	24	62	28.5	25.000	96	59	3	65	160	225	307
