SCIL	scpid46202|	1.27e-88	96	691	270	41.327	392	125	11	11	399	3	292
SCIL	scpid104136|	3.41e-09	17	132	55.5	36.232	69	42	2	42	110	46	112
SCIL	scpid64679|	6.51e-08	17	132	55.5	36.232	69	42	2	42	110	46	112
SCIL	scpid6773|	1.28e-07	14	130	54.7	33.333	63	37	1	40	97	15	77
SCIL	scpid87952|	2.06e-07	23	128	53.9	31.313	99	63	3	28	122	2	99
SCIL	scpid75838|	2.47e-07	15	126	53.1	35.385	65	37	3	44	104	28	91
SCIL	scpid79131|	2.88e-07	15	125	52.8	35.385	65	37	3	44	104	28	91
SCIL	scpid93466|	1.17e-06	22	119	50.4	31.868	91	58	2	36	123	28	117
SCIL	scpid40615|	3.82e-06	15	117	49.7	44.068	59	31	2	42	100	72	128
SCIL	scpid35497|	5.65e-06	17	116	49.3	34.286	70	45	1	45	114	234	302
SCIL	scpid46699|	9.91e-06	16	114	48.5	34.848	66	41	2	42	107	15	78
SCIL	scpid89033|	2.25e-05	12	107	45.8	38.983	59	25	2	46	93	15	73
SCIL	scpid34837|	2.25e-05	12	107	45.8	46.939	49	24	2	44	91	134	181
SCIL	scpid94269|	2.72e-05	19	107	45.8	30.682	88	48	4	45	120	24	110
SCIL	scpid19292|	4.50e-05	12	105	45.1	46.939	49	24	2	44	91	169	216
SCIL	scpid51877|	1.02e-04	13	105	45.1	43.396	53	29	1	41	93	140	191
SCIL	scpid98957|	1.17e-04	12	103	44.3	44.000	50	27	1	37	86	218	266
SCIL	scpid97252|	1.22e-04	12	103	44.3	44.000	50	27	1	37	86	213	261
SCIL	scpid95927|	1.23e-04	11	104	44.7	50.000	46	21	2	46	91	18	61
SCIL	scpid33975|	1.65e-04	12	104	44.7	46.939	49	24	2	44	91	134	181
SCIL	scpid18763|	1.94e-04	12	103	44.3	46.939	49	24	2	44	91	169	216
SCIL	scpid58757|	2.63e-04	16	102	43.9	30.435	69	43	3	41	106	545	611
SCIL	scpid101892|	3.19e-04	13	98	42.4	32.692	52	34	1	48	99	36	86
SCIL	scpid45626|	3.37e-04	18	101	43.5	29.730	74	51	1	44	117	111	183
SCIL	scpid95158|	3.39e-04	13	99	42.7	43.396	53	29	1	41	93	140	191
SCIL	scpid102031|	3.54e-04	13	98	42.4	32.692	52	34	1	48	99	36	86
SCIL	scpid42676|	4.00e-04	18	99	42.7	29.333	75	50	2	44	117	37	109
SCIL	scpid33635|	4.38e-04	18	100	43.1	29.730	74	51	1	44	117	215	287
SCIL	scpid20008|	6.20e-04	17	99	42.7	28.947	76	48	2	31	101	339	413
SCIL	scpid100043|	7.78e-04	12	96	41.6	43.750	48	26	1	37	84	218	264
SCIL	scpid16661|	7.93e-04	10	97	42.0	41.463	41	23	1	45	85	95	134
SCIL	scpid12943|	8.14e-04	11	98	42.4	40.426	47	24	2	48	91	1333	1378
SCIL	scpid98319|	8.15e-04	12	96	41.6	43.750	48	26	1	37	84	213	259
SCIL	scpid40705|	0.001	23	90	39.3	26.596	94	68	1	15	108	5	97
SCIL	scpid37947|	0.001	18	97	42.0	26.027	73	53	1	40	112	703	774
SCIL	scpid94630|	0.001	11	92	40.0	35.556	45	28	1	46	89	23	67
SCIL	scpid105313|	0.001	12	92	40.0	40.426	47	27	1	45	91	73	118
SCIL	scpid106144|	0.001	12	92	40.0	40.426	47	27	1	45	91	73	118
SCIL	scpid24272|	0.002	17	95	41.2	30.986	71	48	1	40	110	274	343
SCIL	scpid26618|	0.002	15	95	41.2	32.258	62	41	1	48	109	277	337
SCIL	scpid106418|	0.002	12	90	39.3	40.426	47	27	1	45	91	73	118
SCIL	scpid114610|	0.004	15	85	37.4	26.667	60	43	1	48	107	36	94
SCIL	scpid102149|	0.004	12	90	39.3	31.250	48	32	1	44	91	9	55
SCIL	scpid2649|	0.005	22	92	40.0	28.571	105	59	5	34	124	1200	1302
SCIL	scpid97995|	0.006	12	88	38.5	31.250	48	32	1	44	91	9	55
SCIL	scpid19363|	0.007	11	91	39.7	35.556	45	27	1	48	90	1003	1047
SCIL	scpid21327|	0.008	11	90	39.3	35.556	45	27	1	48	90	974	1018
SCIL	scpid92055|	0.009	50	88	38.5	25.541	231	143	7	46	249	7	235
SCIL	scpid97458|	0.010	50	88	38.5	25.541	231	143	7	46	249	8	236
SCIL	scpid37607|	0.012	13	87	38.1	39.623	53	30	1	25	77	24	74
SCIL	scpid96827|	0.016	14	83	36.6	32.203	59	39	1	37	94	90	148
SCIL	scpid41969|	0.020	14	86	37.7	32.759	58	38	1	47	104	360	416
SCIL	scpid103465|	0.029	19	80	35.4	30.263	76	52	1	46	121	7	81
SCIL	scpid71139|	0.032	11	84	37.0	35.556	45	28	1	43	87	181	224
SCIL	scpid71535|	0.034	14	83	36.6	35.484	62	33	3	44	100	253	312
SCIL	scpid108574|	0.039	19	79	35.0	30.263	76	52	1	46	121	8	82
SCIL	scpid20983|	0.043	17	84	37.0	32.836	67	40	3	44	110	187	248
SCIL	scpid100546|	0.047	12	79	35.0	38.182	55	27	2	48	96	79	132
SCIL	scpid99757|	0.053	19	81	35.8	30.263	76	52	1	46	121	7	81
SCIL	scpid105233|	0.055	19	80	35.4	30.263	76	52	1	46	121	8	82
SCIL	scpid79394|	0.055	11	82	36.2	40.426	47	26	2	46	91	217	262
SCIL	scpid34300|	0.057	13	83	36.6	31.884	69	28	3	40	90	21	88
SCIL	scpid87435|	0.071	14	80	35.4	35.484	62	33	3	44	100	168	227
SCIL	scpid38353|	0.077	11	81	35.8	36.364	44	25	1	48	91	356	396
SCIL	scpid33541|	0.089	11	81	35.8	36.364	44	25	1	48	91	344	384
SCIL	scpid51446|	0.092	11	81	35.8	38.636	44	26	1	48	91	239	281
SCIL	scpid36930|	0.096	12	79	35.0	32.653	49	32	1	43	91	136	183
SCIL	scpid49852|	0.10	16	80	35.4	28.788	66	45	2	46	110	118	182
SCIL	scpid29549|	0.11	11	79	35.0	32.558	43	28	1	46	88	230	271
SCIL	scpid30995|	0.12	12	80	35.4	40.000	50	23	2	48	97	1056	1098
SCIL	scpid31954|	0.13	12	80	35.4	40.000	50	23	2	48	97	1036	1078
SCIL	scpid24403|	0.13	11	80	35.4	36.364	44	27	1	48	91	29	71
SCIL	scpid31426|	0.13	12	80	35.4	40.000	50	23	2	48	97	1046	1088
SCIL	scpid71003|	0.16	19	77	34.3	30.263	76	52	1	46	121	7	81
SCIL	scpid78057|	0.16	19	77	34.3	30.263	76	52	1	46	121	8	82
SCIL	scpid75977|	0.17	10	78	34.7	43.902	41	21	2	48	88	369	407
SCIL	scpid33388|	0.17	15	79	35.0	42.000	50	25	2	45	94	176	221
SCIL	scpid33388|	0.37	15	76	33.9	32.203	59	36	3	33	89	438	494
SCIL	scpid44400|	0.25	10	77	34.3	32.500	40	26	1	48	87	362	400
SCIL	scpid39602|	0.29	13	77	34.3	35.185	54	34	1	48	101	251	303
SCIL	scpid54414|	0.34	14	76	33.9	39.286	56	29	3	45	100	14	64
SCIL	scpid26705|	0.34	13	76	33.9	33.333	54	35	1	48	101	200	252
SCIL	scpid20356|	0.40	10	75	33.5	36.170	47	25	1	46	87	38	84
SCIL	scpid51419|	0.42	11	75	33.5	32.609	46	29	1	48	91	232	277
SCIL	scpid5358|	0.47	12	75	33.5	35.185	54	28	2	48	96	1285	1336
SCIL	scpid18405|	0.47	12	75	33.5	35.185	54	28	2	48	96	1285	1336
SCIL	scpid4594|	0.48	12	75	33.5	35.185	54	28	2	48	96	1285	1336
SCIL	scpid18467|	0.48	12	75	33.5	35.185	54	28	2	48	96	1281	1332
SCIL	scpid5318|	0.48	12	75	33.5	35.185	54	28	2	48	96	1289	1340
SCIL	scpid15132|	0.50	12	75	33.5	35.185	54	28	2	48	96	1281	1332
SCIL	scpid4564|	0.50	12	75	33.5	35.185	54	28	2	48	96	1289	1340
SCIL	scpid15000|	0.51	12	75	33.5	35.185	54	28	2	48	96	1285	1336
SCIL	scpid110214|	0.54	12	69	31.2	29.167	48	33	1	47	94	34	80
SCIL	scpid75756|	0.64	11	74	33.1	37.778	45	25	2	44	86	167	210
SCIL	scpid32286|	0.87	10	73	32.7	42.500	40	21	2	48	86	528	566
SCIL	scpid30632|	0.88	10	73	32.7	42.500	40	21	2	48	86	534	572
SCIL	scpid22364|	0.89	16	73	32.7	28.571	63	44	1	30	92	136	197
SCIL	scpid31318|	0.89	10	73	32.7	42.500	40	21	2	48	86	530	568
SCIL	scpid73811|	1.0	11	72	32.3	38.298	47	27	2	41	86	19	64
SCIL	scpid70527|	1.0	11	72	32.3	32.000	50	29	2	46	91	147	195
SCIL	scpid22363|	1.1	12	72	32.3	35.417	48	24	2	42	89	1133	1173
SCIL	scpid52457|	1.1	10	72	32.3	41.026	39	22	1	47	85	58	95
SCIL	scpid20343|	1.1	12	72	32.3	35.185	54	28	2	48	96	750	801
SCIL	scpid24335|	1.2	12	72	32.3	35.185	54	28	2	48	96	750	801
SCIL	scpid26908|	1.4	10	71	32.0	42.500	40	21	2	48	86	380	418
SCIL	scpid24471|	1.4	16	70	31.6	26.154	65	47	1	46	110	192	255
SCIL	scpid19237|	1.5	10	71	32.0	25.532	47	30	1	48	89	15	61
SCIL	scpid61662|	1.7	13	70	31.6	27.778	54	38	1	46	98	3	56
SCIL	scpid63704|	2.1	11	69	31.2	38.000	50	25	3	48	91	297	346
SCIL	scpid32932|	2.1	10	70	31.6	25.532	47	30	1	48	89	15	61
SCIL	scpid34853|	2.2	16	69	31.2	23.810	63	47	1	46	108	34	95
SCIL	scpid64065|	2.3	11	69	31.2	38.000	50	25	3	48	91	293	342
SCIL	scpid68105|	2.4	13	69	31.2	27.778	54	38	1	46	98	3	56
SCIL	scpid50377|	2.5	10	69	31.2	30.233	43	29	1	48	89	5	47
SCIL	scpid99138|	2.5	13	68	30.8	31.373	51	32	2	45	95	192	239
SCIL	scpid53928|	2.9	27	68	30.8	23.077	117	75	4	48	155	215	325
SCIL	scpid37578|	2.9	21	68	30.8	25.843	89	58	2	179	265	101	183
SCIL	scpid44402|	3.2	10	68	30.8	30.233	43	29	1	48	89	5	47
SCIL	scpid61869|	3.3	16	67	30.4	34.375	64	36	2	34	97	48	105
SCIL	scpid73603|	3.6	15	67	30.4	33.333	60	39	1	32	91	2	60
SCIL	scpid90102|	3.8	14	67	30.4	31.250	64	31	2	92	146	28	87
SCIL	scpid41354|	3.9	14	67	30.4	29.091	55	38	1	64	118	93	146
SCIL	scpid67394|	3.9	10	67	30.4	32.558	43	28	1	48	89	5	47
SCIL	scpid37276|	4.0	14	67	30.4	29.091	55	38	1	64	118	93	146
SCIL	scpid86887|	4.0	14	66	30.0	29.091	55	38	1	64	118	93	146
SCIL	scpid24325|	4.1	13	67	30.4	37.037	54	31	2	194	246	215	266
SCIL	scpid41089|	4.1	12	67	30.4	32.653	49	32	1	37	85	472	519
SCIL	scpid37845|	4.2	14	67	30.4	29.091	55	38	1	64	118	93	146
SCIL	scpid86871|	4.3	13	67	30.4	34.615	52	33	1	47	98	33	83
SCIL	scpid48401|	4.6	12	67	30.4	29.787	47	32	1	47	93	474	519
SCIL	scpid95740|	5.0	12	66	30.0	36.207	58	24	4	44	90	253	308
SCIL	scpid90471|	5.1	12	65	29.6	40.000	50	26	3	45	93	8	54
SCIL	scpid84679|	6.0	18	64	29.3	29.730	74	51	1	46	119	8	80
SCIL	scpid55787|	6.1	11	66	30.0	34.091	44	28	1	39	81	198	241
SCIL	scpid20539|	6.3	13	66	30.0	33.962	53	33	2	33	85	323	373
SCIL	scpid50344|	6.4	10	61	28.1	30.233	43	29	1	48	89	5	47
SCIL	scpid53277|	6.9	13	65	29.6	37.037	54	31	2	194	246	215	266
SCIL	scpid77865|	7.2	18	63	28.9	29.730	74	51	1	46	119	7	79
SCIL	scpid38663|	7.5	18	64	29.3	26.389	72	52	1	47	118	110	180
SCIL	scpid107979|	7.6	15	63	28.9	22.951	61	46	1	40	100	50	109
