DGRA	m.144143	4.36e-38	34	348	138	46.715	137	70	1	12	148	6	139
DGRA	m.16286	3.87e-30	33	294	117	46.617	133	70	1	16	148	13	144
DGRA	m.144140	7.45e-13	25	163	67.4	38.614	101	53	3	49	148	1	93
DGRA	m.13807	8.29e-07	23	119	50.4	28.125	96	65	2	35	127	108	202
DGRA	m.138404	8.04e-06	17	109	46.6	37.179	78	39	4	29	98	12	87
DGRA	m.66765	5.93e-05	19	104	44.7	35.443	79	46	4	48	124	9	84
DGRA	m.119345	4.08e-04	25	98	42.4	31.068	103	67	3	44	146	30	128
DGRA	m.71201	4.87e-04	18	95	41.2	35.294	85	43	3	46	120	87	169
DGRA	m.198119	5.71e-04	17	97	42.0	34.783	69	42	2	33	99	5	72
DGRA	m.36650	0.001	13	92	40.0	40.741	54	28	3	38	88	26	78
DGRA	m.30380	0.001	13	94	40.8	33.333	51	33	1	41	91	761	810
DGRA	m.241322	0.002	11	92	40.0	34.091	44	28	1	48	91	14	56
DGRA	m.171286	0.002	21	87	38.1	28.261	92	57	4	31	114	26	116
DGRA	m.40681	0.002	21	90	39.3	31.461	89	56	3	30	115	21	107
DGRA	m.52214	0.003	16	89	38.9	38.095	63	36	3	45	107	56	115
DGRA	m.45418	0.005	21	89	38.9	31.868	91	54	5	45	131	107	193
DGRA	m.169804	0.005	19	89	38.9	33.735	83	43	4	48	123	712	789
DGRA	m.150665	0.008	15	87	38.1	30.986	71	39	3	48	109	171	240
DGRA	m.96378	0.010	10	86	37.7	43.902	41	21	2	48	88	281	319
DGRA	m.22050	0.017	14	85	37.4	34.545	55	35	1	34	88	6	59
DGRA	m.31347	0.017	17	85	37.4	30.556	72	36	4	41	110	23	82
DGRA	m.159675	0.026	14	83	36.6	30.645	62	38	1	42	98	898	959
DGRA	m.115262	0.028	11	82	36.2	32.558	43	28	1	45	87	20	61
DGRA	m.179626	0.037	24	80	35.4	29.412	102	66	5	2	100	85	183
DGRA	m.253620	0.060	13	80	35.4	33.929	56	32	2	41	91	2	57
DGRA	m.246442	0.062	11	78	34.7	40.426	47	25	2	48	91	34	80
DGRA	m.29607	0.066	11	78	34.7	40.426	47	25	2	48	92	214	259
DGRA	m.191358	0.069	13	80	35.4	32.075	53	35	1	46	97	238	290
DGRA	m.245652	0.071	21	80	35.4	29.545	88	45	4	6	89	344	418
DGRA	m.27063	0.12	13	77	34.3	33.333	54	34	1	38	89	235	288
DGRA	m.246396	0.12	11	75	33.5	40.426	47	25	2	48	91	34	80
DGRA	m.274943	0.17	8	76	33.9	48.485	33	16	1	66	98	33	64
DGRA	m.232748	0.31	9	74	33.1	35.714	42	20	1	64	98	27	68
DGRA	m.273451	0.34	10	68	30.8	30.769	39	25	1	56	94	16	52
DGRA	m.161105	0.35	18	71	32.0	31.646	79	45	4	25	98	31	105
DGRA	m.118056	0.39	14	74	33.1	32.143	56	36	2	43	98	729	782
DGRA	m.219767	0.46	15	73	32.7	28.986	69	39	3	47	106	157	224
DGRA	m.106202	0.48	16	72	32.3	31.343	67	38	3	48	111	85	146
DGRA	m.115252	0.53	11	72	32.3	32.558	43	28	1	45	87	45	86
DGRA	m.128170	0.67	15	71	32.0	31.250	64	37	3	28	88	110	169
DGRA	m.189218	0.76	34	70	31.6	27.660	141	68	5	87	223	199	309
DGRA	m.189233	0.77	34	70	31.6	27.660	141	68	5	87	223	199	309
DGRA	m.40758	0.89	12	67	30.4	32.143	56	31	3	48	97	82	136
DGRA	m.126590	1.2	11	68	30.8	33.333	45	29	1	48	92	225	268
DGRA	m.75557	1.5	11	68	30.8	38.298	47	23	3	48	93	379	420
DGRA	m.196146	1.6	16	68	30.8	30.769	65	42	2	48	110	291	354
DGRA	m.168817	2.2	11	65	29.6	36.957	46	25	2	48	91	92	135
DGRA	m.127563	2.5	18	66	30.0	24.675	77	54	2	23	97	123	197
DGRA	m.204185	3.0	11	66	30.0	40.385	52	21	4	48	93	641	688
DGRA	m.120007	3.2	9	64	29.3	38.462	39	23	1	48	85	139	177
DGRA	m.155703	3.5	10	66	30.0	38.095	42	26	0	15	56	727	768
DGRA	m.120447	3.8	8	65	29.6	36.364	33	21	0	139	171	1356	1388
DGRA	m.270824	4.3	18	63	28.9	27.397	73	52	1	38	110	44	115
DGRA	m.124623	4.3	17	65	29.6	25.352	71	47	2	48	115	186	253
DGRA	m.250583	5.2	10	63	28.9	35.556	45	26	2	46	87	163	207
DGRA	m.175126	7.2	31	62	28.5	30.645	124	72	5	192	315	143	252
DGRA	m.141603	8.6	10	62	28.5	35.714	42	24	3	48	88	282	321
DGRA	m.63375	8.7	11	61	28.1	28.889	45	31	1	47	91	54	97
DGRA	m.83752	9.2	10	62	28.5	35.897	39	25	0	289	327	451	489
DGRA	m.39234	9.5	16	61	28.1	27.273	66	46	2	35	100	22	85
DGRA	m.222513	9.8	21	62	28.5	34.884	86	52	4	168	251	151	234
