SKVE	m.147770	3.52e-17	25	190	77.8	60.294	68	24	2	18	83	27	93
SKVE	m.147758	7.84e-17	43	191	78.2	60.294	68	24	2	18	83	27	93
SKVE	m.147758	1.2	43	65	29.6	29.412	51	33	1	174	221	227	277
SKVE	m.303564	2.38e-12	25	156	64.7	47.826	69	28	2	18	83	19	82
SKVE	m.294138	2.68e-04	82	94	40.8	20.930	258	120	8	43	259	44	258
SKVE	m.102609	2.76e-04	13	95	41.2	38.235	34	21	0	43	76	18	51
SKVE	m.233734	7.61e-04	31	93	40.4	26.829	82	53	2	2	83	2192	2266
SKVE	m.30775	0.001	16	90	39.3	45.238	42	21	2	42	82	1	41
SKVE	m.106410	0.002	12	87	38.1	46.875	32	17	0	47	78	101	132
SKVE	m.20173	0.006	27	84	37.0	30.263	76	44	2	36	106	46	117
SKVE	m.184327	0.010	15	83	36.6	39.130	46	18	2	38	76	202	244
SKVE	m.124670	0.012	30	81	35.8	28.750	80	53	2	2	81	102	177
SKVE	m.76673	0.012	14	81	35.8	43.243	37	21	0	51	87	17	53
SKVE	m.105106	0.062	20	76	33.9	30.189	53	32	1	51	103	205	252
SKVE	m.288981	0.12	19	74	33.1	33.333	54	32	2	26	76	102	154
SKVE	m.101153	0.12	10	74	33.1	44.444	27	15	0	49	75	42	68
SKVE	m.118765	0.14	12	73	32.7	40.625	32	18	1	45	76	112	142
SKVE	m.146030	0.41	15	70	31.6	35.000	40	25	1	37	76	689	727
SKVE	m.301302	0.62	12	68	30.8	42.424	33	17	1	50	80	305	337
SKVE	m.58915	0.64	14	68	30.8	36.170	47	20	2	51	88	513	558
SKVE	m.32665	0.65	13	68	30.8	38.235	34	20	1	43	76	311	343
SKVE	m.32673	0.65	13	68	30.8	38.235	34	20	1	43	76	357	389
SKVE	m.87312	0.68	14	68	30.8	36.111	36	23	0	45	80	113	148
SKVE	m.146027	0.98	15	65	29.6	35.000	40	25	1	37	76	112	150
SKVE	m.140787	1.1	13	66	30.0	31.429	35	24	0	42	76	246	280
SKVE	m.87325	1.3	14	66	30.0	36.111	36	23	0	45	80	113	148
SKVE	m.111912	1.7	13	65	29.6	38.235	34	20	1	49	81	156	189
SKVE	m.83111	2.0	16	64	29.3	27.907	43	31	0	31	73	109	151
SKVE	m.89539	2.1	10	64	29.3	44.444	27	15	0	49	75	60	86
SKVE	m.10264	2.1	19	58	26.9	25.000	52	34	2	30	78	3	52
SKVE	m.89522	2.3	10	64	29.3	44.444	27	15	0	49	75	60	86
SKVE	m.111931	3.4	13	62	28.5	38.235	34	20	1	49	81	156	189
SKVE	m.121750	3.4	20	62	28.5	26.923	52	34	2	28	79	77	124
SKVE	m.161567	3.4	13	62	28.5	30.000	50	19	2	43	76	709	758
SKVE	m.14552	4.4	13	61	28.1	37.143	35	21	1	49	83	423	456
SKVE	m.300197	6.4	9	59	27.3	32.000	25	17	0	27	51	89	113
SKVE	m.25746	6.8	16	60	27.7	34.884	43	28	0	1	43	1303	1345
SKVE	m.243598	9.5	14	58	26.9	26.190	42	27	1	51	88	134	175
SKVE	m.314730	9.6	10	58	26.9	42.308	26	15	0	51	76	123	148
