SPUN	m.82758	4.49e-42	72	376	149	32.542	295	142	3	16	306	7	248
SPUN	m.82249	9.16e-34	26	319	127	54.206	107	48	1	8	113	19	125
SPUN	m.71181	2.15e-07	31	121	51.2	30.476	105	67	3	32	132	44	146
SPUN	m.71181	0.79	31	68	30.8	40.000	25	15	0	283	307	203	227
SPUN	m.96441	6.22e-07	26	119	50.4	27.679	112	73	3	42	146	50	160
SPUN	m.42813	3.87e-06	19	112	47.8	32.468	77	51	1	38	114	248	323
SPUN	m.137718	7.99e-06	20	111	47.4	32.927	82	52	3	42	123	166	244
SPUN	m.217576	3.85e-05	14	95	41.2	39.655	58	32	3	36	91	21	77
SPUN	m.52747	5.52e-05	25	103	44.3	30.693	101	64	5	28	128	5	99
SPUN	m.105907	7.27e-05	14	102	43.9	34.426	61	34	2	44	98	228	288
SPUN	m.79315	6.54e-04	11	95	41.2	36.170	47	26	1	48	90	106	152
SPUN	m.109928	6.76e-04	11	94	40.8	41.667	48	23	1	46	88	20	67
SPUN	m.164108	8.82e-04	11	94	40.8	36.957	46	28	1	42	87	865	909
SPUN	m.94744	0.001	19	92	40.0	34.177	79	48	3	41	116	112	189
SPUN	m.64149	0.002	11	90	39.3	39.583	48	24	2	48	91	96	142
SPUN	m.74578	0.004	17	87	38.1	26.829	82	49	2	19	89	191	272
SPUN	m.127700	0.005	12	87	38.1	32.653	49	32	1	45	93	67	114
SPUN	m.197451	0.007	12	84	37.0	34.000	50	31	2	48	97	50	97
SPUN	m.80831	0.009	11	83	36.6	39.130	46	27	1	42	87	37	81
SPUN	m.148823	0.011	20	85	37.4	27.711	83	56	2	15	94	200	281
SPUN	m.124528	0.032	10	80	35.4	39.024	41	24	1	48	88	127	166
SPUN	m.184899	0.043	13	79	35.0	35.294	51	32	1	41	91	13	62
SPUN	m.250583	0.17	12	67	30.4	32.653	49	31	2	43	89	7	55
SPUN	m.49562	0.17	21	73	32.7	25.556	90	61	3	5	91	86	172
SPUN	m.4819	0.23	10	70	31.6	38.095	42	24	2	48	88	24	64
SPUN	m.55485	0.34	13	71	32.0	33.333	51	32	2	48	98	252	300
SPUN	m.195892	0.36	14	72	32.3	30.000	60	36	2	47	101	427	485
SPUN	m.66636	0.82	8	69	31.2	33.333	33	21	1	42	73	221	253
SPUN	m.10421	0.92	12	69	31.2	31.667	60	30	4	40	88	426	485
SPUN	m.168277	1.2	14	67	30.4	33.333	63	37	1	224	281	10	72
SPUN	m.75717	5.3	22	62	28.5	26.136	88	63	2	6	93	17	102
SPUN	m.95332	5.7	9	62	28.5	37.143	35	22	0	64	98	457	491
SPUN	m.38481	8.4	11	59	27.3	29.825	57	28	2	44	88	60	116
