HBAL	m.38436	2.30e-46	43	415	164	52.414	145	69	0	18	162	64	208
HBAL	m.38431	2.42e-46	43	416	164	52.414	145	69	0	18	162	64	208
HBAL	m.3563	2.81e-35	40	323	129	47.407	135	67	3	22	155	23	154
HBAL	m.121793	1.89e-10	86	143	59.7	22.945	292	148	11	44	331	61	279
HBAL	m.1340	2.69e-06	19	111	47.4	37.500	64	38	2	47	110	56	117
HBAL	m.35016	1.40e-05	14	107	45.8	41.304	46	26	1	45	90	639	683
HBAL	m.138385	1.49e-05	21	99	42.7	35.135	74	43	3	48	117	6	78
HBAL	m.11095	3.89e-05	13	101	43.5	38.636	44	26	1	51	94	51	93
HBAL	m.62881	1.07e-04	21	100	43.1	37.500	72	41	3	43	112	6	75
HBAL	m.9505	1.18e-04	14	99	42.7	37.500	48	29	1	49	96	247	293
HBAL	m.19535	2.04e-04	15	97	42.0	38.462	52	29	2	43	92	310	360
HBAL	m.32521	2.77e-04	18	96	41.6	33.333	66	36	3	45	103	32	96
HBAL	m.67769	7.71e-04	12	92	40.0	45.000	40	21	1	49	88	7	45
HBAL	m.52475	0.002	17	89	38.9	28.333	60	41	1	43	100	180	239
HBAL	m.67640	0.002	14	88	38.5	42.857	49	24	2	49	94	315	362
HBAL	m.120273	0.003	21	87	38.1	30.137	73	37	3	32	101	38	99
HBAL	m.83926	0.005	21	84	37.0	32.000	75	45	4	25	94	35	108
HBAL	m.130917	0.007	13	83	36.6	36.364	44	27	1	51	94	81	123
HBAL	m.11872	0.012	17	81	35.8	37.500	56	32	3	47	102	94	146
HBAL	m.120216	0.013	15	81	35.8	34.545	55	32	2	50	101	46	99
HBAL	m.25182	0.021	12	81	35.8	39.535	43	22	2	51	90	248	289
HBAL	m.102446	0.040	21	79	35.0	25.000	88	48	2	45	115	21	107
HBAL	m.27731	0.056	23	76	33.9	29.487	78	44	4	51	128	159	225
HBAL	m.136321	0.073	13	75	33.5	33.333	45	28	2	51	94	280	323
HBAL	m.79227	0.084	29	75	33.5	28.571	98	63	4	40	135	33	125
HBAL	m.38031	0.11	16	74	33.1	32.759	58	35	2	50	104	354	410
HBAL	m.83898	0.15	16	69	31.2	35.714	56	32	3	21	73	30	84
HBAL	m.14455	0.21	30	73	32.7	21.359	103	73	2	23	122	796	893
HBAL	m.124140	0.24	19	71	32.0	30.882	68	41	2	31	95	17	81
HBAL	m.50080	0.26	19	71	32.0	33.333	63	40	2	48	110	16	76
HBAL	m.15513	0.30	23	70	31.6	25.316	79	56	2	38	113	128	206
HBAL	m.130992	0.33	13	70	31.6	33.333	42	26	2	49	90	255	294
HBAL	m.36938	0.40	13	68	30.8	41.304	46	24	2	51	94	94	138
HBAL	m.29892	1.2	13	66	30.0	31.818	44	28	1	51	92	246	289
HBAL	m.75653	1.8	11	64	29.3	40.000	40	22	2	51	88	277	316
HBAL	m.114590	1.9	13	65	29.6	27.273	55	29	1	51	94	500	554
HBAL	m.83727	2.8	15	61	28.1	33.333	54	33	2	25	76	35	87
HBAL	m.44863	3.2	11	63	28.9	39.474	38	20	2	164	199	435	471
HBAL	m.125460	4.3	21	62	28.5	22.785	79	50	2	71	141	1726	1801
HBAL	m.24142	4.8	13	60	27.7	29.545	44	30	1	51	94	213	255
HBAL	m.123388	5.1	29	61	28.1	23.585	106	66	3	40	136	812	911
HBAL	m.75450	6.0	13	60	27.7	27.586	58	29	2	47	91	101	158
HBAL	m.112558	6.2	12	60	27.7	34.146	41	26	1	50	90	807	846
HBAL	m.75356	6.3	11	60	27.7	34.211	38	25	0	28	65	217	254
HBAL	m.2470	6.8	15	59	27.3	26.531	49	36	0	103	151	191	239
HBAL	m.58220	7.0	22	60	27.7	25.676	74	53	2	92	165	258	329
HBAL	m.128142	7.3	18	60	27.7	24.194	62	45	1	13	74	133	192
HBAL	m.30834	7.9	16	59	27.3	33.929	56	32	3	48	101	61	113
HBAL	m.140453	9.3	10	58	26.9	32.353	34	23	0	49	82	31	64
HBAL	m.123130	9.5	15	59	27.3	31.148	61	32	2	106	156	126	186
