MROA	m.146848	1.61e-37	43	344	137	42.391	184	93	4	16	191	39	217
MROA	m.104002	5.22e-34	36	321	128	43.448	145	80	2	13	157	29	171
MROA	m.94663	2.46e-06	16	115	48.9	34.375	64	40	2	44	106	139	201
MROA	m.98363	9.93e-06	17	108	46.2	32.432	74	46	2	42	112	64	136
MROA	m.94888	1.09e-05	13	110	47.0	32.692	52	34	1	40	91	712	762
MROA	m.62101	4.19e-05	18	105	45.1	31.081	74	50	1	42	115	113	185
MROA	m.149924	4.26e-05	15	105	45.1	42.857	63	31	3	47	106	430	490
MROA	m.89164	7.99e-05	15	96	41.6	35.294	68	32	2	28	89	3	64
MROA	m.103580	1.95e-04	17	99	42.7	39.130	69	38	3	41	107	73	139
MROA	m.148646	5.45e-04	21	95	41.2	34.444	90	53	4	36	121	54	141
MROA	m.28796	0.002	10	89	38.9	37.778	45	25	1	47	88	38	82
MROA	m.250867	0.002	12	92	40.0	39.583	48	23	2	44	91	1193	1234
MROA	m.93721	0.003	28	89	38.9	25.806	124	69	5	45	157	202	313
MROA	m.77862	0.004	19	89	38.9	28.750	80	55	2	27	105	283	361
MROA	m.8823	0.008	11	85	37.4	35.556	45	27	1	46	90	29	71
MROA	m.27338	0.015	12	84	37.0	34.694	49	31	1	40	88	12	59
MROA	m.156762	0.015	12	84	37.0	36.000	50	31	1	40	88	945	994
MROA	m.236619	0.015	11	84	37.0	36.957	46	25	2	48	91	3586	3629
MROA	m.164485	0.018	12	83	36.6	38.000	50	28	2	41	88	81	129
MROA	m.46412	0.024	11	80	35.4	34.884	43	26	2	46	88	87	127
MROA	m.23910	0.033	16	79	35.0	36.765	68	39	3	42	107	28	93
MROA	m.8846	0.036	16	80	35.4	29.231	65	43	3	46	110	157	218
MROA	m.115413	0.045	10	79	35.0	37.500	48	22	2	47	87	326	372
MROA	m.124765	0.048	12	79	35.0	36.000	50	31	1	42	91	72	120
MROA	m.238245	0.056	11	79	35.0	35.417	48	29	1	44	89	302	349
MROA	m.177258	0.070	22	76	33.9	24.731	93	55	4	43	133	54	133
MROA	m.30329	0.071	16	78	34.7	30.769	65	43	2	46	110	124	186
MROA	m.24195	0.089	10	77	34.3	36.364	44	24	1	48	87	11	54
MROA	m.50301	0.12	19	76	33.9	35.065	77	46	3	42	118	100	172
MROA	m.173179	0.27	13	73	32.7	32.143	56	31	3	37	89	154	205
MROA	m.54057	0.28	12	72	32.3	39.623	53	28	2	42	91	279	330
MROA	m.27272	0.33	21	69	31.2	28.571	98	48	5	46	131	14	101
MROA	m.74829	0.33	21	72	32.3	28.235	85	56	4	27	110	35	115
MROA	m.78895	0.36	13	72	32.3	34.615	52	31	3	48	98	269	318
MROA	m.49846	0.39	13	71	32.0	27.273	55	39	1	36	89	7	61
MROA	m.24331	0.39	11	71	32.0	33.333	48	28	3	47	91	349	395
MROA	m.225465	1.2	16	68	30.8	31.081	74	36	3	64	128	3843	3910
MROA	m.153190	1.4	10	68	30.8	33.333	48	25	2	48	88	1842	1889
MROA	m.150968	2.5	24	66	30.0	25.743	101	68	2	77	175	938	1033
MROA	m.203676	3.0	13	64	29.3	33.333	51	34	0	57	107	98	148
MROA	m.138973	4.8	8	63	28.9	29.412	34	24	0	46	79	39	72
MROA	m.21796	6.2	18	61	28.1	27.174	92	40	5	47	121	229	310
MROA	m.129734	8.4	6	61	28.1	46.154	26	14	0	181	206	874	899
MROA	m.217371	8.7	18	60	27.7	25.000	72	40	3	26	97	458	515
MROA	m.30077	8.9	9	60	27.7	37.500	40	23	1	48	85	340	379
