MSQU	KAF1743992.1	3.23e-04	14	91	39.7	28.571	63	38	2	45	101	12	73
MSQU	KAF1742978.1	3.87e-04	11	89	38.9	39.130	46	27	1	42	87	225	269
MSQU	KAF1744847.1	0.017	28	76	33.9	25.984	127	78	5	15	126	356	481
MSQU	KAF1743325.1	0.24	11	66	30.0	39.583	48	24	2	44	87	9	55
MSQU	KAF1742438.1	0.29	6	62	28.5	40.000	25	15	0	45	69	68	92
MSQU	KAF1741620.1	0.36	10	64	29.3	35.714	42	26	1	48	89	61	101
MSQU	KAF1744809.1	1.2	7	61	28.1	40.000	30	18	0	375	404	230	259
MSQU	KAF1744127.1	2.2	13	55	25.8	32.075	53	29	2	52	104	42	87
MSQU	KAF1744536.1	2.6	7	58	26.9	33.333	30	18	1	274	301	320	349
MSQU	KAF1741693.1	7.2	8	51	24.3	35.484	31	15	1	279	309	59	84
