CHOL	m.97624	1.17e-24	29	240	97.1	45.872	109	45	2	15	110	22	129
CHOL	m.902341	2.09e-18	36	208	84.7	39.370	127	71	4	16	137	8	133
CHOL	m.902327	2.26e-18	36	203	82.8	39.370	127	71	4	16	137	8	133
CHOL	m.97475	2.93e-08	85	128	53.9	23.024	291	140	10	45	329	24	236
CHOL	m.509456	1.38e-07	25	126	53.1	40.964	83	43	4	43	125	24	100
CHOL	m.97609	1.16e-06	9	113	48.1	60.000	30	12	0	86	115	1	30
CHOL	m.97605	1.23e-06	9	112	47.8	60.000	30	12	0	86	115	1	30
CHOL	m.86500	2.80e-06	27	114	48.5	32.222	90	58	3	32	121	8	94
CHOL	m.259611	3.09e-06	21	115	48.9	36.000	75	44	3	43	114	187	260
CHOL	m.259817	3.92e-06	21	114	48.5	36.000	75	44	3	43	114	254	327
CHOL	m.259699	1.09e-05	21	110	47.0	36.000	75	44	3	43	114	254	327
CHOL	m.67402	7.08e-05	23	103	44.3	33.333	78	49	3	27	103	29	104
CHOL	m.178673	3.90e-04	15	97	42.0	34.921	63	30	2	49	100	15	77
CHOL	m.288576	7.22e-04	31	91	39.7	26.087	115	73	3	35	138	34	147
CHOL	m.774471	0.001	16	94	40.8	37.500	56	33	2	47	101	2	56
CHOL	m.241398	0.002	13	92	40.0	40.426	47	24	2	51	94	54	99
CHOL	m.220762	0.003	15	90	39.3	42.308	52	23	2	51	99	147	194
CHOL	m.185068	0.004	14	89	38.9	34.043	47	30	1	45	91	195	240
CHOL	m.220750	0.005	15	88	38.5	42.308	52	23	2	51	99	92	139
CHOL	m.629151	0.005	13	89	38.9	37.500	48	26	2	50	94	612	658
CHOL	m.13639	0.031	13	82	36.2	37.500	48	25	2	49	91	894	941
CHOL	m.587680	0.084	28	78	34.7	24.742	97	55	3	24	116	129	211
CHOL	m.375721	0.088	15	76	33.9	29.630	54	35	2	43	94	61	113
CHOL	m.333438	0.091	16	76	33.9	32.075	53	34	2	42	94	121	171
CHOL	m.905488	0.11	24	78	34.7	28.571	91	56	3	10	91	1640	1730
CHOL	m.905219	0.11	24	78	34.7	28.571	91	56	3	10	91	1665	1755
CHOL	m.375812	0.14	15	74	33.1	29.630	54	35	2	43	94	62	114
CHOL	m.240002	0.28	17	74	33.1	32.759	58	36	2	37	94	97	151
CHOL	m.391072	0.32	12	74	33.1	36.585	41	25	1	51	91	41	80
CHOL	m.312953	0.34	14	68	30.8	31.250	48	32	1	43	90	35	81
CHOL	m.942717	0.36	13	67	30.4	34.884	43	26	2	51	92	11	52
CHOL	m.183456	0.41	15	73	32.7	27.586	58	34	2	50	100	357	413
CHOL	m.312938	0.56	12	72	32.3	35.000	40	25	1	51	90	801	839
CHOL	m.75274	0.63	15	71	32.0	33.929	56	32	3	43	93	167	222
CHOL	m.309896	0.72	14	68	30.8	33.333	48	27	2	51	96	42	86
CHOL	m.869058	0.74	15	69	31.2	28.846	52	35	1	38	89	160	209
CHOL	m.303899	0.80	13	69	31.2	36.364	44	26	1	51	92	233	276
CHOL	m.447872	0.94	18	64	29.3	26.866	67	37	3	32	90	11	73
CHOL	m.347513	1.0	13	69	31.2	31.111	45	30	1	49	93	248	291
CHOL	m.67370	1.0	14	69	31.2	34.043	47	29	2	57	103	83	127
CHOL	m.328853	1.0	20	69	31.2	25.758	66	45	1	232	297	282	343
CHOL	m.149446	1.0	15	68	30.8	32.759	58	32	3	51	102	84	140
CHOL	m.191837	1.5	15	68	30.8	30.000	50	34	1	45	94	2	50
CHOL	m.75282	2.4	15	66	30.0	33.929	56	32	3	43	93	167	222
CHOL	m.16018	2.5	23	66	30.0	27.848	79	52	2	45	122	9	83
CHOL	m.165332	2.7	15	66	30.0	31.373	51	30	2	42	91	35	81
CHOL	m.858350	2.9	19	66	30.0	26.562	64	47	0	107	170	428	491
CHOL	m.724286	3.0	13	65	29.6	44.444	45	23	2	47	90	371	414
CHOL	m.487619	3.1	14	65	29.6	36.170	47	23	4	51	96	292	332
CHOL	m.375751	3.6	10	64	29.3	38.235	34	20	1	43	76	73	105
CHOL	m.292479	5.2	9	63	28.9	40.000	30	18	0	51	80	122	151
CHOL	m.292486	5.7	9	63	28.9	40.000	30	18	0	51	80	122	151
CHOL	m.375807	7.8	10	62	28.5	38.235	34	20	1	43	76	73	105
CHOL	m.885887	8.6	13	61	28.1	31.111	45	28	2	48	90	258	301
CHOL	m.509263	9.8	9	61	28.1	40.625	32	18	1	45	75	122	153
