SARC	XP_014153862.1	0.005	12	84	37.0	50.000	32	15	1	49	80	669	699
SARC	XP_014157711.1	0.006	13	83	36.6	50.000	34	16	1	43	76	871	903
SARC	XP_014152344.1	0.008	14	82	36.2	37.838	37	23	0	45	81	13	49
SARC	XP_014152336.1	0.009	18	82	36.2	35.417	48	31	0	33	80	202	249
SARC	XP_014156583.1	0.14	17	72	32.3	32.609	46	28	2	44	87	309	353
SARC	XP_014156998.1	0.35	11	69	31.2	48.276	29	14	1	51	78	8	36
SARC	XP_014158431.1	0.48	16	68	30.8	37.209	43	27	0	103	145	277	319
SARC	XP_014146303.1	0.75	20	61	28.1	33.333	54	31	2	48	101	18	66
SARC	XP_014154175.1	1.5	16	62	28.5	33.333	45	28	1	51	93	28	72
SARC	XP_014146945.1	1.6	17	60	27.7	36.170	47	27	1	40	83	22	68
SARC	XP_014158270.1	1.9	15	61	28.1	40.000	40	23	1	43	82	134	172
SARC	XP_014154321.1	3.1	28	56	26.2	21.622	74	51	1	35	108	2	68
SARC	XP_014155883.1	3.4	25	61	28.1	29.730	74	45	2	17	83	346	419
SARC	XP_014144908.1	4.2	20	55	25.8	25.000	52	39	0	50	101	32	83
SARC	XP_014160570.1	5.0	25	58	26.9	29.167	72	39	3	37	102	44	109
SARC	XP_014153015.1	5.1	11	59	27.3	34.483	29	19	0	56	84	54	82
SARC	XP_014155420.1	7.4	12	58	26.9	35.484	31	20	0	151	181	239	269
SARC	XP_014156446.1	8.6	21	57	26.6	30.909	55	37	1	149	203	397	450
SARC	XP_014155272.1	9.0	15	57	26.6	34.146	41	26	1	159	198	298	338
