XTES	maker-XT_scaffold3710-snap-gene-0.39-mRNA-1	6.31e-32	29	287	115	67.532	77	25	0	7	83	36	112
XTES	maker-XT_scaffold5134-augustus-gene-0.53-mRNA-1	3.59e-05	14	93	40.4	50.000	38	18	1	44	81	26	62
XTES	maker-XT_scaffold2431-augustus-gene-0.22-mRNA-1	5.94e-04	13	92	40.0	39.394	33	20	0	49	81	420	452
XTES	maker-XT_scaffold3960-augustus-gene-0.35-mRNA-1	0.002	17	89	38.9	39.535	43	26	0	39	81	197	239
XTES	maker-XT_scaffold3960-augustus-gene-0.35-mRNA-1	0.40	17	70	31.6	30.556	36	25	0	47	82	608	643
XTES	maker-XT_scaffold439-augustus-gene-0.33-mRNA-1	0.004	10	86	37.7	51.852	27	13	0	51	77	1015	1041
XTES	maker-XT_scaffold2969-snap-gene-0.35-mRNA-1	0.008	12	83	36.6	46.875	32	16	1	45	76	356	386
XTES	maker-XT_scaffold2457-augustus-gene-0.53-mRNA-1	0.008	21	79	35.0	35.714	56	34	2	47	101	6	60
XTES	augustus_masked-XT_scaffold1806-processed-gene-0.5-mRNA-1	0.009	11	82	36.2	55.172	29	12	1	48	76	20	47
XTES	maker-XT_scaffold1479-augustus-gene-0.58-mRNA-1	0.014	14	82	36.2	36.842	38	23	1	43	80	1463	1499
XTES	maker-XT_scaffold1479-augustus-gene-0.58-mRNA-1	1.00	14	66	30.0	46.667	30	15	1	47	76	199	227
XTES	maker-XT_scaffold2528-snap-gene-0.61-mRNA-1	0.031	22	78	34.7	30.508	59	40	1	18	76	5	62
XTES	snap_masked-XT_scaffold131003-processed-gene-0.1-mRNA-1	0.042	13	74	33.1	44.118	34	18	1	43	76	13	45
XTES	augustus_masked-XT_scaffold4579-processed-gene-0.2-mRNA-1	0.042	20	77	34.3	35.185	54	34	1	48	100	89	142
XTES	maker-XT_scaffold5871-snap-gene-0.10-mRNA-1	0.044	13	74	33.1	41.176	34	19	1	43	76	87	119
XTES	maker-XT_scaffold618-snap-gene-0.33-mRNA-1	0.047	13	73	32.7	44.118	34	18	1	43	76	47	79
XTES	snap_masked-XT_scaffold181326-processed-gene-0.2-mRNA-1	0.050	13	75	33.5	42.424	33	18	1	49	81	171	202
XTES	snap_masked-XT_scaffold87200-processed-gene-0.0-mRNA-1	0.050	13	73	32.7	41.176	34	19	1	43	76	50	82
XTES	maker-XT_scaffold128751-snap-gene-0.11-mRNA-1	0.088	13	73	32.7	41.176	34	19	1	43	76	115	147
XTES	maker-XT_scaffold4635-augustus-gene-0.5-mRNA-1	0.13	15	73	32.7	41.026	39	22	1	42	80	60	97
XTES	maker-XT_scaffold26981-augustus-gene-0.18-mRNA-1	0.18	25	72	32.3	30.882	68	33	2	27	93	118	172
XTES	maker-XT_scaffold1760-snap-gene-0.33-mRNA-1	0.19	13	72	32.3	41.176	34	19	1	43	76	7	39
XTES	maker-XT_scaffold184971-snap-gene-0.15-mRNA-1	0.20	20	70	31.6	39.286	56	30	3	29	81	136	190
XTES	snap_masked-XT_scaffold57835-processed-gene-0.1-mRNA-1	0.20	14	72	32.3	35.135	37	22	1	39	75	113	147
XTES	augustus_masked-XT_scaffold36865-processed-gene-0.0-mRNA-1	0.24	13	71	32.0	41.176	34	19	1	43	76	16	48
XTES	snap_masked-XT_scaffold121699-processed-gene-0.1-mRNA-1	0.24	13	70	31.6	41.176	34	19	1	43	76	13	45
XTES	maker-XT_scaffold219-augustus-gene-0.35-mRNA-1	0.26	33	71	32.0	28.261	92	52	3	90	175	194	277
XTES	augustus_masked-XT_scaffold27664-processed-gene-0.1-mRNA-1	0.29	11	63	28.9	32.143	28	19	0	48	75	20	47
XTES	augustus_masked-XT_scaffold8957-processed-gene-0.0-mRNA-1	0.37	13	70	31.6	38.235	34	20	1	43	76	15	47
XTES	maker-XT_scaffold6370-snap-gene-0.10-mRNA-1	0.38	13	70	31.6	44.118	34	18	1	43	76	59	91
XTES	maker-XT_scaffold56638-snap-gene-0.33-mRNA-1	0.51	13	68	30.8	38.235	34	20	1	43	76	360	392
XTES	maker-XT_scaffold977-snap-gene-0.4-mRNA-1	0.54	13	61	28.1	41.176	34	19	1	43	76	24	56
XTES	maker-XT_scaffold4441-augustus-gene-0.13-mRNA-1	0.55	10	68	30.8	41.379	29	15	1	51	77	16	44
XTES	augustus_masked-XT_scaffold24629-processed-gene-0.2-mRNA-1	0.56	13	68	30.8	39.394	33	19	1	44	76	13	44
XTES	augustus_masked-XT_scaffold51302-processed-gene-0.0-mRNA-1	0.92	13	65	29.6	38.235	34	20	1	43	76	16	48
XTES	maker-XT_scaffold5108-snap-gene-0.36-mRNA-1	0.93	16	66	30.0	37.500	48	24	2	34	76	11	57
XTES	maker-XT_scaffold11840-augustus-gene-0.4-mRNA-1	1.1	14	66	30.0	30.769	39	25	1	39	75	271	309
XTES	augustus_masked-XT_scaffold131520-processed-gene-0.0-mRNA-1	1.3	13	64	29.3	38.235	34	20	1	43	76	16	48
XTES	maker-XT_scaffold4011-snap-gene-0.12-mRNA-1	1.4	10	65	29.6	38.462	26	15	1	51	76	22	46
XTES	maker-XT_scaffold1740-snap-gene-0.149-mRNA-1	1.4	23	65	29.6	26.389	72	43	2	15	76	472	543
XTES	maker-XT_scaffold179589-snap-gene-0.4-mRNA-1	1.4	20	64	29.3	26.923	52	35	1	24	75	152	200
XTES	augustus_masked-XT_scaffold105709-processed-gene-0.1-mRNA-1	1.7	15	63	28.9	42.500	40	22	1	120	158	56	95
XTES	maker-XT_scaffold6023-snap-gene-0.18-mRNA-1	1.8	10	64	29.3	46.154	26	13	1	51	76	373	397
XTES	maker-XT_scaffold58127-augustus-gene-0.13-mRNA-1	2.0	20	62	28.5	33.333	54	34	1	28	81	19	70
XTES	augustus_masked-XT_scaffold1500-processed-gene-0.38-mRNA-1	2.1	19	63	28.9	34.000	50	33	0	162	211	372	421
XTES	augustus_masked-XT_scaffold5432-processed-gene-0.7-mRNA-1	3.5	16	62	28.5	29.545	44	29	2	39	81	1	43
XTES	maker-XT_scaffold4848-augustus-gene-0.39-mRNA-1	4.5	10	61	28.1	30.769	26	18	0	51	76	12	37
XTES	maker-XT_scaffold2345-snap-gene-0.7-mRNA-1	4.9	34	60	27.7	26.733	101	64	4	125	215	207	307
XTES	maker-XT_scaffold3172-snap-gene-0.24-mRNA-1	5.5	10	60	27.7	42.308	26	15	0	51	76	59	84
XTES	maker-XT_scaffold64192-snap-gene-0.10-mRNA-1	5.5	20	59	27.3	37.736	53	30	3	36	87	23	73
XTES	maker-XT_scaffold2703-snap-gene-0.7-mRNA-1	6.0	17	60	27.7	35.556	45	29	0	73	117	1037	1081
XTES	maker-XT_scaffold4942-augustus-gene-0.23-mRNA-1	7.3	14	59	27.3	32.432	37	24	1	40	76	9	44
XTES	maker-XT_scaffold23859-augustus-gene-0.10-mRNA-1	7.8	28	58	26.9	29.114	79	50	2	25	97	205	283
XTES	maker-XT_scaffold4577-augustus-gene-0.295-mRNA-1	8.0	11	59	27.3	36.667	30	18	1	47	76	10	38
