COWC	XP_004365242.2	1.27e-21	45	229	92.8	34.437	151	91	4	13	162	19	162
COWC	XP_004346855.2	1.58e-07	27	121	51.2	34.066	91	58	2	39	128	11	100
COWC	XP_011270517.1	1.11e-05	15	106	45.4	39.623	53	28	2	47	96	149	200
COWC	XP_004343252.2	1.78e-05	14	104	44.7	34.783	46	29	1	49	94	269	313
COWC	XP_004365048.1	2.60e-05	27	104	44.7	31.068	103	58	5	28	119	815	915
COWC	XP_004345239.1	8.11e-05	16	100	43.1	35.088	57	34	2	42	96	166	221
COWC	XP_004347632.1	1.88e-04	14	97	42.0	38.298	47	27	2	50	96	1805	1849
COWC	XP_004342971.1	2.70e-04	29	96	41.6	32.857	70	45	1	34	103	61	128
COWC	XP_004342971.1	0.58	29	68	30.8	46.429	28	15	0	242	269	622	649
COWC	XP_004364034.1	4.55e-04	16	93	40.4	38.889	54	30	3	45	97	308	359
COWC	XP_004346849.1	4.61e-04	22	93	40.4	33.333	75	48	2	55	128	18	91
COWC	XP_004366013.1	5.11e-04	21	94	40.8	29.762	84	42	4	45	113	22	103
COWC	XP_004348113.2	5.15e-04	13	93	40.4	40.909	44	23	3	51	93	84	125
COWC	XP_004348969.2	6.25e-04	15	93	40.4	30.000	50	34	1	43	92	50	98
COWC	XP_004347015.1	0.001	15	90	39.3	40.000	50	28	2	42	91	24	71
COWC	XP_004347627.1	0.001	17	90	39.3	35.938	64	30	4	51	108	1043	1101
COWC	XP_004363799.2	0.002	28	89	38.9	29.474	95	65	1	40	132	373	467
COWC	XP_004365921.2	0.012	11	82	36.2	42.105	38	21	1	46	82	132	169
COWC	XP_004365262.1	0.017	18	81	35.8	31.148	61	40	2	51	111	30	88
COWC	XP_004345525.2	0.017	16	81	35.8	37.037	54	31	3	51	103	572	623
COWC	XP_004349071.2	0.020	10	80	35.4	37.143	35	22	0	42	76	268	302
COWC	XP_004365749.2	0.026	23	80	35.4	26.744	86	54	3	15	91	1819	1904
COWC	XP_004365564.1	0.058	12	76	33.9	39.024	41	24	1	51	91	38	77
COWC	XP_004345653.2	0.063	15	76	33.9	35.294	51	31	2	51	100	4	53
COWC	XP_004365935.1	0.069	14	75	33.5	37.255	51	25	4	48	94	120	167
COWC	XP_004365112.1	0.16	13	73	32.7	34.043	47	26	2	51	93	380	425
COWC	XP_011270793.1	0.21	12	72	32.3	34.091	44	23	3	51	90	330	371
COWC	XP_004346926.1	0.30	13	71	32.0	34.783	46	28	2	51	95	723	767
COWC	XP_004364071.2	0.32	13	70	31.6	31.111	45	30	1	50	94	399	442
COWC	XP_004347494.2	0.51	15	67	30.4	32.727	55	32	3	50	100	9	62
COWC	XP_004365695.1	0.55	12	68	30.8	32.500	40	26	1	51	90	374	412
COWC	XP_004342884.2	0.59	15	68	30.8	30.645	62	30	3	51	101	658	717
COWC	XP_004343779.2	0.72	15	67	30.4	30.769	52	32	2	51	99	747	797
COWC	XP_004365669.1	0.84	13	66	30.0	34.091	44	27	1	48	89	372	415
COWC	XP_004343242.1	0.88	19	66	30.0	26.562	64	47	0	105	168	437	500
COWC	XP_004348782.1	1.0	15	66	30.0	25.490	51	36	1	51	99	234	284
COWC	XP_004349809.2	1.9	14	64	29.3	28.571	49	32	1	49	94	599	647
COWC	XP_004349450.2	2.8	16	62	28.5	33.333	54	29	3	47	99	404	451
COWC	XP_004345207.1	4.2	26	61	28.1	25.490	102	58	4	23	110	442	539
COWC	XP_004346316.1	4.5	13	61	28.1	28.846	52	25	2	50	92	680	728
COWC	XP_004364201.2	5.1	17	60	27.7	28.333	60	38	2	43	99	262	319
COWC	XP_011270555.1	5.4	14	60	27.7	36.170	47	27	3	51	96	470	514
COWC	XP_004345686.2	5.6	16	60	27.7	32.075	53	34	2	45	97	469	519
COWC	XP_004343087.2	5.7	23	60	27.7	28.205	78	55	1	9	85	298	375
COWC	XP_004364183.1	6.7	10	59	27.3	40.000	35	21	0	133	167	314	348
COWC	XP_004348260.1	8.3	27	59	27.3	27.473	91	61	3	209	299	4	89
COWC	XP_004348080.1	9.2	13	58	26.9	31.818	44	28	1	53	94	950	993
