NCRA	XP_962645.3	5.63e-06	16	111	47.4	39.062	64	37	2	42	105	703	764
NCRA	XP_957746.1	1.29e-04	12	99	42.7	38.000	50	28	2	44	91	345	393
NCRA	XP_957328.2	2.30e-04	9	98	42.4	44.737	38	21	0	36	73	13	50
NCRA	XP_011393936.1	2.34e-04	12	97	42.0	35.417	48	30	1	42	89	666	712
NCRA	XP_011393937.1	3.86e-04	12	95	41.2	35.417	48	30	1	42	89	596	642
NCRA	XP_964203.1	4.15e-04	13	95	41.2	39.216	51	29	2	47	97	376	424
NCRA	XP_956465.2	0.001	13	92	40.0	40.385	52	30	1	46	97	91	141
NCRA	XP_960898.1	0.003	14	88	38.5	32.727	55	37	0	46	100	290	344
NCRA	XP_955953.1	0.006	17	86	37.7	26.761	71	48	1	37	107	17	83
NCRA	XP_962209.2	0.006	12	85	37.4	38.298	47	27	2	42	88	28	72
NCRA	XP_960732.2	0.056	12	78	34.7	36.170	47	28	2	45	91	1145	1189
NCRA	XP_957607.1	0.060	16	77	34.3	32.308	65	41	2	32	94	279	342
NCRA	XP_965771.3	0.095	18	76	33.9	24.138	87	46	3	15	88	845	924
NCRA	XP_964328.2	0.11	12	75	33.5	32.075	53	31	2	48	97	723	773
NCRA	XP_960149.1	0.15	19	72	32.3	27.957	93	47	5	20	97	103	190
NCRA	XP_958880.2	0.27	10	72	32.3	34.091	44	26	1	48	88	356	399
NCRA	XP_961377.1	0.53	10	70	31.6	32.558	43	27	2	46	87	828	869
NCRA	XP_959501.2	0.65	12	68	30.8	31.373	51	33	2	48	97	54	103
NCRA	XP_957688.3	0.97	11	68	30.8	27.083	48	32	1	45	89	12	59
NCRA	XP_011395181.1	1.0	16	67	30.4	25.758	66	47	2	48	112	338	402
NCRA	XP_011395180.1	1.0	16	67	30.4	25.758	66	47	2	48	112	338	402
NCRA	XP_965683.2	1.4	10	66	30.0	32.558	43	27	1	48	88	283	325
NCRA	XP_965718.1	1.5	12	65	29.6	30.909	55	31	2	47	94	14	68
NCRA	XP_960498.1	1.5	35	66	30.0	27.333	150	84	4	115	258	290	420
NCRA	XP_960120.1	2.3	12	64	29.3	31.250	48	33	0	298	345	12	59
NCRA	XP_011395257.1	2.3	10	64	29.3	29.545	44	26	1	60	98	533	576
NCRA	XP_011395256.1	2.3	10	64	29.3	29.545	44	26	1	60	98	533	576
NCRA	XP_011395258.1	2.5	10	64	29.3	29.545	44	26	1	60	98	516	559
NCRA	XP_011395255.1	2.5	10	64	29.3	29.545	44	26	1	60	98	516	559
NCRA	XP_956029.1	3.0	12	63	28.9	30.612	49	32	1	45	91	352	400
NCRA	XP_962529.1	4.5	15	62	28.5	34.921	63	31	2	164	224	402	456
NCRA	XP_961898.1	4.6	12	62	28.5	29.167	48	34	0	107	154	1117	1164
NCRA	XP_955836.3	5.5	13	58	26.9	33.333	57	33	2	164	215	63	119
NCRA	XP_001728077.1	6.7	33	60	27.7	24.242	132	94	2	123	254	524	649
NCRA	XP_958850.3	6.7	7	60	27.7	37.931	29	18	0	274	302	355	383
NCRA	XP_961726.1	8.2	27	60	27.7	27.642	123	74	3	147	254	1047	1169
NCRA	XP_965425.2	9.2	10	59	27.3	30.952	42	28	1	41	82	39	79
