ATEN	XP_031559876.1	8.51e-66	97	528	207	40.673	327	121	9	4	258	2	327
ATEN	XP_031559868.1	5.02e-64	97	517	203	39.458	332	119	10	4	258	2	328
ATEN	XP_031562576.1	4.47e-05	19	102	43.9	38.000	50	31	0	34	83	2	51
ATEN	XP_031550528.1	1.60e-04	19	98	42.4	46.000	50	24	2	42	90	87	134
ATEN	XP_031561272.1	2.61e-04	13	90	39.3	45.455	33	18	0	45	77	13	45
ATEN	XP_031551424.1	4.56e-04	14	95	41.2	41.667	36	21	0	48	83	15	50
ATEN	XP_031562460.1	0.001	21	93	40.4	36.364	55	32	2	26	80	22	73
ATEN	XP_031574150.1	0.001	20	92	40.0	38.889	54	31	2	33	86	33	84
ATEN	XP_031565616.1	0.006	13	87	38.1	50.000	34	16	1	42	75	21	53
ATEN	XP_031566731.1	0.006	16	86	37.7	37.209	43	25	1	39	81	34	74
ATEN	XP_031563043.1	0.008	85	84	37.0	18.421	266	143	6	36	260	1	233
ATEN	XP_031574292.1	0.008	16	86	37.7	35.714	42	27	0	43	84	8	49
ATEN	XP_031574288.1	0.008	16	85	37.4	35.714	42	27	0	43	84	8	49
ATEN	XP_031574287.1	0.008	16	85	37.4	35.714	42	27	0	43	84	8	49
ATEN	XP_031574286.1	0.008	16	85	37.4	35.714	42	27	0	43	84	8	49
ATEN	XP_031574285.1	0.008	16	85	37.4	35.714	42	27	0	43	84	8	49
ATEN	XP_031551312.1	0.009	17	80	35.4	45.652	46	19	3	45	89	20	60
ATEN	XP_031570925.1	0.012	15	84	37.0	41.026	39	23	0	43	81	8	46
ATEN	XP_031570924.1	0.012	15	84	37.0	41.026	39	23	0	43	81	8	46
ATEN	XP_031550171.1	0.014	14	83	36.6	36.842	38	24	0	44	81	14	51
ATEN	XP_031568170.1	0.015	15	84	37.0	40.000	40	23	1	43	82	16	54
ATEN	XP_031551302.1	0.015	12	84	37.0	45.161	31	17	0	51	81	1308	1338
ATEN	XP_031566529.1	0.016	25	83	36.6	32.308	65	39	2	35	99	2	61
ATEN	XP_031566528.1	0.016	25	83	36.6	32.308	65	39	2	35	99	2	61
ATEN	XP_031570935.1	0.016	13	79	35.0	47.059	34	18	0	49	82	17	50
ATEN	XP_031574297.1	0.017	14	83	36.6	42.105	38	22	0	43	80	8	45
ATEN	XP_031570484.1	0.021	20	82	36.2	32.308	65	32	3	35	88	7	70
ATEN	XP_031570483.1	0.021	20	82	36.2	32.308	65	32	3	35	88	7	70
ATEN	XP_031570482.1	0.021	20	82	36.2	32.308	65	32	3	35	88	7	70
ATEN	XP_031570480.1	0.021	20	82	36.2	32.308	65	32	3	35	88	7	70
ATEN	XP_031570479.1	0.021	20	82	36.2	32.308	65	32	3	35	88	7	70
ATEN	XP_031570478.1	0.021	20	82	36.2	32.308	65	32	3	35	88	7	70
ATEN	XP_031575282.1	0.027	14	82	36.2	36.842	38	24	0	43	80	259	296
ATEN	XP_031549185.1	0.029	20	81	35.8	30.769	52	36	0	35	86	3	54
ATEN	XP_031572891.1	0.029	16	81	35.8	36.585	41	25	1	43	83	10	49
ATEN	XP_031563643.1	0.032	13	81	35.8	42.424	33	18	1	44	76	13	44
ATEN	XP_031564362.1	0.036	11	80	35.4	48.276	29	15	0	48	76	15	43
ATEN	XP_031573197.1	0.051	18	79	35.0	35.417	48	30	1	35	82	3	49
ATEN	XP_031573199.1	0.058	18	78	34.7	35.417	48	30	1	35	82	3	49
ATEN	XP_031552498.1	0.066	13	73	32.7	42.424	33	18	1	48	80	15	46
ATEN	XP_031570540.1	0.070	15	78	34.7	43.590	39	21	1	45	83	324	361
ATEN	XP_031560521.1	0.073	13	76	33.9	42.424	33	18	1	48	80	16	47
ATEN	XP_031559476.1	0.079	10	77	34.3	46.154	26	14	0	51	76	379	404
ATEN	XP_031573198.1	0.083	18	77	34.3	35.417	48	30	1	35	82	3	49
ATEN	XP_031557289.1	0.086	12	77	34.3	43.750	32	17	1	51	82	130	160
ATEN	XP_031570062.1	0.096	13	77	34.3	34.286	35	23	0	41	75	201	235
ATEN	XP_031565336.1	0.096	11	77	34.3	39.286	28	17	0	49	76	14	41
ATEN	XP_031570063.1	0.098	13	77	34.3	34.286	35	23	0	41	75	201	235
ATEN	XP_031570401.1	0.10	13	76	33.9	35.897	39	20	1	49	82	312	350
ATEN	XP_031548753.1	0.12	13	76	33.9	35.294	34	22	0	43	76	15	48
ATEN	XP_031569629.1	0.15	14	75	33.5	38.889	36	21	1	43	78	876	910
ATEN	XP_031548803.1	0.17	18	74	33.1	33.333	48	29	2	30	76	7	52
ATEN	XP_031548802.1	0.18	18	74	33.1	33.333	48	29	2	30	76	7	52
ATEN	XP_031549339.1	0.20	12	74	33.1	40.625	32	18	1	47	77	7	38
ATEN	XP_031574459.1	0.20	16	74	33.1	40.000	45	23	2	45	86	12	55
ATEN	XP_031563946.1	0.20	17	74	33.1	35.556	45	28	1	38	82	4	47
ATEN	XP_031567450.1	0.21	11	74	33.1	40.000	30	18	0	47	76	16	45
ATEN	XP_031570364.1	0.22	13	74	33.1	42.424	33	18	1	44	76	13	44
ATEN	XP_031573646.1	0.25	14	74	33.1	37.838	37	19	1	41	77	119	151
ATEN	XP_031551423.1	0.27	14	73	32.7	32.500	40	25	1	48	85	10	49
ATEN	XP_031561913.1	0.27	28	73	32.7	31.250	80	50	4	13	87	89	168
ATEN	XP_031572712.1	0.29	13	73	32.7	38.235	34	20	1	42	75	15	47
ATEN	XP_031565459.1	0.29	14	72	32.3	39.474	38	22	1	45	82	27	63
ATEN	XP_031572713.1	0.31	13	73	32.7	38.235	34	20	1	42	75	15	47
ATEN	XP_031571408.1	0.32	17	73	32.7	40.909	44	21	2	48	91	29	67
ATEN	XP_031571408.1	1.2	17	68	30.8	40.625	32	18	1	48	79	328	358
ATEN	XP_031575228.1	0.33	12	73	32.7	46.875	32	16	1	45	76	77	107
ATEN	XP_031550162.1	0.34	14	72	32.3	31.579	38	26	0	43	80	22	59
ATEN	XP_031549449.1	0.36	12	72	32.3	40.625	32	19	0	49	80	16	47
ATEN	XP_031554990.1	0.38	19	72	32.3	36.000	50	29	2	31	80	2	48
ATEN	XP_031549448.1	0.39	12	72	32.3	40.625	32	19	0	49	80	16	47
ATEN	XP_031560801.1	0.40	12	72	32.3	43.750	32	17	1	45	76	11	41
ATEN	XP_031561574.1	0.41	19	71	32.0	33.333	51	33	1	75	124	248	298
ATEN	XP_031565393.1	0.43	32	72	32.3	44.118	34	18	1	51	84	22	54
ATEN	XP_031565393.1	2.7	32	65	29.6	29.670	91	52	4	5	89	71	155
ATEN	XP_031551938.1	0.46	13	71	32.0	41.176	34	19	1	43	75	129	162
ATEN	XP_031567989.1	0.48	23	71	32.0	33.846	65	39	3	44	105	10	73
ATEN	XP_031568081.1	0.50	15	71	32.0	35.897	39	24	1	45	83	12	49
ATEN	XP_031563636.1	0.51	17	71	32.0	31.818	44	29	1	44	87	13	55
ATEN	XP_031551619.1	0.52	15	69	31.2	33.333	39	25	1	43	81	10	47
ATEN	XP_031564411.1	0.60	16	71	32.0	26.190	42	30	1	43	84	706	746
ATEN	XP_031564410.1	0.60	16	71	32.0	26.190	42	30	1	43	84	706	746
ATEN	XP_031564409.1	0.60	16	71	32.0	26.190	42	30	1	43	84	706	746
ATEN	XP_031564408.1	0.60	16	71	32.0	26.190	42	30	1	43	84	706	746
ATEN	XP_031564407.1	0.60	16	71	32.0	26.190	42	30	1	43	84	706	746
ATEN	XP_031550806.1	0.64	10	70	31.6	48.276	29	13	1	51	77	135	163
ATEN	XP_031561043.1	0.67	11	69	31.2	46.429	28	14	1	49	76	16	42
ATEN	XP_031567209.1	0.68	14	70	31.6	36.842	38	23	1	45	82	14	50
ATEN	XP_031554759.1	0.73	13	69	31.2	35.294	34	22	0	51	84	23	56
ATEN	XP_031559693.1	0.75	12	70	31.6	43.750	32	17	1	51	82	792	822
ATEN	XP_031571550.1	0.76	17	70	31.6	32.609	46	30	1	45	90	14	58
ATEN	XP_031567986.1	0.83	12	69	31.2	40.625	32	18	1	45	76	11	41
ATEN	XP_031564381.1	0.92	11	69	31.2	35.714	28	18	0	49	76	18	45
ATEN	XP_031570010.1	0.95	14	69	31.2	38.889	36	21	1	48	83	17	51
ATEN	XP_031554992.1	0.98	13	69	31.2	39.394	33	19	1	44	76	33	64
ATEN	XP_031549451.1	1.1	15	68	30.8	32.500	40	27	0	47	86	84	123
ATEN	XP_031549454.1	1.3	15	68	30.8	32.500	40	27	0	47	86	53	92
ATEN	XP_031558804.1	1.3	11	68	30.8	34.483	29	19	0	48	76	22	50
ATEN	XP_031549453.1	1.3	15	67	30.4	32.500	40	27	0	47	86	61	100
ATEN	XP_031549452.1	1.3	15	67	30.4	32.500	40	27	0	47	86	61	100
ATEN	XP_031549455.1	1.3	15	67	30.4	32.500	40	27	0	47	86	34	73
ATEN	XP_031564354.1	1.3	11	68	30.8	46.429	28	14	1	49	76	22	48
ATEN	XP_031556359.1	1.4	12	67	30.4	43.750	32	17	1	49	80	16	46
ATEN	XP_031563650.1	1.5	13	67	30.4	39.394	33	19	1	44	76	13	44
ATEN	XP_031557102.1	1.6	17	66	30.0	36.957	46	26	2	31	76	2	44
ATEN	XP_031562861.1	1.6	12	67	30.4	40.625	32	18	1	45	76	12	42
ATEN	XP_031557996.1	1.7	11	67	30.4	42.857	28	15	1	49	76	55	81
ATEN	XP_031557997.1	1.7	11	67	30.4	42.857	28	15	1	49	76	50	76
ATEN	XP_031557378.1	1.8	24	67	30.4	37.313	67	32	3	55	118	726	785
ATEN	XP_031557995.1	1.8	11	67	30.4	42.857	28	15	1	49	76	68	94
ATEN	XP_031557994.1	1.8	11	67	30.4	42.857	28	15	1	49	76	68	94
ATEN	XP_031557379.1	1.8	24	67	30.4	37.313	67	32	3	55	118	726	785
ATEN	XP_031557377.1	1.8	24	67	30.4	37.313	67	32	3	55	118	726	785
ATEN	XP_031557376.1	1.8	24	67	30.4	37.313	67	32	3	55	118	726	785
ATEN	XP_031557375.1	1.8	24	67	30.4	37.313	67	32	3	55	118	726	785
ATEN	XP_031557374.1	1.8	24	67	30.4	37.313	67	32	3	55	118	726	785
ATEN	XP_031557380.1	1.8	24	67	30.4	37.313	67	32	3	55	118	702	761
ATEN	XP_031557998.1	1.8	11	67	30.4	42.857	28	15	1	49	76	43	69
ATEN	XP_031557381.1	1.8	24	67	30.4	37.313	67	32	3	55	118	659	718
ATEN	XP_031573018.1	1.8	11	66	30.0	37.931	29	17	1	48	76	376	403
ATEN	XP_031557999.1	1.8	11	67	30.4	42.857	28	15	1	49	76	68	94
ATEN	XP_031558001.1	1.9	11	66	30.0	42.857	28	15	1	49	76	68	94
ATEN	XP_031566932.1	2.3	14	65	29.6	28.947	38	27	0	51	88	161	198
ATEN	XP_031570820.1	2.3	12	66	30.0	34.375	32	20	1	45	76	11	41
ATEN	XP_031569103.1	2.4	17	66	30.0	29.545	44	30	1	44	87	13	55
ATEN	XP_031549784.1	2.4	17	66	30.0	39.130	46	22	2	44	89	9	48
ATEN	XP_031573828.1	2.6	14	65	29.6	36.585	41	22	2	51	87	544	584
ATEN	XP_031558000.1	2.7	11	65	29.6	42.857	28	15	1	49	76	38	64
ATEN	XP_031563025.1	2.7	14	64	29.3	45.946	37	18	2	45	80	17	52
ATEN	XP_031557124.1	3.7	12	64	29.3	40.625	32	18	1	45	76	8	38
ATEN	XP_031566568.1	3.8	11	64	29.3	41.379	29	17	0	204	232	498	526
ATEN	XP_031557348.1	3.8	10	64	29.3	40.741	27	16	0	51	77	16	42
ATEN	XP_031572098.1	3.8	12	64	29.3	32.258	31	21	0	51	81	1722	1752
ATEN	XP_031572097.1	3.8	12	64	29.3	32.258	31	21	0	51	81	1722	1752
ATEN	XP_031568558.1	3.9	12	64	29.3	31.250	32	22	0	45	76	11	42
ATEN	XP_031549211.1	4.2	14	63	28.9	26.923	52	23	1	51	87	286	337
ATEN	XP_031574455.1	4.9	15	62	28.5	27.500	40	29	0	37	76	15	54
ATEN	XP_031568554.1	4.9	11	63	28.9	31.034	29	20	0	48	76	22	50
ATEN	XP_031554809.1	5.0	13	62	28.5	36.364	33	20	1	44	76	13	44
ATEN	XP_031571277.1	5.6	13	63	28.9	36.364	33	20	1	44	76	9	40
ATEN	XP_031565341.1	6.0	17	62	28.5	32.609	46	26	2	45	90	9	49
ATEN	XP_031556740.1	6.1	21	62	28.5	31.667	60	36	1	4	58	211	270
ATEN	XP_031552192.1	6.1	12	62	28.5	37.500	32	19	1	45	76	13	43
ATEN	XP_031549359.1	6.5	25	62	28.5	25.373	67	38	2	18	82	590	646
ATEN	XP_031566526.1	6.7	12	62	28.5	43.750	32	17	1	49	80	16	46
ATEN	XP_031551428.1	6.8	11	62	28.5	34.483	29	19	0	48	76	18	46
ATEN	XP_031548666.1	7.1	11	62	28.5	42.857	28	14	1	48	75	589	614
ATEN	XP_031551541.1	7.1	14	62	28.5	35.135	37	23	1	44	80	388	423
ATEN	XP_031558438.1	7.2	13	62	28.5	32.353	34	22	1	48	81	18	50
ATEN	XP_031552802.1	7.5	12	61	28.1	32.258	31	20	1	46	76	67	96
ATEN	XP_031569911.1	8.4	19	61	28.1	34.694	49	32	0	133	181	818	866
ATEN	XP_031562208.1	8.6	13	61	28.1	37.143	35	21	1	42	76	5	38
