SDOL	m.11924	2.83e-17	25	195	79.7	52.308	65	30	1	19	83	4	67
SDOL	m.21237	2.74e-13	64	166	68.6	46.970	66	34	1	18	83	39	103
SDOL	m.21237	0.005	64	86	37.7	30.392	102	61	4	94	195	277	368
SDOL	m.54978	8.40e-04	14	92	40.0	42.105	38	22	0	39	76	7	44
SDOL	m.73692	0.004	46	86	37.7	35.897	39	25	0	45	83	67	105
SDOL	m.73692	0.98	46	67	30.4	25.000	88	35	2	175	257	215	276
SDOL	m.36090	0.005	33	86	37.7	31.111	90	55	3	44	130	11	96
SDOL	m.20197	0.007	10	80	35.4	51.852	27	11	1	51	77	64	88
SDOL	m.68002	0.021	12	81	35.8	45.161	31	17	0	48	78	57	87
SDOL	m.276607	0.023	14	80	35.4	36.842	38	23	1	44	81	26	62
SDOL	m.23729	0.035	13	79	35.0	48.485	33	16	1	44	76	277	308
SDOL	m.113116	0.062	17	77	34.3	35.556	45	28	1	44	87	104	148
SDOL	m.144764	0.10	13	76	33.9	36.364	33	21	0	44	76	250	282
SDOL	m.113917	0.15	20	74	33.1	26.923	52	38	0	26	77	4	55
SDOL	m.58032	0.21	12	72	32.3	38.710	31	19	0	45	75	195	225
SDOL	m.221424	0.29	12	72	32.3	41.935	31	17	1	51	81	871	900
SDOL	m.124821	0.32	12	72	32.3	34.375	32	20	1	45	76	839	869
SDOL	m.268432	0.34	16	71	32.0	36.364	44	26	1	45	86	35	78
SDOL	m.16366	0.50	24	70	31.6	33.333	63	38	2	18	80	155	213
SDOL	m.57428	0.53	14	68	30.8	38.889	36	22	0	47	82	10	45
SDOL	m.19324	0.55	14	69	31.2	44.186	43	18	3	39	76	123	164
SDOL	m.89627	0.65	11	68	30.8	43.333	30	15	1	51	80	65	92
SDOL	m.32263	0.76	13	68	30.8	29.730	37	24	1	50	84	339	375
SDOL	m.99674	1.0	14	67	30.4	35.000	40	24	1	51	88	231	270
SDOL	m.144760	1.1	11	66	30.0	35.714	28	18	0	48	75	254	281
SDOL	m.77995	1.3	13	65	29.6	32.353	34	23	0	43	76	14	47
SDOL	m.16061	1.4	11	65	29.6	39.286	28	17	0	51	78	14	41
SDOL	m.99666	1.7	14	65	29.6	35.000	40	24	1	51	88	231	270
SDOL	m.144742	1.8	11	65	29.6	35.714	28	18	0	48	75	207	234
SDOL	m.271793	2.3	14	63	28.9	35.135	37	23	1	44	80	86	121
SDOL	m.165781	2.5	12	64	29.3	37.500	32	19	1	45	76	179	209
SDOL	m.32219	2.6	10	63	28.9	50.000	28	12	1	51	76	241	268
SDOL	m.91674	3.1	11	63	28.9	40.625	32	17	1	48	77	12	43
SDOL	m.146002	3.3	12	62	28.5	40.625	32	18	1	45	76	17	47
SDOL	m.89567	4.2	14	62	28.5	28.947	38	26	1	45	81	23	60
SDOL	m.16551	4.4	12	62	28.5	34.375	32	21	0	45	76	6	37
SDOL	m.56290	5.5	16	61	28.1	32.558	43	26	2	34	76	14	53
SDOL	m.61393	6.1	30	61	28.1	28.205	78	53	1	178	255	290	364
SDOL	m.66141	7.0	27	60	27.7	29.412	85	46	4	5	76	189	272
