EMUE	m.60952	7.47e-44	95	379	150	34.304	309	145	7	7	258	3	310
EMUE	m.285089	1.87e-04	83	95	41.2	22.500	240	138	8	40	257	5	218
EMUE	m.166732	2.52e-04	11	96	41.6	55.172	29	13	0	51	79	15	43
EMUE	m.19730	4.94e-04	19	94	40.8	42.000	50	25	2	45	94	12	57
EMUE	m.90012	0.002	14	87	38.1	44.444	36	19	1	45	80	20	54
EMUE	m.227874	0.003	14	87	38.1	38.889	36	22	0	46	81	33	68
EMUE	m.227816	0.004	14	86	37.7	38.889	36	22	0	46	81	33	68
EMUE	m.227841	0.005	14	85	37.4	38.889	36	22	0	46	81	33	68
EMUE	m.227823	0.007	14	84	37.0	38.889	36	22	0	46	81	33	68
EMUE	m.227837	0.007	14	83	36.6	38.889	36	22	0	46	81	33	68
EMUE	m.5169	0.008	17	84	37.0	36.364	44	27	1	43	86	721	763
EMUE	m.33995	0.023	13	80	35.4	42.424	33	19	0	51	83	45	77
EMUE	m.117320	0.025	16	80	35.4	34.146	41	26	1	40	80	22	61
EMUE	m.126545	0.030	13	79	35.0	35.294	34	22	0	42	75	287	320
EMUE	m.117316	0.034	16	79	35.0	34.146	41	26	1	40	80	22	61
EMUE	m.126550	0.034	13	78	34.7	35.294	34	22	0	42	75	308	341
EMUE	m.30322	0.041	13	78	34.7	38.235	34	21	0	43	76	20	53
EMUE	m.123675	0.049	13	77	34.3	35.294	34	21	1	43	76	24	56
EMUE	m.225174	0.051	18	77	34.3	40.000	50	19	2	45	91	14	55
EMUE	m.35879	0.052	12	77	34.3	38.710	31	19	0	47	77	16	46
EMUE	m.22767	0.064	14	77	34.3	40.541	37	21	1	45	81	11	46
EMUE	m.28517	0.10	16	74	33.1	33.333	42	28	0	35	76	2	43
EMUE	m.20592	0.11	22	74	33.1	29.487	78	36	3	47	105	13	90
EMUE	m.96579	0.12	19	74	33.1	26.667	60	35	1	44	94	261	320
EMUE	m.174368	0.17	13	73	32.7	38.235	34	21	0	49	82	44	77
EMUE	m.286512	0.20	11	73	32.7	51.724	29	13	1	48	76	22	49
EMUE	m.103003	0.21	12	71	32.0	40.625	32	18	1	45	76	20	50
EMUE	m.278284	0.23	10	72	32.3	50.000	26	12	1	51	76	36	60
EMUE	m.113310	0.27	13	71	32.0	39.394	33	19	1	51	83	176	207
EMUE	m.113310	0.73	13	68	30.8	35.484	31	20	0	51	81	226	256
EMUE	m.16340	0.27	14	70	31.6	33.333	36	24	0	45	80	102	137
EMUE	m.33575	0.32	14	71	32.0	27.778	36	26	0	48	83	954	989
EMUE	m.32964	0.32	13	70	31.6	44.118	34	18	1	49	82	17	49
EMUE	m.59004	0.34	11	70	31.6	44.828	29	16	0	48	76	25	53
EMUE	m.10997	0.34	23	70	31.6	34.426	61	38	1	23	83	21	79
EMUE	m.145791	0.35	18	70	31.6	33.962	53	30	2	29	76	203	255
EMUE	m.120492	0.38	17	69	31.2	32.609	46	29	2	32	76	226	270
EMUE	m.9168	0.42	13	69	31.2	39.394	33	19	1	44	76	12	43
EMUE	m.131558	0.51	10	69	31.2	42.308	26	14	1	51	76	697	721
EMUE	m.180566	0.55	23	69	31.2	32.812	64	40	2	95	156	641	703
EMUE	m.84620	0.58	13	68	30.8	45.455	33	17	1	51	83	32	63
EMUE	m.25953	0.62	11	68	30.8	40.000	30	18	0	51	80	79	108
EMUE	m.34902	0.88	16	67	30.4	31.707	41	27	1	42	82	52	91
EMUE	m.5078	0.88	15	67	30.4	30.769	39	26	1	39	77	6	43
EMUE	m.7855	0.91	13	67	30.4	42.857	35	18	1	42	76	28	60
EMUE	m.37515	0.98	20	66	30.0	31.481	54	36	1	23	76	11	63
EMUE	m.84625	0.98	12	66	30.0	46.875	32	16	1	51	82	32	62
EMUE	m.69502	1.1	23	65	29.6	29.508	61	42	1	33	92	91	151
EMUE	m.15219	1.5	32	65	29.6	26.667	90	46	3	10	94	20	94
EMUE	m.285832	1.5	16	65	29.6	36.364	44	27	1	51	93	146	189
EMUE	m.251692	1.7	13	65	29.6	37.500	32	20	0	51	82	800	831
EMUE	m.251692	8.6	13	59	27.3	39.394	33	19	1	51	83	750	781
EMUE	m.37507	1.9	20	64	29.3	32.692	52	32	2	25	76	15	63
EMUE	m.125214	2.0	15	64	29.3	28.205	39	27	1	38	76	8	45
EMUE	m.125191	2.0	17	64	29.3	27.273	44	31	1	43	86	16	58
EMUE	m.25950	2.1	11	62	28.5	40.000	30	18	0	51	80	18	47
EMUE	m.125183	2.2	15	64	29.3	28.205	39	27	1	38	76	8	45
EMUE	m.125178	2.3	17	64	29.3	27.273	44	31	1	43	86	16	58
EMUE	m.120037	2.7	11	63	28.9	37.931	29	17	1	48	76	44	71
EMUE	m.245811	2.7	16	63	28.9	42.857	49	17	3	98	139	404	448
EMUE	m.125231	2.9	15	63	28.9	28.205	39	27	1	38	76	8	45
EMUE	m.32511	2.9	13	63	28.9	33.333	33	22	0	44	76	12	44
EMUE	m.286065	2.9	18	63	28.9	34.000	50	29	2	184	230	190	238
EMUE	m.35566	3.0	16	63	28.9	34.884	43	26	1	40	82	20	60
EMUE	m.27566	3.0	11	63	28.9	41.935	31	15	2	51	80	358	386
EMUE	m.125221	3.2	17	63	28.9	27.273	44	31	1	43	86	16	58
EMUE	m.269739	3.2	13	63	28.9	41.176	34	19	1	43	76	48	80
EMUE	m.214826	3.8	27	62	28.5	28.916	83	42	4	7	76	103	181
EMUE	m.39241	3.9	22	62	28.5	31.034	58	26	2	48	105	10	53
EMUE	m.13167	3.9	16	62	28.5	30.952	42	28	1	44	85	306	346
EMUE	m.210143	4.0	36	62	28.5	26.596	94	58	3	48	141	13	95
EMUE	m.9149	4.2	13	62	28.5	33.333	33	21	1	44	76	26	57
EMUE	m.81158	4.7	12	61	28.1	35.484	31	20	0	51	81	23	53
EMUE	m.274244	5.1	12	61	28.1	35.484	31	20	0	51	81	539	569
EMUE	m.91568	5.6	22	61	28.1	32.787	61	37	2	95	151	584	644
EMUE	m.287123	6.0	16	60	27.7	29.412	51	25	2	35	76	6	54
EMUE	m.274253	6.2	12	61	28.1	35.484	31	20	0	51	81	948	978
EMUE	m.286729	6.2	11	60	27.7	37.931	29	17	1	48	76	35	62
EMUE	m.40678	6.5	14	60	27.7	35.897	39	23	1	51	87	434	472
EMUE	m.83516	6.8	38	60	27.7	24.528	106	71	4	58	156	345	448
EMUE	m.4872	7.0	15	60	27.7	35.897	39	24	1	43	81	16	53
EMUE	m.185502	7.3	11	59	27.3	43.333	30	16	1	48	77	175	203
EMUE	m.54709	7.4	23	60	27.7	24.590	61	44	2	17	76	1109	1168
EMUE	m.286952	8.0	15	59	27.3	35.897	39	25	0	38	76	24	62
EMUE	m.22824	8.2	11	59	27.3	32.143	28	19	0	49	76	27	54
EMUE	m.121599	9.2	14	59	27.3	36.111	36	23	0	48	83	40	75
EMUE	m.40834	9.7	13	58	26.9	45.455	33	17	1	50	82	20	51
EMUE	m.81155	9.8	12	58	26.9	35.484	31	20	0	51	81	23	53
