ATEN	XP_031559876.1	3.09e-141	97	1035	403	62.349	332	114	6	4	330	2	327
ATEN	XP_031559868.1	1.53e-139	97	1024	399	61.145	332	119	5	4	330	2	328
ATEN	XP_031562576.1	1.59e-08	27	131	55.1	34.021	97	58	3	34	125	2	97
ATEN	XP_031551424.1	6.87e-08	13	127	53.5	45.833	48	22	1	48	91	15	62
ATEN	XP_031574297.1	1.60e-07	24	125	52.8	31.765	85	55	1	43	124	8	92
ATEN	XP_031551312.1	1.85e-07	24	116	49.3	36.782	87	47	4	45	125	20	104
ATEN	XP_031563043.1	1.95e-07	88	122	51.6	21.639	305	159	11	36	332	1	233
ATEN	XP_031550528.1	7.92e-07	19	118	50.1	38.571	70	35	4	42	105	87	154
ATEN	XP_031561272.1	1.84e-06	14	106	45.4	43.478	46	25	1	45	90	13	57
ATEN	XP_031570401.1	2.31e-06	14	115	48.9	42.308	52	24	2	49	95	312	362
ATEN	XP_031562460.1	2.34e-06	26	116	49.3	32.184	87	55	3	26	112	22	104
ATEN	XP_031574292.1	2.61e-06	26	116	49.3	29.213	89	59	2	43	128	8	95
ATEN	XP_031570925.1	3.86e-06	22	113	48.1	32.895	76	47	2	43	115	8	82
ATEN	XP_031570924.1	3.86e-06	22	113	48.1	32.895	76	47	2	43	115	8	82
ATEN	XP_031575282.1	9.07e-06	17	112	47.8	37.931	58	36	0	43	100	259	316
ATEN	XP_031551302.1	1.10e-05	15	111	47.4	42.857	49	27	1	51	99	1308	1355
ATEN	XP_031574288.1	1.18e-05	22	110	47.0	31.169	77	49	2	43	116	8	83
ATEN	XP_031574287.1	1.18e-05	22	110	47.0	31.169	77	49	2	43	116	8	83
ATEN	XP_031574286.1	1.18e-05	22	110	47.0	31.169	77	49	2	43	116	8	83
ATEN	XP_031574285.1	1.18e-05	22	110	47.0	31.169	77	49	2	43	116	8	83
ATEN	XP_031564411.1	2.03e-05	22	109	46.6	25.676	74	54	1	43	116	706	778
ATEN	XP_031564410.1	2.03e-05	22	109	46.6	25.676	74	54	1	43	116	706	778
ATEN	XP_031564409.1	2.03e-05	22	109	46.6	25.676	74	54	1	43	116	706	778
ATEN	XP_031564408.1	2.03e-05	22	109	46.6	25.676	74	54	1	43	116	706	778
ATEN	XP_031564407.1	2.03e-05	22	109	46.6	25.676	74	54	1	43	116	706	778
ATEN	XP_031574150.1	3.36e-05	22	106	45.4	37.838	74	42	4	33	106	33	102
ATEN	XP_031570484.1	5.52e-05	20	105	45.1	32.353	68	44	2	35	101	7	73
ATEN	XP_031570483.1	5.52e-05	20	105	45.1	32.353	68	44	2	35	101	7	73
ATEN	XP_031570482.1	5.52e-05	20	105	45.1	32.353	68	44	2	35	101	7	73
ATEN	XP_031570480.1	5.52e-05	20	105	45.1	32.353	68	44	2	35	101	7	73
ATEN	XP_031570479.1	5.52e-05	20	105	45.1	32.353	68	44	2	35	101	7	73
ATEN	XP_031570478.1	5.52e-05	20	105	45.1	32.353	68	44	2	35	101	7	73
ATEN	XP_031572891.1	7.36e-05	15	104	44.7	35.849	53	32	2	43	94	10	61
ATEN	XP_031570540.1	7.62e-05	21	103	44.3	39.130	69	39	3	45	113	324	389
ATEN	XP_031559476.1	1.12e-04	15	102	43.9	37.255	51	31	1	51	101	379	428
ATEN	XP_031566731.1	1.19e-04	19	101	43.5	33.846	65	40	2	39	103	34	95
ATEN	XP_031567450.1	1.68e-04	35	101	43.5	30.000	130	79	5	47	165	16	144
ATEN	XP_031548753.1	1.89e-04	15	101	43.5	39.623	53	29	2	43	92	15	67
ATEN	XP_031563643.1	2.42e-04	21	100	43.1	33.766	77	39	4	44	114	13	83
ATEN	XP_031560521.1	2.55e-04	36	97	42.0	25.410	122	86	4	48	168	16	133
ATEN	XP_031552802.1	3.65e-04	15	97	42.0	31.373	51	34	1	46	96	67	116
ATEN	XP_031565616.1	3.95e-04	18	98	42.4	38.710	62	35	2	42	101	21	81
ATEN	XP_031569629.1	4.52e-04	14	98	42.4	35.417	48	30	1	43	90	876	922
ATEN	XP_031554990.1	4.93e-04	25	97	42.0	34.884	86	46	5	31	114	2	79
ATEN	XP_031550171.1	5.85e-04	18	95	41.2	35.593	59	37	1	45	103	15	72
ATEN	XP_031561043.1	8.10e-04	26	94	40.8	32.184	87	55	4	49	134	16	99
ATEN	XP_031567209.1	0.001	15	95	41.2	41.176	51	27	2	45	93	14	63
ATEN	XP_031570063.1	0.001	16	94	40.8	31.481	54	36	1	41	94	201	253
ATEN	XP_031570062.1	0.001	16	94	40.8	31.481	54	36	1	41	94	201	253
ATEN	XP_031551619.1	0.001	21	90	39.3	29.577	71	48	2	43	113	10	78
ATEN	XP_031549185.1	0.001	16	93	40.4	31.481	54	37	0	35	88	3	56
ATEN	XP_031570935.1	0.002	23	87	38.1	33.333	81	48	4	49	125	17	95
ATEN	XP_031563946.1	0.002	17	93	40.4	33.898	59	36	2	38	94	4	61
ATEN	XP_031570364.1	0.002	21	92	40.0	31.169	77	41	3	44	114	13	83
ATEN	XP_031557289.1	0.002	12	91	39.7	40.909	44	22	2	51	91	130	172
ATEN	XP_031557102.1	0.002	25	90	39.3	34.884	86	46	5	31	114	2	79
ATEN	XP_031568081.1	0.003	15	90	39.3	33.962	53	31	2	45	94	12	63
ATEN	XP_031568170.1	0.004	15	90	39.3	35.714	56	31	2	43	94	16	70
ATEN	XP_031549339.1	0.004	13	90	39.3	41.667	48	24	3	47	91	7	53
ATEN	XP_031554992.1	0.004	21	89	38.9	32.468	77	40	4	44	114	33	103
ATEN	XP_031566529.1	0.004	20	89	38.9	32.836	67	43	2	35	101	2	66
ATEN	XP_031566528.1	0.004	20	89	38.9	32.836	67	43	2	35	101	2	66
ATEN	XP_031563636.1	0.004	21	89	38.9	31.169	77	41	4	44	114	13	83
ATEN	XP_031548666.1	0.005	15	89	38.9	39.216	51	27	3	48	98	589	635
ATEN	XP_031563025.1	0.005	24	87	38.1	30.682	88	53	3	45	126	17	102
ATEN	XP_031565459.1	0.006	13	87	38.1	40.909	44	25	1	45	88	27	69
ATEN	XP_031573197.1	0.006	20	88	38.5	32.836	67	43	2	35	101	3	67
ATEN	XP_031552498.1	0.006	12	82	36.2	41.463	41	22	2	48	88	15	53
ATEN	XP_031550162.1	0.006	15	88	38.5	33.333	51	33	1	43	93	22	71
ATEN	XP_031567986.1	0.006	14	88	38.5	39.623	53	25	3	45	91	11	62
ATEN	XP_031564362.1	0.007	14	87	38.1	40.426	47	27	1	48	94	15	60
ATEN	XP_031573199.1	0.007	20	87	38.1	32.836	67	43	2	35	101	3	67
ATEN	XP_031560801.1	0.007	22	88	38.5	28.916	83	48	3	45	117	11	92
ATEN	XP_031549454.1	0.009	13	86	37.7	37.209	43	27	0	47	89	53	95
ATEN	XP_031549451.1	0.010	13	86	37.7	37.209	43	27	0	47	89	84	126
ATEN	XP_031557996.1	0.010	14	87	38.1	37.500	48	27	2	49	94	55	101
ATEN	XP_031557995.1	0.010	14	87	38.1	37.500	48	27	2	49	94	68	114
ATEN	XP_031557997.1	0.010	14	86	37.7	37.500	48	27	2	49	94	50	96
ATEN	XP_031557994.1	0.010	14	86	37.7	37.500	48	27	2	49	94	68	114
ATEN	XP_031557998.1	0.010	14	86	37.7	37.500	48	27	2	49	94	43	89
ATEN	XP_031549455.1	0.010	13	86	37.7	37.209	43	27	0	47	89	34	76
ATEN	XP_031558001.1	0.011	14	86	37.7	37.500	48	27	2	49	94	68	114
ATEN	XP_031573198.1	0.011	20	86	37.7	32.836	67	43	2	35	101	3	67
ATEN	XP_031557999.1	0.011	14	86	37.7	37.500	48	27	2	49	94	68	114
ATEN	XP_031549453.1	0.011	13	86	37.7	37.209	43	27	0	47	89	61	103
ATEN	XP_031549452.1	0.011	13	86	37.7	37.209	43	27	0	47	89	61	103
ATEN	XP_031558000.1	0.012	14	86	37.7	37.500	48	27	2	49	94	38	84
ATEN	XP_031569103.1	0.012	21	86	37.7	28.571	77	43	3	44	114	13	83
ATEN	XP_031565000.1	0.014	15	84	37.0	34.615	52	32	1	50	99	231	282
ATEN	XP_031559693.1	0.014	12	86	37.7	41.860	43	22	2	51	91	792	833
ATEN	XP_031557348.1	0.016	15	85	37.4	35.185	54	32	2	51	102	16	68
ATEN	XP_031571550.1	0.017	21	85	37.4	32.895	76	39	4	45	114	14	83
ATEN	XP_031549449.1	0.021	12	84	37.0	38.636	44	24	1	49	89	16	59
ATEN	XP_031554679.1	0.023	21	79	35.0	32.468	77	40	4	44	114	13	83
ATEN	XP_031549448.1	0.023	12	83	36.6	38.636	44	24	1	49	89	16	59
ATEN	XP_031570010.1	0.023	14	83	36.6	35.294	51	28	2	48	94	17	66
ATEN	XP_031551423.1	0.023	13	83	36.6	33.333	48	28	2	48	91	10	57
ATEN	XP_031573646.1	0.024	30	83	36.6	27.000	100	52	5	41	140	119	197
ATEN	XP_031549211.1	0.025	12	83	36.6	30.000	60	23	2	51	91	286	345
ATEN	XP_031574459.1	0.026	15	82	36.2	36.364	55	29	3	45	94	12	65
ATEN	XP_031571411.1	0.027	14	83	36.6	36.170	47	28	2	45	91	365	409
ATEN	XP_031558804.1	0.027	13	83	36.6	36.170	47	27	2	48	91	22	68
ATEN	XP_031558438.1	0.027	20	83	36.6	29.577	71	40	3	48	114	18	82
ATEN	XP_031565393.1	0.035	27	82	36.2	36.735	49	25	2	51	94	22	69
ATEN	XP_031565393.1	9.6	27	62	28.5	30.120	83	46	4	5	81	71	147
ATEN	XP_031572713.1	0.038	18	82	36.2	34.375	64	38	3	42	103	15	76
ATEN	XP_031572712.1	0.038	18	81	35.8	34.375	64	38	3	42	103	15	76
ATEN	XP_031568558.1	0.042	15	81	35.8	31.373	51	33	1	45	93	11	61
ATEN	XP_031574455.1	0.042	17	80	35.4	27.869	61	40	1	37	93	15	75
ATEN	XP_031550806.1	0.044	13	81	35.8	43.182	44	22	2	51	92	135	177
ATEN	XP_031568554.1	0.054	21	80	35.4	26.667	75	52	2	48	119	22	96
ATEN	XP_031575228.1	0.065	21	80	35.4	32.895	76	40	4	44	114	76	145
ATEN	XP_031563650.1	0.065	21	80	35.4	32.468	77	40	4	44	114	13	83
ATEN	XP_031570820.1	0.067	14	80	35.4	36.000	50	28	2	45	91	11	59
ATEN	XP_031572098.1	0.072	12	80	35.4	30.000	50	26	1	51	91	1722	1771
ATEN	XP_031572097.1	0.072	12	80	35.4	30.000	50	26	1	51	91	1722	1771
ATEN	XP_031575443.1	0.074	18	78	34.7	33.898	59	37	2	40	98	237	293
ATEN	XP_031554257.1	0.076	15	79	35.0	31.481	54	32	2	45	94	22	74
ATEN	XP_031554809.1	0.077	21	78	34.7	31.169	77	41	4	44	114	13	83
ATEN	XP_031554259.1	0.078	15	79	35.0	31.481	54	32	2	45	94	9	61
ATEN	XP_031554258.1	0.078	15	79	35.0	31.481	54	32	2	45	94	9	61
ATEN	XP_031571408.1	0.080	15	79	35.0	39.583	48	27	2	48	94	29	75
ATEN	XP_031571408.1	0.14	15	77	34.3	38.462	52	30	2	48	98	328	378
ATEN	XP_031556359.1	0.085	18	78	34.7	35.000	60	37	2	35	94	2	59
ATEN	XP_031573018.1	0.086	14	79	35.0	34.000	50	29	2	48	94	376	424
ATEN	XP_031551541.1	0.094	23	78	34.7	32.558	86	48	5	44	121	388	471
ATEN	XP_031552192.1	0.12	21	78	34.7	31.646	79	43	4	45	114	13	89
ATEN	XP_031565341.1	0.12	15	77	34.3	31.481	54	32	2	45	94	9	61
ATEN	XP_031566932.1	0.12	18	76	33.9	29.851	67	42	2	51	112	161	227
ATEN	XP_031564381.1	0.14	13	77	34.3	33.333	42	27	1	49	90	18	58
ATEN	XP_031565336.1	0.15	8	77	34.3	39.286	28	17	0	49	76	14	41
ATEN	XP_031548803.1	0.16	20	76	33.9	31.429	70	43	3	32	98	9	76
ATEN	XP_031548802.1	0.16	21	76	33.9	30.556	72	45	3	32	100	9	78
ATEN	XP_031554759.1	0.16	13	76	33.9	34.091	44	29	0	51	94	23	66
ATEN	XP_031554504.1	0.17	38	76	33.9	26.357	129	72	8	48	173	15	123
ATEN	XP_031564354.1	0.17	13	76	33.9	40.000	45	24	2	49	91	22	65
ATEN	XP_031559929.1	0.18	17	76	33.9	36.207	58	25	4	45	100	946	993
ATEN	XP_031562861.1	0.19	15	76	33.9	32.759	58	28	3	45	94	12	66
ATEN	XP_031561982.1	0.19	20	76	33.9	36.486	74	38	4	43	110	10	80
ATEN	XP_031551428.1	0.21	14	75	33.5	34.694	49	29	2	48	93	18	66
ATEN	XP_031573196.1	0.24	20	75	33.5	29.851	67	46	1	35	101	3	68
ATEN	XP_031573195.1	0.24	20	75	33.5	29.851	67	46	1	35	101	3	68
ATEN	XP_031569319.1	0.24	12	75	33.5	39.535	43	24	1	51	91	331	373
ATEN	XP_031567989.1	0.24	14	75	33.5	33.962	53	28	3	44	90	10	61
ATEN	XP_031572359.1	0.27	17	74	33.1	33.929	56	32	1	45	100	30	80
ATEN	XP_031554263.1	0.27	15	74	33.1	31.481	54	32	2	45	94	9	61
ATEN	XP_031554262.1	0.27	15	74	33.1	31.481	54	32	2	45	94	9	61
ATEN	XP_031563709.1	0.28	17	75	33.5	29.310	58	34	2	43	100	927	977
ATEN	XP_031563710.1	0.28	17	75	33.5	29.310	58	34	2	43	100	926	976
ATEN	XP_031554261.1	0.43	14	73	32.7	31.373	51	30	2	48	94	15	64
ATEN	XP_031554260.1	0.43	14	73	32.7	31.373	51	30	2	48	94	15	64
ATEN	XP_031566514.1	0.48	17	73	32.7	27.586	58	41	1	50	107	414	470
ATEN	XP_031551938.1	0.51	14	72	32.3	34.545	55	27	2	43	88	129	183
ATEN	XP_031556740.1	0.52	24	72	32.3	27.381	84	56	1	9	87	216	299
ATEN	XP_031566516.1	0.53	17	72	32.3	27.586	58	41	1	50	107	402	458
ATEN	XP_031553349.1	0.53	16	72	32.3	31.481	54	37	0	41	94	5	58
ATEN	XP_031566515.1	0.54	17	72	32.3	27.586	58	41	1	50	107	403	459
ATEN	XP_031566430.1	0.55	16	71	32.0	34.545	55	32	3	51	104	162	213
ATEN	XP_031566517.1	0.58	17	72	32.3	27.586	58	41	1	50	107	400	456
ATEN	XP_031553724.1	0.62	20	69	31.2	32.877	73	37	4	48	114	17	83
ATEN	XP_031551618.1	0.74	14	71	32.0	32.609	46	29	2	43	88	10	53
ATEN	XP_031571277.1	1.1	24	70	31.6	27.059	85	51	4	44	122	9	88
ATEN	XP_031569406.1	1.1	14	69	31.2	27.451	51	28	2	50	96	291	336
ATEN	XP_031568439.1	1.1	15	69	31.2	33.333	51	31	2	38	88	11	58
ATEN	XP_031556511.1	1.2	20	69	31.2	29.851	67	46	1	35	101	3	68
ATEN	XP_031551072.1	1.4	14	68	30.8	31.915	47	30	2	43	89	10	54
ATEN	XP_031549784.1	1.4	14	69	31.2	35.294	51	28	2	44	90	9	58
ATEN	XP_031562210.1	1.5	24	69	31.2	30.864	81	55	1	121	201	776	855
ATEN	XP_031557331.1	2.2	13	66	30.0	27.660	47	31	1	47	90	74	120
ATEN	XP_031563954.1	2.3	15	67	30.4	35.714	56	27	4	41	92	10	60
ATEN	XP_031557832.1	2.3	17	65	29.6	29.508	61	39	2	34	91	29	88
ATEN	XP_031562208.1	2.4	22	67	30.4	30.380	79	42	5	42	116	5	74
ATEN	XP_031574936.1	2.6	14	66	30.0	30.612	49	31	1	47	92	7	55
ATEN	XP_031574934.1	2.7	14	66	30.0	30.612	49	31	1	47	92	7	55
ATEN	XP_031574933.1	2.7	14	66	30.0	30.612	49	31	1	47	92	7	55
ATEN	XP_031574932.1	2.7	14	66	30.0	30.612	49	31	1	47	92	7	55
ATEN	XP_031574937.1	2.7	14	66	30.0	30.612	49	31	1	47	92	7	55
ATEN	XP_031565526.1	2.9	20	66	30.0	30.435	69	43	4	40	105	9	75
ATEN	XP_031565525.1	2.9	20	66	30.0	30.435	69	43	4	40	105	9	75
ATEN	XP_031549500.1	3.0	13	66	30.0	27.907	43	30	1	48	90	573	614
ATEN	XP_031549501.1	3.3	13	65	29.6	27.907	43	30	1	48	90	511	552
ATEN	XP_031551617.1	3.4	14	65	29.6	32.609	46	29	2	43	88	10	53
ATEN	XP_031551616.1	3.4	14	65	29.6	32.609	46	29	2	43	88	10	53
ATEN	XP_031558891.1	3.8	20	65	29.6	33.333	66	34	3	60	125	1412	1467
ATEN	XP_031556497.1	4.3	17	65	29.6	34.483	58	36	2	45	100	971	1028
ATEN	XP_031564340.1	4.5	20	65	29.6	28.358	67	44	2	106	172	397	459
ATEN	XP_031564339.1	4.5	20	65	29.6	28.358	67	44	2	106	172	397	459
ATEN	XP_031569760.1	4.9	16	64	29.3	31.481	54	35	2	35	88	2	53
ATEN	XP_031566568.1	5.0	9	65	29.6	41.379	29	17	0	276	304	498	526
ATEN	XP_031551132.1	5.3	16	64	29.3	32.759	58	34	2	77	131	1043	1098
ATEN	XP_031559945.1	5.5	13	63	28.9	26.667	45	33	0	50	94	186	230
ATEN	XP_031557209.1	5.8	21	62	28.5	31.250	80	37	3	56	125	44	115
ATEN	XP_031560609.1	6.2	13	63	28.9	29.412	51	29	2	48	91	6	56
ATEN	XP_031561913.1	6.3	19	63	28.9	32.353	68	41	4	13	75	89	156
ATEN	XP_031557124.1	6.5	10	63	28.9	40.625	32	18	1	45	76	8	38
ATEN	XP_031562943.1	6.7	13	63	28.9	31.111	45	28	2	48	90	18	61
ATEN	XP_031549359.1	7.7	28	63	28.9	22.222	108	61	5	18	112	590	687
ATEN	XP_031566526.1	9.2	10	62	28.5	43.750	32	17	1	49	80	16	46
