SINF	m.61076	2.43e-38	39	349	139	46.835	158	81	2	1	158	1	155
SINF	m.61396	2.46e-31	35	302	120	42.958	142	78	3	16	157	7	145
SINF	m.328578	8.82e-10	30	143	59.7	37.600	125	60	6	42	162	13	123
SINF	m.152733	5.79e-08	25	128	53.9	28.571	105	71	2	26	127	211	314
SINF	m.8130	1.09e-07	19	124	52.4	33.333	78	50	2	46	122	156	232
SINF	m.49862	3.36e-05	17	101	43.5	32.468	77	42	3	42	111	13	86
SINF	m.34183	1.01e-04	21	102	43.9	25.581	86	62	2	25	109	226	310
SINF	m.11441	1.75e-04	15	100	43.1	34.783	69	38	2	48	109	366	434
SINF	m.11939	2.29e-04	11	98	42.4	39.535	43	24	2	46	88	257	297
SINF	m.214393	0.001	12	93	40.4	36.170	47	29	1	41	87	93	138
SINF	m.207990	0.002	13	90	39.3	37.500	56	31	2	41	93	24	78
SINF	m.147595	0.002	18	92	40.0	31.507	73	49	1	28	100	2	73
SINF	m.237988	0.002	12	91	39.7	38.776	49	28	2	45	92	544	591
SINF	m.166589	0.003	17	89	38.9	32.877	73	38	3	33	100	177	243
SINF	m.68456	0.004	14	89	38.9	38.182	55	33	1	39	93	2	55
SINF	m.54052	0.004	11	89	38.9	36.364	44	27	1	45	88	76	118
SINF	m.127038	0.004	10	87	38.1	42.857	42	22	2	48	89	255	294
SINF	m.214242	0.005	15	87	38.1	31.746	63	41	1	36	96	221	283
SINF	m.166598	0.005	17	87	38.1	32.877	73	38	3	33	100	180	246
SINF	m.165298	0.012	10	82	36.2	41.463	41	22	2	48	88	9	47
SINF	m.168438	0.019	10	83	36.6	35.714	42	26	1	46	87	725	765
SINF	m.126991	0.020	10	82	36.2	42.857	42	22	2	48	89	293	332
SINF	m.100000	0.027	13	73	32.7	39.216	51	29	1	108	158	3	51
SINF	m.18005	0.030	12	80	35.4	41.667	48	26	2	44	91	20	65
SINF	m.165289	0.044	12	78	34.7	36.735	49	29	2	45	93	6	52
SINF	m.363667	0.070	12	78	34.7	32.143	56	28	3	42	88	266	320
SINF	m.33122	0.071	11	77	34.3	35.294	51	26	2	48	93	116	164
SINF	m.361233	0.079	10	78	34.7	37.500	48	23	2	48	88	1848	1895
SINF	m.81618	0.083	11	76	33.9	40.000	45	25	2	48	91	70	113
SINF	m.210185	0.084	19	78	34.7	27.381	84	51	4	47	123	156	236
SINF	m.68464	0.10	7	75	33.5	48.276	29	15	0	65	93	18	46
SINF	m.81616	0.11	11	75	33.5	40.000	45	25	2	48	91	70	113
SINF	m.100491	0.12	10	77	34.3	40.426	47	20	3	48	87	519	564
SINF	m.53103	0.23	51	73	32.7	24.545	220	135	11	48	255	132	332
SINF	m.100520	0.25	10	74	33.1	40.426	47	20	3	48	87	519	564
SINF	m.796	0.34	18	73	32.7	25.676	74	53	2	28	99	745	818
SINF	m.366655	0.40	7	71	32.0	48.148	27	13	1	64	90	169	194
SINF	m.52988	0.41	19	72	32.3	32.051	78	45	4	16	91	156	227
SINF	m.245938	0.60	14	71	32.0	35.484	62	34	4	47	104	440	499
SINF	m.64916	0.62	10	70	31.6	27.660	47	28	2	48	88	371	417
SINF	m.131328	0.74	11	68	30.8	30.612	49	30	2	43	88	156	203
SINF	m.39119	0.87	14	69	31.2	30.508	59	38	2	48	103	66	124
SINF	m.152742	1.1	13	68	30.8	28.846	52	36	1	25	76	210	260
SINF	m.342013	1.4	16	66	30.0	28.571	70	42	4	34	98	196	262
SINF	m.198383	1.4	14	67	30.4	38.596	57	32	2	295	351	198	251
SINF	m.93138	2.9	9	65	29.6	40.541	37	22	0	197	233	618	654
SINF	m.127943	2.9	26	65	29.6	24.074	108	66	4	48	152	9	103
SINF	m.56947	3.0	11	65	29.6	41.667	48	24	3	48	93	396	441
SINF	m.7836	3.4	17	64	29.3	28.986	69	46	1	164	232	642	707
SINF	m.46622	3.5	11	64	29.3	31.579	57	25	3	46	88	276	332
SINF	m.78965	5.1	13	63	28.9	36.538	52	32	1	162	212	444	495
SINF	m.188851	6.4	12	62	28.5	32.308	65	26	1	203	249	60	124
SINF	m.99983	7.9	13	61	28.1	38.462	52	30	1	103	154	363	412
SINF	m.97872	8.2	21	61	28.1	21.429	84	60	1	60	143	189	266
SINF	m.231851	8.4	11	61	28.1	30.435	46	29	2	48	91	362	406
SINF	m.3811	8.6	20	61	28.1	23.077	91	55	5	47	127	212	297
SINF	m.32495	8.7	19	61	28.1	20.253	79	61	1	78	154	444	522
