SCIL	scpid46202|	1.84e-32	66	302	120	78.261	69	15	0	14	82	3	71
SCIL	scpid46202|	3.22e-15	66	181	74.3	37.838	111	58	5	153	257	187	292
SCIL	scpid34837|	3.61e-05	13	103	44.3	54.286	35	15	1	49	83	136	169
SCIL	scpid19292|	5.15e-05	13	103	44.3	54.286	35	15	1	49	83	171	204
SCIL	scpid33975|	9.25e-05	13	103	44.3	54.286	35	15	1	49	83	136	169
SCIL	scpid75838|	9.68e-05	12	102	43.9	41.935	31	18	0	47	77	28	58
SCIL	scpid18763|	9.73e-05	13	102	43.9	54.286	35	15	1	49	83	171	204
SCIL	scpid79131|	1.20e-04	12	101	43.5	41.935	31	18	0	47	77	28	58
SCIL	scpid100043|	1.24e-04	23	100	43.1	37.097	62	38	1	40	101	218	278
SCIL	scpid98319|	1.28e-04	23	100	43.1	37.097	62	38	1	40	101	213	273
SCIL	scpid93466|	2.55e-04	86	98	42.4	24.113	282	135	11	25	251	3	260
SCIL	scpid106418|	7.57e-04	20	92	40.0	35.088	57	33	1	48	100	73	129
SCIL	scpid98957|	8.87e-04	17	93	40.4	43.182	44	24	1	40	83	218	260
SCIL	scpid97252|	8.89e-04	17	93	40.4	43.182	44	24	1	40	83	213	255
SCIL	scpid106144|	0.001	17	90	39.3	37.778	45	26	1	37	81	64	106
SCIL	scpid105313|	0.001	17	90	39.3	37.778	45	26	1	37	81	64	106
SCIL	scpid89033|	0.002	11	90	39.3	46.429	28	15	0	49	76	15	42
SCIL	scpid16661|	0.002	13	92	40.0	40.000	35	21	0	48	82	95	129
SCIL	scpid6773|	0.002	13	92	40.0	39.394	33	20	0	49	81	21	53
SCIL	scpid87952|	0.002	14	91	39.7	37.838	37	23	0	44	80	15	51
SCIL	scpid51877|	0.004	17	89	38.9	45.652	46	19	2	44	89	140	179
SCIL	scpid40615|	0.004	14	89	38.9	47.368	38	19	1	45	82	72	108
SCIL	scpid46699|	0.005	15	89	38.9	45.238	42	20	2	45	84	15	55
SCIL	scpid64679|	0.005	15	88	38.5	40.000	40	23	1	45	84	46	84
SCIL	scpid37607|	0.009	20	86	37.7	35.849	53	32	1	28	80	24	74
SCIL	scpid104136|	0.009	15	82	36.2	40.000	40	23	1	45	84	46	84
SCIL	scpid95158|	0.010	17	85	37.4	45.652	46	19	2	44	89	140	179
SCIL	scpid95927|	0.022	13	83	36.6	47.059	34	17	1	49	82	18	50
SCIL	scpid35497|	0.044	10	81	35.8	44.444	27	15	0	49	75	235	261
SCIL	scpid33388|	0.044	30	81	35.8	36.364	55	34	1	48	102	176	229
SCIL	scpid33388|	2.7	30	67	30.4	33.333	54	30	3	25	76	430	479
SCIL	scpid94630|	0.078	10	76	33.9	40.741	27	16	0	49	75	23	49
SCIL	scpid34300|	0.13	23	77	34.3	30.000	60	39	2	43	102	21	77
SCIL	scpid20356|	0.14	30	77	34.3	28.395	81	52	2	49	128	38	113
SCIL	scpid79394|	0.15	22	76	33.9	33.898	59	35	2	49	107	217	271
SCIL	scpid51446|	0.23	11	75	33.5	43.333	30	16	1	51	80	239	267
SCIL	scpid22364|	0.29	17	74	33.1	35.556	45	28	1	49	93	152	195
SCIL	scpid45626|	0.30	11	74	33.1	43.333	30	17	0	47	76	111	140
SCIL	scpid2649|	0.32	19	74	33.1	30.000	50	34	1	36	85	1201	1249
SCIL	scpid33635|	0.36	11	74	33.1	43.333	30	17	0	47	76	215	244
SCIL	scpid52457|	0.36	26	73	32.7	30.000	70	44	3	8	76	18	83
SCIL	scpid42676|	0.41	11	72	32.3	40.000	30	18	0	47	76	37	66
SCIL	scpid31318|	0.42	10	73	32.7	53.846	26	11	1	51	76	530	554
SCIL	scpid30632|	0.43	10	73	32.7	53.846	26	11	1	51	76	534	558
SCIL	scpid94269|	0.44	11	72	32.3	37.931	29	18	0	49	77	25	53
SCIL	scpid32286|	0.44	10	73	32.7	53.846	26	11	1	51	76	528	552
SCIL	scpid54414|	0.47	12	72	32.3	46.875	32	16	1	45	76	11	41
SCIL	scpid63992|	0.54	14	72	32.3	35.135	37	23	1	48	84	632	667
SCIL	scpid75859|	0.66	14	71	32.0	35.135	37	23	1	48	84	190	225
SCIL	scpid26908|	0.75	10	71	32.0	53.846	26	11	1	51	76	380	404
SCIL	scpid95740|	0.81	20	71	32.0	38.462	65	25	4	47	100	253	313
SCIL	scpid75756|	0.84	13	70	31.6	40.000	35	20	1	47	81	167	200
SCIL	scpid73603|	1.2	16	69	31.2	30.952	42	29	0	35	76	2	43
SCIL	scpid97458|	1.7	11	67	30.4	46.429	28	15	0	49	76	8	35
SCIL	scpid71139|	1.7	15	68	30.8	35.000	40	26	0	46	85	181	220
SCIL	scpid92055|	1.8	11	67	30.4	46.429	28	15	0	49	76	7	34
SCIL	scpid105233|	2.1	11	66	30.0	46.429	28	15	0	49	76	8	35
SCIL	scpid99757|	2.2	11	66	30.0	46.429	28	15	0	49	76	7	34
SCIL	scpid24272|	2.5	13	67	30.4	32.353	34	23	0	43	76	274	307
SCIL	scpid68546|	2.5	17	67	30.4	37.500	48	23	2	31	76	329	371
SCIL	scpid38353|	2.5	10	67	30.4	38.462	26	16	0	51	76	356	381
SCIL	scpid33541|	2.9	10	66	30.0	38.462	26	16	0	51	76	344	369
SCIL	scpid78057|	3.2	11	64	29.3	46.429	28	15	0	49	76	8	35
SCIL	scpid24403|	3.3	10	66	30.0	46.154	26	14	0	51	76	29	54
SCIL	scpid71003|	3.4	11	64	29.3	46.429	28	15	0	49	76	7	34
SCIL	scpid57681|	3.8	19	65	29.6	31.373	51	35	0	53	103	249	299
SCIL	scpid60588|	3.8	19	65	29.6	31.373	51	35	0	53	103	249	299
SCIL	scpid75977|	4.2	10	65	29.6	50.000	26	12	1	51	76	369	393
SCIL	scpid38701|	5.7	24	64	29.3	28.358	67	44	2	5	67	567	633
SCIL	scpid44994|	6.1	27	63	28.9	30.667	75	48	4	28	99	100	173
SCIL	scpid20489|	6.2	14	63	28.9	33.333	36	24	0	51	86	4	39
SCIL	scpid95029|	6.3	16	63	28.9	32.609	46	28	1	49	91	142	187
SCIL	scpid49852|	6.6	11	63	28.9	32.143	28	19	0	49	76	118	145
SCIL	scpid26618|	6.6	12	63	28.9	34.375	32	21	0	51	82	277	308
SCIL	scpid103465|	6.9	22	60	27.7	32.759	58	35	1	49	106	7	60
SCIL	scpid108574|	7.0	11	60	27.7	46.429	28	15	0	49	76	8	35
SCIL	scpid20512|	7.2	24	63	28.9	28.358	67	44	2	5	67	839	905
SCIL	scpid96827|	8.0	14	60	27.7	35.135	37	24	0	40	76	90	126
SCIL	scpid12943|	8.8	10	62	28.5	44.828	29	12	2	51	76	1333	1360
