TSPH	RDD44654.1	3.51e-105	95	801	313	43.003	393	144	7	15	400	8	327
TSPH	RDD43059.1	6.68e-07	14	106	45.4	39.286	56	33	1	44	99	7	61
TSPH	RDD38109.1	7.37e-06	11	111	47.4	45.455	44	23	1	44	87	816	858
TSPH	RDD37163.1	1.09e-05	12	104	44.7	44.444	54	24	3	46	94	126	178
TSPH	RDD40539.1	3.06e-05	19	103	44.3	34.568	81	49	2	46	123	27	106
TSPH	RDD42799.1	1.55e-04	12	100	43.1	43.137	51	26	3	48	97	24	72
TSPH	RDD40811.1	7.04e-04	11	93	40.4	44.186	43	23	1	44	86	22	63
TSPH	RDD38447.1	0.001	11	92	40.0	43.478	46	24	2	45	90	225	268
TSPH	RDD42702.1	0.001	20	89	38.9	26.506	83	57	2	33	112	3	84
TSPH	RDD41665.1	0.002	10	83	36.6	38.636	44	24	2	48	89	64	106
TSPH	RDD40012.1	0.007	11	85	37.4	35.556	45	27	2	47	91	366	408
TSPH	RDD46182.1	0.010	7	85	37.4	46.429	28	15	0	64	91	25	52
TSPH	RDD39918.1	0.010	14	83	36.6	37.288	59	32	3	36	91	209	265
TSPH	RDD45665.1	0.029	12	81	35.8	32.759	58	31	1	41	90	1264	1321
TSPH	RDD41428.1	0.033	21	80	35.4	31.395	86	46	4	8	91	2	76
TSPH	RDD46147.1	0.040	11	78	34.7	35.417	48	26	2	48	91	87	133
TSPH	RDD42076.1	0.093	15	76	33.9	29.032	62	43	1	37	97	276	337
TSPH	RDD46249.1	0.12	14	75	33.5	29.688	64	38	2	34	91	235	297
TSPH	RDD40879.1	0.13	10	73	32.7	36.585	41	23	2	48	88	162	199
TSPH	RDD39670.1	0.15	14	74	33.1	29.091	55	38	1	47	101	185	238
TSPH	RDD47109.1	0.18	19	74	33.1	25.490	102	53	4	48	126	281	382
TSPH	RDD46134.1	0.20	18	74	33.1	27.632	76	44	3	24	97	904	970
TSPH	RDD43416.1	0.23	21	73	32.7	29.670	91	56	6	23	109	25	111
TSPH	RDD45619.1	0.44	13	70	31.6	37.500	56	33	2	44	97	127	182
TSPH	RDD47286.1	0.57	15	70	31.6	28.947	76	38	4	26	87	7	80
TSPH	RDD47872.1	0.58	9	70	31.6	31.579	38	26	0	154	191	55	92
TSPH	RDD37605.1	0.86	13	68	30.8	27.273	55	37	2	47	99	294	347
TSPH	RDD44349.1	1.0	13	66	30.0	23.881	67	36	2	65	116	44	110
TSPH	RDD43768.1	1.8	16	66	30.0	27.027	74	40	5	26	91	326	393
TSPH	RDD45599.1	1.9	10	65	29.6	32.500	40	26	1	48	87	566	604
TSPH	RDD38470.1	1.9	11	64	29.3	29.787	47	31	1	47	91	221	267
TSPH	RDD44773.1	1.9	11	65	29.6	30.435	46	32	0	46	91	21	66
TSPH	RDD47305.1	1.9	17	65	29.6	29.730	74	48	2	19	89	138	210
TSPH	RDD44872.1	3.0	11	63	28.9	29.787	47	30	1	46	89	1	47
TSPH	RDD36597.1	4.9	10	62	28.5	36.585	41	24	2	46	86	129	167
TSPH	RDD38487.1	6.5	8	61	28.1	32.353	34	20	1	58	88	284	317
TSPH	RDD40713.1	7.0	10	60	27.7	40.000	40	23	1	48	86	22	61
TSPH	RDD36831.1	7.2	17	61	28.1	29.577	71	49	1	75	145	143	212
