SURC	m.117589	2.05e-48	35	421	166	50.694	144	71	0	12	155	24	167
SURC	m.181542	1.10e-08	24	133	55.8	34.211	76	46	2	40	112	91	165
SURC	m.181542	0.81	24	70	31.6	44.000	25	14	0	283	307	244	268
SURC	m.5825	7.49e-07	20	120	50.8	34.091	88	51	4	42	124	223	308
SURC	m.185605	3.75e-06	11	114	48.5	41.304	46	26	1	48	93	120	164
SURC	m.256554	1.17e-05	13	110	47.0	34.615	52	33	1	41	91	176	227
SURC	m.132448	3.91e-05	16	106	45.4	31.250	64	42	2	46	109	262	323
SURC	m.342986	4.94e-05	22	105	45.1	26.667	90	64	2	29	118	28	115
SURC	m.48931	5.99e-05	10	105	45.1	41.667	48	22	1	46	87	68	115
SURC	m.71513	9.00e-05	15	102	43.9	37.143	70	34	4	45	106	175	242
SURC	m.256582	9.99e-05	13	103	44.3	34.615	52	33	1	41	91	176	227
SURC	m.284516	1.28e-04	12	103	44.3	40.678	59	25	2	44	93	1020	1077
SURC	m.292892	1.55e-04	20	100	43.1	28.750	80	54	1	45	124	65	141
SURC	m.104673	2.28e-04	24	99	42.7	30.097	103	61	5	42	137	307	405
SURC	m.168773	2.93e-04	13	98	42.4	35.185	54	34	1	41	94	51	103
SURC	m.292966	3.14e-04	16	99	42.7	28.788	66	47	0	45	110	370	435
SURC	m.117699	4.53e-04	19	93	40.4	32.609	92	39	5	46	124	22	103
SURC	m.168758	6.93e-04	13	92	40.0	35.185	54	34	1	41	94	51	103
SURC	m.293000	0.001	16	93	40.4	28.788	66	47	0	45	110	370	435
SURC	m.173202	0.003	14	91	39.7	40.000	55	30	3	45	99	49	100
SURC	m.90958	0.003	14	90	39.3	37.931	58	33	3	48	105	233	287
SURC	m.134178	0.004	12	83	36.6	38.776	49	29	1	39	87	44	91
SURC	m.102896	0.005	12	88	38.5	36.170	47	28	2	45	91	252	296
SURC	m.63892	0.006	10	88	38.5	36.364	44	26	1	48	89	445	488
SURC	m.178860	0.008	11	86	37.7	36.957	46	27	1	48	91	8	53
SURC	m.188528	0.009	17	87	38.1	28.378	74	48	3	42	112	333	404
SURC	m.71004	0.012	12	86	37.7	29.787	47	32	1	42	88	815	860
SURC	m.188733	0.013	12	85	37.4	38.776	49	27	2	47	93	275	322
SURC	m.192004	0.021	16	84	37.0	31.250	64	40	3	40	103	51	110
SURC	m.61163	0.021	13	83	36.6	32.759	58	35	1	44	97	8	65
SURC	m.39346	0.025	13	83	36.6	33.962	53	34	1	42	93	96	148
SURC	m.264577	0.025	11	83	36.6	33.962	53	27	2	48	93	969	1020
SURC	m.495770	0.028	9	83	36.6	37.500	40	23	1	41	78	262	301
SURC	m.85960	0.038	12	81	35.8	33.898	59	27	3	43	92	127	182
SURC	m.291389	0.039	7	81	35.8	37.500	32	18	1	44	73	536	567
SURC	m.487238	0.044	11	81	35.8	37.778	45	26	2	47	91	595	637
SURC	m.359851	0.048	14	80	35.4	36.667	60	33	2	44	98	118	177
SURC	m.465253	0.073	20	79	35.0	31.818	88	46	3	17	97	77	157
SURC	m.93049	0.076	12	79	35.0	35.294	51	29	2	43	89	56	106
SURC	m.191257	0.088	19	79	35.0	25.316	79	55	2	19	94	95	172
SURC	m.54751	0.10	11	73	32.7	36.957	46	28	1	42	87	21	65
SURC	m.191990	0.10	16	77	34.3	31.250	64	40	3	40	103	51	110
SURC	m.113397	0.11	10	77	34.3	39.535	43	23	2	48	88	481	522
SURC	m.37016	0.13	11	76	33.9	33.333	48	29	2	48	93	213	259
SURC	m.98210	0.20	13	75	33.5	31.481	54	34	3	45	97	62	113
SURC	m.113568	0.33	13	74	33.1	34.483	58	33	2	36	88	386	443
SURC	m.4062	0.34	13	72	32.3	32.692	52	33	2	38	88	21	71
SURC	m.42043	0.42	12	73	32.7	32.692	52	29	2	47	93	353	403
SURC	m.254027	0.58	17	72	32.3	26.829	82	46	3	46	115	1261	1340
SURC	m.35408	0.60	16	70	31.6	32.353	68	40	3	45	110	54	117
SURC	m.406323	0.70	23	71	32.0	25.510	98	67	2	16	107	758	855
SURC	m.284509	0.72	12	70	31.6	30.508	59	21	2	44	93	18	65
SURC	m.486815	0.77	14	70	31.6	30.357	56	33	2	48	103	62	111
SURC	m.170322	0.84	11	70	31.6	29.787	47	29	1	48	90	149	195
SURC	m.406308	0.90	23	70	31.6	25.510	98	67	2	16	107	802	899
SURC	m.284583	0.95	13	67	30.4	30.000	60	22	2	44	94	18	66
SURC	m.313258	1.0	18	69	31.2	29.114	79	49	2	20	91	264	342
SURC	m.164359	1.4	15	68	30.8	37.500	64	30	3	191	250	311	368
SURC	m.151838	1.9	13	65	29.6	32.258	62	34	3	20	73	30	91
SURC	m.140997	2.0	12	66	30.0	31.481	54	33	2	48	97	252	305
SURC	m.57537	2.7	13	65	29.6	33.962	53	33	1	19	71	54	104
SURC	m.148069	2.7	15	66	30.0	36.364	66	37	3	134	194	15	80
SURC	m.1395	3.0	13	64	29.3	36.538	52	25	2	46	97	58	101
SURC	m.491511	3.4	10	65	29.6	34.884	43	23	2	48	88	37	76
SURC	m.69602	3.4	11	65	29.6	40.909	44	26	0	181	224	82	125
SURC	m.148051	5.1	15	63	28.9	36.364	66	37	3	134	194	15	80
SURC	m.399045	7.3	19	63	28.9	30.120	83	50	4	126	202	293	373
SURC	m.56179	7.4	9	63	28.9	36.585	41	20	2	60	94	892	932
SURC	m.18125	7.7	17	62	28.5	34.286	70	41	3	268	337	636	700
SURC	m.398770	8.9	18	62	28.5	30.769	78	46	4	126	197	293	368
SURC	m.326311	9.3	8	62	28.5	54.286	35	14	2	173	205	219	253
