MBRE	XP_001748055.1	3.89e-11	23	157	65.1	42.857	70	39	1	106	174	2705	2774
MBRE	XP_001748055.1	0.007	23	88	38.5	29.412	68	47	1	2	68	2710	2777
MBRE	XP_001749884.1	0.005	16	88	38.5	33.000	100	60	4	1	96	681	777
MBRE	XP_001749476.1	0.049	8	80	35.4	32.653	49	33	0	532	580	458	506
MBRE	XP_001744741.1	0.053	10	80	35.4	32.203	59	39	1	523	581	111	168
MBRE	XP_001750663.1	0.15	7	75	33.5	40.476	42	24	1	532	572	363	404
MBRE	XP_001749376.1	0.16	8	75	33.5	38.000	50	30	1	530	579	280	328
MBRE	XP_001748407.1	0.16	8	76	33.9	38.776	49	27	2	531	579	493	538
MBRE	XP_001750598.1	0.48	12	71	32.0	30.435	69	45	2	528	596	297	362
MBRE	XP_001744317.1	0.56	15	71	32.0	26.136	88	59	3	128	214	416	498
MBRE	XP_001749995.1	1.3	8	68	30.8	33.333	45	30	0	93	137	206	250
MBRE	XP_001748284.1	1.5	10	68	30.8	36.923	65	30	3	185	245	1370	1427
MBRE	XP_001748732.1	2.3	10	66	30.0	26.562	64	43	2	216	275	6384	6447
MBRE	XP_001749343.1	3.0	7	64	29.3	30.000	40	28	0	2	41	264	303
MBRE	XP_001747032.1	3.0	5	64	29.3	48.276	29	15	0	535	563	78	106
MBRE	XP_001746494.1	6.8	8	62	28.5	30.000	50	33	2	522	571	1279	1326
MBRE	XP_001748706.1	8.5	18	61	28.1	35.000	120	57	6	427	533	515	626
MBRE	XP_001744734.1	8.8	9	60	27.7	31.481	54	37	0	481	534	99	152
