SURC	m.86770	6.33e-15	27	192	78.6	45.833	72	36	1	106	174	776	847
SURC	m.86770	9.59e-06	27	114	48.5	31.959	97	60	3	1	94	780	873
SURC	m.470192	2.45e-13	29	178	73.2	34.351	131	74	3	56	174	146	276
SURC	m.470192	0.051	29	83	36.6	26.389	72	49	1	1	68	208	279
SURC	m.26151	7.38e-11	22	157	65.1	44.595	74	36	2	106	174	340	413
SURC	m.26151	0.36	22	75	33.5	30.435	69	43	2	2	65	345	413
SURC	m.23043	2.19e-08	12	134	56.2	42.667	75	41	2	522	595	306	379
SURC	m.277862	2.24e-06	10	107	45.8	41.935	62	32	2	533	593	17	75
SURC	m.56179	0.002	9	94	40.8	35.714	56	34	1	106	161	215	268
SURC	m.512869	0.004	7	91	39.7	39.535	43	26	0	529	571	263	305
SURC	m.323211	0.11	8	80	35.4	34.694	49	32	0	532	580	423	471
SURC	m.146840	0.16	9	78	34.7	37.037	54	33	1	106	158	87	140
SURC	m.136622	0.19	9	77	34.3	35.849	53	32	1	521	573	315	365
SURC	m.166018	0.20	10	77	34.3	26.667	60	42	2	102	160	25	83
SURC	m.268602	0.32	7	76	33.9	39.535	43	24	1	526	568	1061	1101
SURC	m.210748	0.60	8	73	32.7	31.250	48	31	1	530	577	541	586
SURC	m.30600	0.70	13	72	32.3	33.333	75	40	3	521	595	321	385
SURC	m.444993	0.74	8	73	32.7	36.957	46	27	1	528	573	466	509
SURC	m.301727	1.2	29	71	32.0	25.843	178	105	9	96	267	304	460
SURC	m.483658	1.9	11	69	31.2	31.746	63	41	1	532	594	37	97
SURC	m.18769	3.4	8	67	30.4	31.250	48	31	1	528	575	313	358
SURC	m.133457	3.7	2	63	28.9	64.286	14	5	0	93	106	36	49
SURC	m.429620	6.5	6	60	27.7	36.842	38	23	1	555	592	43	79
SURC	m.72404	6.6	8	65	29.6	40.816	49	27	1	520	568	558	604
SURC	m.429622	9.0	7	59	27.3	36.585	41	25	1	555	595	43	82
