NCRA	XP_962994.2	0.020	12	83	36.6	28.571	70	46	3	531	599	66	132
NCRA	XP_956774.1	0.32	8	73	32.7	38.000	50	28	2	530	579	67	113
NCRA	XP_965369.1	4.4	6	63	28.9	37.143	35	19	1	524	558	192	223
NCRA	XP_964266.3	9.3	3	60	27.7	66.667	15	5	0	108	122	119	133
NCRA	XP_961706.1	9.6	7	61	28.1	32.500	40	27	0	467	506	284	323
