SINF	m.10178	5.61e-17	29	208	84.7	48.148	81	34	2	97	174	644	719
SINF	m.10178	2.24e-07	29	127	53.5	30.476	105	67	3	1	102	652	753
SINF	m.56242	5.83e-10	24	149	62.0	43.284	67	37	1	109	174	218	284
SINF	m.56242	0.009	24	88	38.5	27.500	80	56	2	1	79	219	297
SINF	m.363995	0.011	8	88	38.5	35.294	51	30	2	530	579	1736	1784
SINF	m.346672	0.029	13	84	37.0	26.923	78	56	1	520	597	878	954
SINF	m.124187	0.11	11	79	35.0	31.343	67	44	1	528	594	419	483
SINF	m.59837	0.28	11	73	32.7	26.154	65	43	1	530	594	123	182
SINF	m.15021	0.29	8	75	33.5	33.962	53	30	1	531	578	360	412
SINF	m.263152	0.98	11	71	32.0	25.758	66	48	1	529	594	750	814
SINF	m.301208	1.3	19	69	31.2	26.984	126	69	6	91	201	230	347
SINF	m.165111	1.6	15	68	30.8	26.136	88	64	1	20	107	142	228
SINF	m.356832	2.3	8	68	30.8	34.694	49	29	2	532	579	464	510
SINF	m.38813	3.8	12	65	29.6	28.395	81	47	2	24	93	219	299
SINF	m.53659	4.8	16	65	29.6	30.208	96	57	4	213	305	1281	1369
SINF	m.30614	4.8	11	65	29.6	26.087	69	47	2	92	158	88	154
SINF	m.61506	5.1	9	65	29.6	37.255	51	30	1	518	568	126	174
SINF	m.365968	5.9	3	60	27.7	55.556	18	8	0	151	168	15	32
SINF	m.5927	7.3	17	63	28.9	28.431	102	62	5	476	576	127	218
SINF	m.151626	7.4	4	63	28.9	38.462	26	16	0	136	161	64	89
SINF	m.341346	8.1	13	63	28.9	33.750	80	48	3	233	309	622	699
SINF	m.116310	8.3	7	62	28.5	34.091	44	24	1	2	40	151	194
