SDIP.australia	m.1043636	3.82e-16	34	202	82.4	42.105	133	61	7	108	230	763	889
SDIP.australia	m.1043636	2.99e-10	34	153	63.5	34.884	86	52	1	1	82	765	850
SDIP.australia	m.1202131	1.24e-14	33	189	77.4	30.986	142	92	2	36	174	2369	2507
SDIP.australia	m.1202131	2.58e-07	33	128	53.9	29.167	96	66	2	1	96	2443	2536
SDIP.australia	m.1202131	0.002	33	96	41.6	31.193	109	57	4	109	199	2052	2160
SDIP.australia	m.1202131	0.002	33	96	41.6	35.897	78	40	3	1	68	2053	2130
SDIP.australia	m.643784	0.012	9	88	38.5	38.462	52	31	1	528	579	326	376
SDIP.australia	m.1124285	0.014	10	87	38.1	40.351	57	34	0	106	162	90	146
SDIP.australia	m.266704	0.044	9	83	36.6	33.962	53	31	2	111	161	12	62
SDIP.australia	m.1122336	0.068	10	80	35.4	35.000	60	35	2	105	162	67	124
SDIP.australia	m.1122409	0.087	10	81	35.8	35.000	60	35	2	105	162	67	124
SDIP.australia	m.292229	0.14	12	78	34.7	32.394	71	40	3	528	598	272	334
SDIP.australia	m.846098	0.37	8	75	33.5	38.776	49	27	2	531	579	15	60
SDIP.australia	m.1025324	2.0	9	69	31.2	35.849	53	32	2	106	158	242	292
SDIP.australia	m.8982	2.6	15	68	30.8	25.773	97	58	2	179	269	351	439
SDIP.australia	m.402699	3.0	10	68	30.8	25.373	67	43	1	520	579	540	606
SDIP.australia	m.864994	3.7	9	67	30.4	28.814	59	37	1	499	552	1143	1201
SDIP.australia	m.151065	4.7	11	61	28.1	31.818	66	44	1	451	515	5	70
SDIP.australia	m.22975	4.9	11	63	28.9	29.167	72	45	3	232	297	20	91
SDIP.australia	m.1084284	7.4	11	65	29.6	32.836	67	41	2	527	590	1031	1096
SDIP.australia	m.1170258	9.0	11	62	28.5	30.263	76	43	3	500	567	61	134
