ASPE	m.73694	1.37e-14	25	189	77.4	43.590	78	37	1	104	174	95	172
ASPE	m.73694	0.024	25	86	37.7	24.706	85	56	2	1	78	101	184
ASPE	m.43162	5.77e-14	27	185	75.9	43.056	72	38	1	106	174	758	829
ASPE	m.43162	4.80e-05	27	109	46.6	30.851	94	61	2	1	91	762	854
ASPE	m.196958	1.27e-11	29	165	68.2	37.647	85	46	2	97	174	3787	3871
ASPE	m.196958	0.018	29	88	38.5	27.523	109	69	3	1	102	3800	3905
ASPE	m.116802	1.49e-08	29	138	57.8	38.356	73	39	2	109	175	856	928
ASPE	m.116802	3.31e-07	29	127	53.5	36.986	73	37	3	108	174	386	455
ASPE	m.116802	5.16e-07	29	125	52.8	34.615	78	44	3	106	177	620	696
ASPE	m.116802	1.26e-05	29	114	48.5	33.036	112	60	5	1	100	857	965
ASPE	m.116802	5.11e-05	29	109	46.6	31.250	96	56	5	1	90	624	715
ASPE	m.116811	2.57e-08	29	136	57.0	38.356	73	39	2	109	175	422	494
ASPE	m.116811	5.14e-08	29	133	55.8	36.250	80	44	3	104	177	184	262
ASPE	m.116811	6.91e-06	29	115	48.9	33.036	112	60	5	1	100	423	531
ASPE	m.116811	2.54e-05	29	111	47.4	31.250	96	56	5	1	90	190	281
ASPE	m.116811	0.029	29	85	37.4	31.579	57	33	2	124	174	6	62
ASPE	m.59563	1.12e-06	26	123	52.0	30.928	97	63	1	82	174	2929	3025
ASPE	m.59563	0.007	26	91	39.7	30.435	69	44	1	1	65	2957	3025
ASPE	m.28929	0.009	12	89	38.9	34.783	69	45	0	94	162	58	126
ASPE	m.141108	0.026	15	86	37.7	31.915	94	58	3	190	280	81	171
ASPE	m.141208	0.030	15	86	37.7	31.915	94	58	3	190	280	81	171
ASPE	m.445591	0.16	10	79	35.0	36.508	63	36	3	537	598	1015	1074
ASPE	m.457225	0.21	14	78	34.7	29.348	92	48	4	490	574	924	1005
ASPE	m.8864	0.27	13	78	34.7	30.263	76	50	2	504	579	270	342
ASPE	m.432843	0.53	12	75	33.5	31.169	77	46	2	86	155	400	476
ASPE	m.68957	0.84	7	73	32.7	41.860	43	23	1	532	574	16	56
ASPE	m.100750	0.84	25	73	32.7	23.899	159	95	4	99	245	81	225
ASPE	m.45295	1.0	15	73	32.7	26.667	90	64	1	337	424	818	907
ASPE	m.193244	1.4	11	71	32.0	29.412	68	44	2	517	580	8	75
ASPE	m.443210	1.6	16	70	31.6	29.703	101	63	5	498	594	131	227
ASPE	m.67477	1.7	6	68	30.8	41.667	36	21	0	126	161	136	171
ASPE	m.219499	2.6	13	69	31.2	32.911	79	46	2	250	328	2197	2268
ASPE	m.29245	2.8	12	69	31.2	28.767	73	49	3	223	294	1674	1744
ASPE	m.451804	3.0	6	68	30.8	44.444	36	17	1	259	294	548	580
ASPE	m.51458	3.1	8	68	30.8	34.694	49	29	2	532	580	289	334
ASPE	m.188192	3.1	7	60	27.7	35.714	42	25	1	529	568	3	44
ASPE	m.381630	3.6	13	64	29.3	27.160	81	55	2	479	555	18	98
ASPE	m.110793	5.0	8	66	30.0	31.111	45	31	0	532	576	126	170
ASPE	m.67828	5.7	10	66	30.0	35.593	59	33	2	226	282	1612	1667
ASPE	m.355344	7.1	5	59	27.3	42.424	33	18	1	505	536	17	49
ASPE	m.455163	7.4	12	65	29.6	28.986	69	43	2	174	242	283	345
ASPE	m.460603	8.2	8	65	29.6	31.481	54	31	2	93	141	295	347
