OCAR	m.43935	5.46e-40	30	375	149	41.489	188	99	4	1	179	121	306
OCAR	m.43935	1.99e-31	30	312	124	35.638	188	104	4	1	174	1	185
OCAR	m.43870	8.90e-38	30	374	148	41.451	193	100	5	1	182	437	627
OCAR	m.43870	6.68e-30	30	312	124	35.638	188	104	4	1	174	317	501
OCAR	m.43870	6.45e-26	30	280	112	35.632	174	106	4	1	174	553	720
OCAR	m.43870	1.40e-15	30	195	79.7	47.945	73	38	0	106	178	313	385
OCAR	m.43870	6.89e-09	30	139	58.2	40.299	67	40	0	1	67	656	722
OCAR	m.61368	5.57e-19	29	212	86.3	53.846	78	35	1	99	176	79	155
OCAR	m.61368	6.06e-07	29	119	50.4	31.068	103	60	2	1	94	89	189
OCAR	m.61358	3.63e-18	24	210	85.5	53.846	78	35	1	99	176	79	155
OCAR	m.61358	1.18e-06	24	119	50.4	38.462	65	40	0	1	65	89	153
OCAR	m.311052	1.22e-09	12	141	58.9	43.056	72	39	1	524	595	179	248
OCAR	m.14233	8.54e-09	14	139	58.2	32.927	82	53	1	515	596	888	967
OCAR	m.27369	9.65e-09	11	137	57.4	40.299	67	38	1	529	595	343	407
OCAR	m.78950	7.92e-08	11	129	54.3	40.299	67	38	1	529	595	311	375
OCAR	m.36296	0.001	23	96	41.6	27.660	141	94	4	458	594	12	148
OCAR	m.17398	0.004	8	91	39.7	42.000	50	25	2	532	580	390	436
OCAR	m.12112	0.030	8	84	37.0	34.043	47	29	1	527	573	783	827
OCAR	m.304511	0.11	10	80	35.4	40.323	62	31	3	527	587	5215	5271
OCAR	m.244167	0.11	15	79	35.0	27.778	90	51	1	210	299	925	1000
OCAR	m.304523	0.11	10	80	35.4	40.323	62	31	3	527	587	5185	5241
OCAR	m.189928	0.36	9	74	33.1	28.571	63	38	1	506	561	205	267
OCAR	m.12968	0.68	7	73	32.7	45.000	40	21	1	548	587	1989	2027
OCAR	m.61376	0.74	4	67	30.4	60.000	25	9	1	99	123	79	102
OCAR	m.117099	0.95	10	71	32.0	36.667	60	33	2	519	576	426	482
OCAR	m.223360	1.4	8	70	31.6	36.538	52	29	2	106	155	20	69
OCAR	m.157154	1.9	9	69	31.2	38.462	52	30	2	544	594	465	515
OCAR	m.52638	3.0	12	66	30.0	23.288	73	54	1	527	599	150	220
OCAR	m.126548	3.6	11	67	30.4	30.303	66	44	1	532	597	1474	1537
OCAR	m.233539	4.4	8	66	30.0	32.653	49	30	2	531	579	266	311
OCAR	m.24293	4.5	12	66	30.0	30.986	71	37	2	126	196	1164	1222
OCAR	m.76415	5.9	7	64	29.3	39.535	43	24	1	523	565	463	503
OCAR	m.38241	6.0	12	64	29.3	28.000	75	47	3	528	596	325	398
OCAR	m.28473	7.9	11	63	28.9	33.333	66	42	2	145	209	5	69
