MSQU	KAF1741478.1	1.5	5	58	26.9	40.741	27	16	0	378	404	46	72
MSQU	KAF1742613.1	2.3	4	60	27.7	42.308	26	12	1	136	158	271	296
MSQU	KAF1741926.1	2.5	4	54	25.4	38.462	26	16	0	330	355	20	45
MSQU	KAF1743682.1	2.6	14	59	27.3	29.070	86	40	3	152	235	65	131
MSQU	KAF1742233.1	8.0	11	55	25.8	26.923	78	46	2	313	379	123	200
