HMIA	HMIM011915-PA	1.92e-63	41	555	218	56.571	175	76	0	1	175	50	224
HMIA	HMIM011915-PA	1.64e-17	41	210	85.5	52.941	68	32	0	529	596	492	559
HMIA	HMIM011915-PA	4.09e-08	41	132	55.5	34.615	104	65	2	71	174	14	114
HMIA	HMIM011915-PA	0.12	41	78	34.7	29.412	68	48	0	2	69	160	227
HMIA	HMIM011915-PA	3.4	41	66	30.0	36.364	33	21	0	529	561	405	437
HMIA	HMIM020586-PA	2.41e-17	31	208	84.7	38.060	134	74	5	53	183	403	530
HMIA	HMIM020586-PA	2.66e-10	31	150	62.4	27.841	176	118	5	1	168	107	281
HMIA	HMIM020586-PA	4.08e-08	31	132	55.5	44.615	65	36	0	1	65	454	518
HMIA	HMIM003077-PA	2.62e-11	11	159	65.9	45.455	66	35	1	532	597	624	688
HMIA	HMIM021214-PA	1.30e-07	41	128	53.9	40.845	71	41	1	109	178	126	196
HMIA	HMIM021214-PA	5.45e-05	41	106	45.4	37.879	66	40	1	530	595	503	567
HMIA	HMIM021214-PA	2.09e-04	41	101	43.5	37.333	75	37	3	106	174	292	362
HMIA	HMIM021214-PA	0.001	41	94	40.8	29.457	129	85	5	1	125	127	253
HMIA	HMIM021214-PA	0.082	41	80	35.4	35.000	60	33	2	2	55	297	356
HMIA	HMIM012075-PA	3.74e-07	11	123	52.0	36.765	68	41	1	528	595	300	365
HMIA	HMIM015308-PA	4.30e-07	42	125	52.8	31.944	72	47	1	528	599	1293	1362
HMIA	HMIM015308-PA	5.44e-05	42	107	45.8	26.590	173	102	7	16	168	550	717
HMIA	HMIM015308-PA	0.003	42	93	40.4	26.606	109	73	3	75	179	808	913
HMIA	HMIM015308-PA	0.49	42	74	33.1	26.220	164	102	7	1	149	649	808
HMIA	HMIM015308-PA	6.6	42	64	29.3	29.412	68	44	2	2	65	841	908
HMIA	HMIM020584-PA	0.11	24	76	33.9	27.333	150	74	5	1	142	38	160
HMIA	HMIM004330-PA	0.15	9	72	32.3	32.692	52	33	2	529	579	10	60
HMIA	HMIM000694-PA	0.51	9	73	32.7	31.481	54	32	2	106	157	4	54
HMIA	HMIM009419-PA	1.5	20	70	31.6	27.642	123	66	5	164	280	7679	7784
HMIA	HMIM020384-PA	2.0	11	68	30.8	30.769	65	44	1	216	279	32	96
HMIA	HMIM008875-PA	4.4	20	66	30.0	22.556	133	87	5	182	298	2487	2619
HMIA	HMIM007932-PA	6.9	5	64	29.3	37.931	29	16	1	530	558	370	396
HMIA	HMIM020059-PA	7.4	8	63	28.9	33.962	53	29	2	439	485	294	346
