COWC	XP_004346955.2	3.65e-19	33	219	89.0	30.049	203	112	6	17	197	228	422
COWC	XP_004346955.2	1.23e-07	33	126	53.1	35.714	98	59	4	1	97	324	418
COWC	XP_004348442.1	0.050	10	73	32.7	34.483	58	36	2	525	582	5	60
COWC	XP_004349356.1	1.3	6	67	30.4	40.541	37	20	1	532	568	255	289
COWC	XP_004346774.2	1.8	10	67	30.4	31.034	58	38	2	530	587	9	64
COWC	XP_004365004.1	2.9	6	65	29.6	42.857	35	19	1	531	565	191	224
COWC	XP_004365968.2	3.1	9	65	29.6	23.636	55	35	2	102	152	466	517
COWC	XP_004344355.2	4.0	13	64	29.3	30.488	82	50	3	209	285	197	276
COWC	XP_004347039.1	5.8	8	63	28.9	28.070	57	31	2	106	152	1002	1058
