SPAR	m.129792	7.17e-17	29	207	84.3	42.045	88	44	1	94	174	60	147
SPAR	m.129792	5.10e-04	29	99	42.7	27.835	97	60	3	1	90	76	169
SPAR	m.23454	3.61e-15	29	193	79.0	45.833	72	36	1	106	174	777	848
SPAR	m.23454	3.04e-06	29	118	50.1	31.429	105	64	3	1	102	781	880
SPAR	m.266335	2.71e-10	28	138	57.8	41.667	72	36	2	109	174	5	76
SPAR	m.266335	0.004	28	85	37.4	29.907	107	66	5	1	101	6	109
SPAR	m.241127	8.24e-09	9	128	53.9	44.068	59	26	1	107	158	72	130
SPAR	m.123365	0.18	10	78	34.7	33.898	59	37	1	537	595	1095	1151
SPAR	m.117724	0.57	14	67	30.4	31.707	82	53	2	446	527	3	81
SPAR	m.82738	0.61	11	72	32.3	35.294	68	36	3	474	538	204	266
SPAR	m.219113	1.1	9	71	32.0	33.333	51	34	0	526	576	89	139
SPAR	m.10714	1.3	8	65	29.6	31.250	48	31	1	518	565	15	60
SPAR	m.86924	1.7	9	69	31.2	32.692	52	31	2	309	360	270	317
SPAR	m.10711	2.0	8	65	29.6	31.250	48	31	1	518	565	15	60
SPAR	m.93966	2.1	10	67	30.4	25.862	58	43	0	105	162	94	151
SPAR	m.28035	2.3	11	68	30.8	30.303	66	36	3	90	155	1108	1163
SPAR	m.86894	2.4	9	68	30.8	32.692	52	31	2	309	360	270	317
SPAR	m.61861	2.9	5	65	29.6	37.500	32	20	0	284	315	109	140
SPAR	m.185826	3.4	10	66	30.0	33.333	57	38	0	106	162	75	131
SPAR	m.150869	3.7	11	67	30.4	29.688	64	44	1	227	289	1055	1118
SPAR	m.36490	5.5	8	65	29.6	39.216	51	29	2	548	597	652	701
SPAR	m.92493	7.2	16	64	29.3	25.743	101	65	4	343	436	472	569
SPAR	m.166907	7.6	11	63	28.9	25.000	76	46	1	51	115	5	80
SPAR	m.11626	8.0	15	64	29.3	30.693	101	52	6	232	320	168	262
SPAR	m.135763	9.1	12	63	28.9	33.784	74	44	2	226	297	426	496
SPAR	m.83135	9.8	7	58	26.9	30.952	42	29	0	185	226	44	85
