HGRA	m.185670	1.31e-15	24	195	79.7	50.000	70	31	2	109	174	714	783
HGRA	m.185670	8.14e-09	24	138	57.8	37.349	83	47	2	1	79	715	796
HGRA	m.128677	1.04e-09	24	145	60.5	39.706	68	40	1	108	174	293	360
HGRA	m.128677	4.94e-06	24	114	48.5	30.000	80	55	1	1	79	295	374
HGRA	m.158492	8.60e-04	17	96	41.6	29.808	104	69	4	496	597	326	427
HGRA	m.162264	0.18	11	75	33.5	31.343	67	44	2	532	596	297	363
HGRA	m.44547	0.29	9	73	32.7	33.333	51	33	1	530	580	112	161
HGRA	m.26940	0.38	11	73	32.7	36.508	63	37	2	518	580	129	188
HGRA	m.75234	0.48	9	66	30.0	33.929	56	34	2	532	587	23	75
HGRA	m.210537	1.2	10	70	31.6	41.860	43	19	2	530	570	573	611
HGRA	m.210537	8.4	10	62	28.5	30.000	60	39	2	520	579	487	543
HGRA	m.113122	1.6	9	67	30.4	31.034	58	36	2	106	161	16	71
HGRA	m.70451	2.2	10	66	30.0	28.333	60	41	1	517	576	196	253
HGRA	m.61745	4.0	6	62	28.5	36.842	38	24	0	405	442	84	121
HGRA	m.26753	4.7	5	64	29.3	45.161	31	16	1	266	296	209	238
HGRA	m.26767	5.2	5	64	29.3	45.161	31	16	1	266	296	209	238
HGRA	m.221363	5.3	10	64	29.3	31.148	61	37	2	528	585	279	337
HGRA	m.251752	6.2	4	56	26.2	46.154	26	14	0	267	292	21	46
HGRA	m.124685	6.8	7	62	28.5	33.333	42	28	0	246	287	238	279
HGRA	m.80177	7.1	7	63	28.9	31.707	41	28	0	503	543	524	564
HGRA	m.16021	8.0	8	62	28.5	36.364	55	30	2	418	467	1524	1578
