AQUE	XP_011407373.1	1.68e-31	29	303	121	38.919	185	96	6	1	174	1	179
AQUE	XP_011407373.1	1.41e-12	29	162	67.0	37.234	94	56	2	1	94	115	205
AQUE	XP_019851431.1	5.51e-31	29	321	128	37.500	176	104	4	1	174	364	535
AQUE	XP_019851431.1	2.25e-29	29	308	123	38.919	185	96	6	1	174	470	648
AQUE	XP_019851431.1	1.16e-16	29	204	83.2	49.275	69	35	0	106	174	360	428
AQUE	XP_019851431.1	7.71e-12	29	165	68.2	37.234	94	56	2	1	94	584	674
AQUE	XP_019859992.1	2.06e-30	30	297	119	38.378	185	97	6	1	174	20	198
AQUE	XP_019859992.1	2.79e-16	30	191	78.2	44.000	75	41	1	105	178	15	89
AQUE	XP_019859992.1	4.80e-12	30	159	65.9	36.170	94	57	2	1	94	134	224
AQUE	XP_019862451.1	1.26e-19	27	206	84.0	52.308	65	31	0	110	174	1	65
AQUE	XP_019862451.1	1.18e-12	27	154	63.9	37.234	94	56	2	1	94	1	91
AQUE	XP_019862072.1	2.15e-14	12	166	68.6	49.275	69	34	1	528	596	8	75
AQUE	XP_019855926.1	3.79e-14	41	184	75.5	27.636	275	164	7	352	596	438	707
AQUE	XP_011405944.2	1.06e-13	41	180	73.9	28.458	253	158	8	352	596	438	675
AQUE	XP_019863008.1	5.45e-09	11	128	53.9	39.706	68	39	1	529	596	37	102
AQUE	XP_011404240.2	4.91e-08	11	132	55.5	40.299	67	38	1	529	595	340	404
AQUE	XP_019850209.1	1.47e-07	11	126	53.1	40.909	66	33	2	532	595	214	275
AQUE	XP_019850208.1	1.48e-07	11	126	53.1	40.909	66	33	2	532	595	217	278
AQUE	XP_019850207.1	1.57e-07	11	126	53.1	40.909	66	33	2	532	595	232	293
AQUE	XP_019850206.1	1.63e-07	11	126	53.1	40.909	66	33	2	532	595	235	296
AQUE	XP_019852585.1	0.005	21	92	40.0	28.125	128	82	5	173	298	2081	2200
AQUE	XP_019852585.1	0.005	21	92	40.0	28.125	128	82	5	173	298	2115	2234
AQUE	XP_019852585.1	0.024	21	86	37.7	29.688	128	77	7	173	291	2149	2272
AQUE	XP_019852585.1	0.053	21	83	36.6	26.400	125	84	4	176	298	2048	2166
AQUE	XP_019852585.1	0.32	21	76	33.9	25.984	127	87	4	173	298	2183	2303
AQUE	XP_019852585.1	0.68	21	73	32.7	25.581	129	77	7	173	295	2172	2287
AQUE	XP_003384081.1	0.15	22	78	34.7	31.655	139	83	5	164	294	66	200
AQUE	XP_019853491.1	0.88	8	72	32.3	31.250	48	33	0	106	153	42	89
AQUE	XP_019853492.1	0.90	8	72	32.3	31.250	48	33	0	106	153	42	89
AQUE	XP_019856737.1	1.6	8	70	31.6	41.304	46	26	1	548	593	2698	2742
AQUE	XP_003382626.3	1.9	19	70	31.6	26.271	118	70	5	173	284	35	141
AQUE	XP_019859057.1	3.5	11	66	30.0	26.471	68	49	1	234	300	170	237
AQUE	XP_011402513.1	7.5	8	64	29.3	34.043	47	31	0	444	490	608	654
AQUE	XP_019849366.1	9.6	9	63	28.9	27.273	55	40	0	404	458	168	222
